UART/RXD /rxd_shift/simulation/qsim/rxd_shift.msim.vcd
$comment
	File created using the following command:
		vcd file rxd_shift.msim.vcd -direction
$end
$date
	Wed Nov 11 11:38:17 2015
$end
$version
	ModelSim Version 10.1d
$end
$timescale
	1ps
$end
$scope module rxd_shift_vlg_vec_tst $end
$var reg 1 ! clk $end
$var reg 1 " load $end
$var reg 1 # reset $end
$var reg 1 $ rshift $end
$var reg 1 % serial_in $end
$var wire 1 & data [10] $end
$var wire 1 ' data [9] $end
$var wire 1 ( data [8] $end
$var wire 1 ) data [7] $end
$var wire 1 * data [6] $end
$var wire 1 + data [5] $end
$var wire 1 , data [4] $end
$var wire 1 - data [3] $end
$var wire 1 . data [2] $end
$var wire 1 / data [1] $end
$var wire 1 0 data [0] $end
$var wire 1 1 data_load [10] $end
$var wire 1 2 data_load [9] $end
$var wire 1 3 data_load [8] $end
$var wire 1 4 data_load [7] $end
$var wire 1 5 data_load [6] $end
$var wire 1 6 data_load [5] $end
$var wire 1 7 data_load [4] $end
$var wire 1 8 data_load [3] $end
$var wire 1 9 data_load [2] $end
$var wire 1 : data_load [1] $end
$var wire 1 ; data_load [0] $end
$var wire 1 < sampler $end
$scope module i1 $end
$var wire 1 = gnd $end
$var wire 1 > vcc $end
$var wire 1 ? unknown $end
$var tri1 1 @ devclrn $end
$var tri1 1 A devpor $end
$var tri1 1 B devoe $end
$var wire 1 C clk~combout $end
$var wire 1 D clk~clkctrl_outclk $end
$var wire 1 E rshift~combout $end
$var wire 1 F serial_in~combout $end
$var wire 1 G nshift[10]~10_combout $end
$var wire 1 H reset~combout $end
$var wire 1 I pshift[0]~0_combout $end
$var wire 1 J nshift[9]~9_combout $end
$var wire 1 K nshift[8]~8_combout $end
$var wire 1 L nshift[7]~7_combout $end
$var wire 1 M nshift[6]~6_combout $end
$var wire 1 N nshift[5]~5_combout $end
$var wire 1 O nshift[4]~4_combout $end
$var wire 1 P nshift[3]~3_combout $end
$var wire 1 Q nshift[2]~2_combout $end
$var wire 1 R nshift[1]~1_combout $end
$var wire 1 S nshift[0]~0_combout $end
$var wire 1 T load~combout $end
$var wire 1 U load~clkctrl_outclk $end
$var wire 1 V data_load[0]$latch~combout $end
$var wire 1 W data_load[1]$latch~combout $end
$var wire 1 X data_load[2]$latch~combout $end
$var wire 1 Y data_load[3]$latch~combout $end
$var wire 1 Z data_load[4]$latch~combout $end
$var wire 1 [ data_load[5]$latch~combout $end
$var wire 1 \ data_load[6]$latch~combout $end
$var wire 1 ] data_load[7]$latch~combout $end
$var wire 1 ^ data_load[8]$latch~combout $end
$var wire 1 _ data_load[9]$latch~combout $end
$var wire 1 ` data_load[10]$latch~combout $end
$var wire 1 a pshift [10] $end
$var wire 1 b pshift [9] $end
$var wire 1 c pshift [8] $end
$var wire 1 d pshift [7] $end
$var wire 1 e pshift [6] $end
$var wire 1 f pshift [5] $end
$var wire 1 g pshift [4] $end
$var wire 1 h pshift [3] $end
$var wire 1 i pshift [2] $end
$var wire 1 j pshift [1] $end
$var wire 1 k pshift [0] $end
$upscope $end
$upscope $end
$enddefinitions $end
#0
$dumpvars
0!
0"
0#
1$
0%
00
0/
0.
0-
0,
0+
0*
0)
0(
0'
0&
x;
x:
x9
x8
x7
x6
x5
x4
x3
x2
x1
x<
0=
1>
x?
1@
1A
1B
0C
0D
1E
0F
0G
0H
1I
0J
0K
0L
0M
0N
0O
0P
0Q
0R
0S
0T
0U
xV
xW
xX
xY
xZ
x[
x\
x]
x^
x_
x`
0k
0j
0i
0h
0g
0f
0e
0d
0c
0b
0a
$end
#10000
1!
1%
1C
1F
1D
0<
1G
#20000
0!
0C
0D
1<
#30000
1!
1C
1D
0<
1a
1J
1&
#40000
0!
0C
0D
1<
#50000
1!
1C
1D
0<
1b
1K
1'
#60000
0!
0C
0D
1<
#70000
1!
1C
1D
0<
1c
1L
1(
#80000
0!
0C
0D
1<
#90000
0%
1!
0F
1C
1D
0<
0G
1d
1M
1)
#100000
0!
0C
0D
1<
#110000
1!
1C
1D
0<
1e
0a
1N
0J
1*
0&
#120000
0!
0C
0D
1<
#130000
1%
1!
1F
1C
1D
0<
1G
1f
0b
1O
0K
1+
0'
#140000
0!
0C
0D
1<
#150000
1!
1C
1D
0<
1g
0c
1a
1P
0L
1J
1,
0(
1&
#160000
0!
0C
0D
1<
#170000
1!
1C
1D
0<
1h
0d
1b
1Q
0M
1K
1-
0)
1'
#180000
0%
0!
0F
0C
0D
1<
0G
#190000
1!
1C
1D
0<
1i
0e
1c
0a
1R
0N
1L
0J
1.
0*
1(
0&
#200000
0!
0C
0D
1<
#210000
1!
1C
1D
0<
1j
0f
1d
0b
1S
0O
1M
0K
1/
0+
1)
0'
#220000
1%
0!
1F
0C
0D
1<
1G
#230000
1!
1C
1D
0<
1k
0g
1e
0c
1a
0P
1N
0L
1J
10
0,
1*
0(
1&
#240000
0!
0C
0D
1<
#250000
1!
1C
1D
0<
0h
1f
0d
1b
0Q
1O
0M
1K
0-
1+
0)
1'
#260000
0!
0C
0D
1<
#270000
1!
1C
1D
0<
0i
1g
0e
1c
0R
1P
0N
1L
0.
1,
0*
1(
#280000
0!
0C
0D
1<
#290000
1!
1C
1D
0<
0j
1h
0f
1d
0S
1Q
0O
1M
0/
1-
0+
1)
#300000
0%
0!
0F
0C
0D
1<
0G
#310000
1!
1C
1D
0<
0k
1i
0g
1e
0a
1R
0P
1N
0J
00
1.
0,
1*
0&
#320000
0!
0C
0D
1<
#330000
1!
1C
1D
0<
1j
0h
1f
0b
1S
0Q
1O
0K
1/
0-
1+
0'
#340000
0!
0C
0D
1<
#350000
1%
1!
1F
1C
1D
0<
1G
1k
0i
1g
0c
0R
1P
0L
10
0.
1,
0(
#360000
0!
0C
0D
1<
#370000
1!
1C
1D
0<
0j
1h
0d
1a
0S
1Q
0M
1J
0/
1-
0)
1&
#380000
0!
0C
0D
1<
#390000
1!
1C
1D
0<
0k
1i
0e
1b
1R
0N
1K
00
1.
0*
1'
#400000
0!
0C
0D
1<
#410000
1!
1C
1D
0<
1j
0f
1c
1S
0O
1L
1/
0+
1(
#420000
0!
0C
0D
1<
#430000
1!
1C
1D
0<
1k
0g
1d
0P
1M
10
0,
1)
#440000
0%
0!
0F
0C
0D
1<
0G
#450000
1!
1C
1D
0<
0h
1e
0a
0Q
1N
0J
0-
1*
0&
#460000
0!
0C
0D
1<
#470000
1!
1C
1D
0<
0i
1f
0b
0R
1O
0K
0.
1+
0'
#480000
0!
0C
0D
1<
#490000
1!
1C
1D
0<
0j
1g
0c
0S
1P
0L
0/
1,
0(
#500000
0!
0C
0D
1<
#510000
1!
1C
1D
0<
0k
1h
0d
1Q
0M
00
1-
0)
#520000
0!
0C
0D
1<
#530000
0$
1!
0E
1C
1D
0<
0Q
0P
0O
0N
0I
1i
0e
1.
0*
#540000
0!
0C
0D
1<
#550000
1!
1C
1D
0<
#560000
1"
0!
1T
0C
0D
1U
1<
0`
0_
0^
0]
0\
1[
1Z
1Y
1X
0W
0V
01
02
03
04
05
16
17
18
19
0:
0;
#570000
1!
1C
1D
0<
#580000
0!
0C
0D
1<
#590000
1!
1C
1D
0<
#600000
0!
0C
0D
1<
#610000
0"
1!
0T
1C
1D
0U
0<
#620000
0!
0C
0D
1<
#630000
1!
1C
1D
0<
#640000
0!
0C
0D
1<
#650000
1!
1C
1D
0<
#660000
0!
0C
0D
1<
#670000
1!
1C
1D
0<
#680000
0!
0C
0D
1<
#690000
1!
1C
1D
0<
#700000
0!
0C
0D
1<
#710000
1!
1C
1D
0<
#720000
0!
0C
0D
1<
#730000
1!
1C
1D
0<
#740000
0!
0C
0D
1<
#750000
1!
1C
1D
0<
#760000
0!
0C
0D
1<
#770000
1!
1C
1D
0<
#780000
0!
0C
0D
1<
#790000
1!
1C
1D
0<
#800000
0!
0C
0D
1<
#810000
1!
1C
1D
0<
#820000
0!
0C
0D
1<
#830000
1!
1C
1D
0<
#840000
0!
0C
0D
1<
#850000
1!
1C
1D
0<
#860000
0!
0C
0D
1<
#870000
1!
1C
1D
0<
#880000
0!
0C
0D
1<
#890000
1!
1C
1D
0<
#900000
0!
0C
0D
1<
#910000
1!
1C
1D
0<
#920000
0!
0C
0D
1<
#930000
1!
1C
1D
0<
#940000
0!
0C
0D
1<
#950000
1!
1C
1D
0<
#960000
0!
0C
0D
1<
#970000
1!
1C
1D
0<
#980000
0!
0C
0D
1<
#990000
1!
1C
1D
0<
