IRDA/TXD_V2/simulation/qsim/transmitter.msim.vcd
$comment
	File created using the following command:
		vcd file transmitter.msim.vcd -direction
$end
$date
	Tue Nov 10 08:59:38 2015
$end
$version
	ModelSim Version 10.1d
$end
$timescale
	1ps
$end
$scope module transmitter_vlg_vec_tst $end
$var reg 1 ! Clk $end
$var reg 8 " Data [7:0] $end
$var reg 1 # Reset $end
$var reg 1 $ Send $end
$var wire 1 % TXD $end
$var wire 1 & sampler $end
$scope module i1 $end
$var wire 1 ' gnd $end
$var wire 1 ( vcc $end
$var wire 1 ) unknown $end
$var tri1 1 * devclrn $end
$var tri1 1 + devpor $end
$var tri1 1 , devoe $end
$var wire 1 - inst3|p_count[9]~31_combout $end
$var wire 1 . inst7|p_cnt[2]~13_combout $end
$var wire 1 / inst8|nshift[3]~3_combout $end
$var wire 1 0 inst8|nshift[4]~4_combout $end
$var wire 1 1 inst8|nshift[5]~5_combout $end
$var wire 1 2 inst8|nshift[6]~6_combout $end
$var wire 1 3 inst8|nshift[7]~7_combout $end
$var wire 1 4 inst8|nshift[8]~8_combout $end
$var wire 1 5 inst8|nshift[9]~9_combout $end
$var wire 1 6 inst5|WideXor0~0_combout $end
$var wire 1 7 inst5|WideXor0~1_combout $end
$var wire 1 8 inst5|WideXor0~combout $end
$var wire 1 9 inst8|nshift[10]~10_combout $end
$var wire 1 : inst8|nshift[11]~11_combout $end
$var wire 1 ; Clk~combout $end
$var wire 1 < Clk~clkctrl_outclk $end
$var wire 1 = inst7|p_cnt[0]~10 $end
$var wire 1 > inst7|p_cnt[1]~11_combout $end
$var wire 1 ? Reset~combout $end
$var wire 1 @ Send~combout $end
$var wire 1 A inst|p_state~7_combout $end
$var wire 1 B inst|p_state.P~regout $end
$var wire 1 C inst7|p_cnt[0]~9_combout $end
$var wire 1 D inst3|p_count[0]~12_combout $end
$var wire 1 E inst3|Equal0~0_combout $end
$var wire 1 F inst|load_shift~0_combout $end
$var wire 1 G inst3|p_count[6]~26 $end
$var wire 1 H inst3|p_count[7]~28 $end
$var wire 1 I inst3|p_count[8]~30 $end
$var wire 1 J inst3|p_count[9]~32 $end
$var wire 1 K inst3|p_count[10]~33_combout $end
$var wire 1 L inst3|p_count[10]~34 $end
$var wire 1 M inst3|p_count[11]~35_combout $end
$var wire 1 N inst3|p_count[8]~29_combout $end
$var wire 1 O inst3|Equal0~2_combout $end
$var wire 1 P inst3|p_count[7]~16_combout $end
$var wire 1 Q inst3|p_count[0]~13 $end
$var wire 1 R inst3|p_count[1]~14_combout $end
$var wire 1 S inst3|p_count[1]~15 $end
$var wire 1 T inst3|p_count[2]~17_combout $end
$var wire 1 U inst3|p_count[2]~18 $end
$var wire 1 V inst3|p_count[3]~19_combout $end
$var wire 1 W inst3|p_count[3]~20 $end
$var wire 1 X inst3|p_count[4]~22 $end
$var wire 1 Y inst3|p_count[5]~23_combout $end
$var wire 1 Z inst3|p_count[5]~24 $end
$var wire 1 [ inst3|p_count[6]~25_combout $end
$var wire 1 \ inst3|p_count[7]~27_combout $end
$var wire 1 ] inst3|p_count[4]~21_combout $end
$var wire 1 ^ inst3|Equal0~1_combout $end
$var wire 1 _ inst3|Equal0~3_combout $end
$var wire 1 ` inst7|p_cnt[3]~20_combout $end
$var wire 1 a inst7|Equal0~0_combout $end
$var wire 1 b inst7|p_cnt[3]~19_combout $end
$var wire 1 c inst7|p_cnt[1]~12 $end
$var wire 1 d inst7|p_cnt[2]~14 $end
$var wire 1 e inst7|p_cnt[3]~15_combout $end
$var wire 1 f inst7|p_cnt[3]~16 $end
$var wire 1 g inst7|p_cnt[4]~17_combout $end
$var wire 1 h inst|shift~4_combout $end
$var wire 1 i inst|p_state~5_combout $end
$var wire 1 j inst|p_state~6_combout $end
$var wire 1 k inst|p_state.Q~regout $end
$var wire 1 l inst|shift~5_combout $end
$var wire 1 m inst8|nshift[2]~2_combout $end
$var wire 1 n inst8|pshift[0]~0_combout $end
$var wire 1 o inst8|nshift[1]~1_combout $end
$var wire 1 p inst8|nshift[0]~0_combout $end
$var wire 1 q Data~combout [7] $end
$var wire 1 r Data~combout [6] $end
$var wire 1 s Data~combout [5] $end
$var wire 1 t Data~combout [4] $end
$var wire 1 u Data~combout [3] $end
$var wire 1 v Data~combout [2] $end
$var wire 1 w Data~combout [1] $end
$var wire 1 x Data~combout [0] $end
$var wire 1 y inst8|pshift [11] $end
$var wire 1 z inst8|pshift [10] $end
$var wire 1 { inst8|pshift [9] $end
$var wire 1 | inst8|pshift [8] $end
$var wire 1 } inst8|pshift [7] $end
$var wire 1 ~ inst8|pshift [6] $end
$var wire 1 !! inst8|pshift [5] $end
$var wire 1 "! inst8|pshift [4] $end
$var wire 1 #! inst8|pshift [3] $end
$var wire 1 $! inst8|pshift [2] $end
$var wire 1 %! inst8|pshift [1] $end
$var wire 1 &! inst8|pshift [0] $end
$var wire 1 '! inst3|p_count [11] $end
$var wire 1 (! inst3|p_count [10] $end
$var wire 1 )! inst3|p_count [9] $end
$var wire 1 *! inst3|p_count [8] $end
$var wire 1 +! inst3|p_count [7] $end
$var wire 1 ,! inst3|p_count [6] $end
$var wire 1 -! inst3|p_count [5] $end
$var wire 1 .! inst3|p_count [4] $end
$var wire 1 /! inst3|p_count [3] $end
$var wire 1 0! inst3|p_count [2] $end
$var wire 1 1! inst3|p_count [1] $end
$var wire 1 2! inst3|p_count [0] $end
$var wire 1 3! inst7|p_cnt [4] $end
$var wire 1 4! inst7|p_cnt [3] $end
$var wire 1 5! inst7|p_cnt [2] $end
$var wire 1 6! inst7|p_cnt [1] $end
$var wire 1 7! inst7|p_cnt [0] $end
$upscope $end
$upscope $end
$enddefinitions $end
#0
$dumpvars
0!
b10111011 "
1#
1$
0%
x&
0'
1(
x)
1*
1+
1,
0-
0.
0/
00
01
02
03
04
05
16
17
08
09
0:
0;
0<
0=
0>
1?
1@
0A
0B
1C
1D
1E
1F
0G
1H
0I
1J
0K
0L
0M
0N
1O
0P
0Q
0R
1S
0T
0U
0V
1W
0X
0Y
1Z
0[
0\
0]
1^
1_
0`
1a
0b
1c
0d
0e
1f
0g
0h
0i
0j
0k
0l
0m
1n
0o
1p
1x
1w
0v
1u
1t
1s
0r
1q
0&!
0%!
0$!
0#!
0"!
0!!
0~
0}
0|
0{
0z
0y
02!
01!
00!
0/!
0.!
0-!
0,!
0+!
0*!
0)!
0(!
0'!
07!
06!
05!
04!
03!
$end
#10000
1!
1;
1<
0&
1&!
12!
1Q
0D
1%
1R
#20000
0!
0;
0<
1&
#30000
1!
1;
1<
0&
11!
02!
0S
0R
0Q
1D
1T
1S
1R
0T
#40000
0!
0;
0<
1&
#50000
1!
1;
1<
0&
12!
1Q
0D
0S
0R
1T
#60000
0!
0;
0<
1&
#70000
1!
1;
1<
0&
10!
01!
02!
1U
0T
1S
1R
0Q
1D
1V
0U
1T
0R
0V
#80000
0!
0;
0<
1&
#90000
1!
1;
1<
0&
12!
0E
1Q
0D
1R
#100000
0!
0;
0<
1&
#110000
1!
1;
1<
0&
11!
02!
0S
0R
1E
0Q
1D
1U
0T
1S
1R
1V
0U
1T
0V
#120000
0!
0;
0<
1&
#130000
1!
1;
1<
0&
12!
1Q
0D
0S
0R
1U
0T
1V
#140000
0!
0;
0<
1&
#150000
1!
1;
1<
0&
1/!
00!
01!
02!
0W
0V
0U
1T
1S
1R
0Q
1D
1]
1W
1V
0T
0R
0]
#160000
0!
0;
0<
1&
#170000
1!
1;
1<
0&
12!
1Q
0D
1R
#180000
0!
0;
0<
1&
#190000
1!
1;
1<
0&
11!
02!
0S
0R
0Q
1D
1T
1S
1R
0T
#200000
0!
0;
0<
1&
#210000
1!
1;
1<
0&
12!
1Q
0D
0S
0R
1T
#220000
0!
0;
0<
1&
#230000
1!
1;
1<
0&
10!
01!
02!
1U
0T
1S
1R
0Q
1D
0W
0V
0U
1T
0R
1]
1W
1V
0]
#240000
0!
0;
0<
1&
#250000
1!
1;
1<
0&
12!
1Q
0D
1R
#260000
0!
0;
0<
1&
#270000
1!
1;
1<
0&
11!
02!
0S
0R
0Q
1D
1U
0T
1S
1R
0W
0V
0U
1T
1]
1W
1V
0]
#280000
0!
0;
0<
1&
#290000
1!
1;
1<
0&
12!
1Q
0D
0S
0R
1U
0T
0W
0V
1]
#300000
0!
0;
0<
1&
#310000
1!
1;
1<
0&
1.!
0/!
00!
01!
02!
0^
1X
0]
1W
1V
0U
1T
1S
1R
0Q
1D
1Y
0X
1]
0V
0T
0R
0Y
#320000
0!
0;
0<
1&
#330000
1!
1;
1<
0&
12!
1Q
0D
1R
#340000
0!
0;
0<
1&
#350000
1!
1;
1<
0&
11!
02!
0S
0R
0Q
1D
1T
1S
1R
0T
#360000
0!
0;
0<
1&
#370000
1!
1;
1<
0&
12!
1Q
0D
0S
0R
1T
#380000
0!
0;
0<
1&
#390000
1!
1;
1<
0&
10!
01!
02!
1U
0T
1S
1R
0Q
1D
1V
0U
1T
0R
0V
#400000
0!
0;
0<
1&
#410000
1!
1;
1<
0&
12!
0E
1Q
0D
1R
#420000
0!
0;
0<
1&
#430000
1!
1;
1<
0&
11!
02!
0S
0R
1E
0Q
1D
1U
0T
1S
1R
1V
0U
1T
0V
#440000
0!
0;
0<
1&
#450000
1!
1;
1<
0&
12!
1Q
0D
0S
0R
1U
0T
1V
#460000
0!
0;
0<
1&
#470000
1!
1;
1<
0&
1/!
00!
01!
02!
0W
0V
0U
1T
1S
1R
0Q
1D
1X
0]
1W
1V
0T
0R
1Y
0X
1]
0Y
#480000
0!
0;
0<
1&
#490000
1!
1;
1<
0&
12!
1Q
0D
1R
#500000
0!
0;
0<
1&
#510000
1!
1;
1<
0&
11!
02!
0S
0R
0Q
1D
1T
1S
1R
0T
#520000
0!
0;
0<
1&
#530000
1!
1;
1<
0&
12!
1Q
0D
0S
0R
1T
#540000
0!
0;
0<
1&
#550000
1!
1;
1<
0&
10!
01!
02!
1U
0T
1S
1R
0Q
1D
0W
0V
0U
1T
0R
1X
0]
1W
1V
1Y
0X
1]
0Y
#560000
0!
0;
0<
1&
#570000
1!
1;
1<
0&
12!
1Q
0D
1R
#580000
0!
0;
0<
1&
#590000
1!
1;
1<
0&
11!
02!
0S
0R
0Q
1D
1U
0T
1S
1R
0W
0V
0U
1T
1X
0]
1W
1V
1Y
0X
1]
0Y
#600000
0!
0;
0<
1&
#610000
1!
1;
1<
0&
12!
1Q
0D
0S
0R
1U
0T
0W
0V
1X
0]
1Y
#620000
0!
0;
0<
1&
#630000
1!
1;
1<
0&
0.!
1-!
0/!
00!
01!
02!
1^
0X
1]
0Z
0Y
1W
1V
0U
1T
1S
1R
0Q
1D
1Z
1Y
1[
0]
0V
0T
0R
0[
#640000
0!
0;
0<
1&
#650000
1!
1;
1<
0&
12!
1Q
0D
1R
#660000
0!
0;
0<
1&
#670000
1!
1;
1<
0&
11!
02!
0S
0R
0Q
1D
1T
1S
1R
0T
#680000
0!
0;
0<
1&
#690000
1!
1;
1<
0&
12!
1Q
0D
0S
0R
1T
#700000
0!
0;
0<
1&
#710000
1!
1;
1<
0&
10!
01!
02!
1U
0T
1S
1R
0Q
1D
1V
0U
1T
0R
0V
#720000
0!
0;
0<
1&
#730000
1!
1;
1<
0&
12!
0E
1Q
0D
1R
#740000
0!
0;
0<
1&
#750000
1!
1;
1<
0&
11!
02!
0S
0R
1E
0Q
1D
1U
0T
1S
1R
1V
0U
1T
0V
#760000
0!
0;
0<
1&
#770000
1!
1;
1<
0&
12!
1Q
0D
0S
0R
1U
0T
1V
#780000
0!
0;
0<
1&
#790000
1!
1;
1<
0&
1/!
00!
01!
02!
0W
0V
0U
1T
1S
1R
0Q
1D
1]
1W
1V
0T
0R
0]
#800000
0!
0;
0<
1&
#810000
1!
1;
1<
0&
12!
1Q
0D
1R
#820000
0!
0;
0<
1&
#830000
1!
1;
1<
0&
11!
02!
0S
0R
0Q
1D
1T
1S
1R
0T
#840000
0!
0;
0<
1&
#850000
1!
1;
1<
0&
12!
1Q
0D
0S
0R
1T
#860000
0!
0;
0<
1&
#870000
1!
1;
1<
0&
10!
01!
02!
1U
0T
1S
1R
0Q
1D
0W
0V
0U
1T
0R
1]
1W
1V
0]
#880000
0!
0;
0<
1&
#890000
1!
1;
1<
0&
12!
1Q
0D
1R
#900000
0!
0;
0<
1&
#910000
1!
1;
1<
0&
11!
02!
0S
0R
0Q
1D
1U
0T
1S
1R
0W
0V
0U
1T
1]
1W
1V
0]
#920000
0!
0;
0<
1&
#930000
1!
1;
1<
0&
12!
1Q
0D
0S
0R
1U
0T
0W
0V
1]
#940000
0!
0;
0<
1&
#950000
1!
1;
1<
0&
1.!
0/!
00!
01!
02!
1X
0]
1W
1V
0U
1T
1S
1R
0Q
1D
0Z
0Y
0X
1]
0V
0T
0R
1[
1Z
1Y
0[
#960000
0!
0;
0<
1&
#970000
1!
1;
1<
0&
12!
1Q
0D
1R
#980000
0!
0;
0<
1&
#990000
1!
1;
1<
0&
11!
02!
0S
0R
0Q
1D
1T
1S
1R
0T
#1000000
0!
0;
0<
1&
#1010000
1!
1;
1<
0&
12!
1Q
0D
0S
0R
1T
#1020000
0!
0;
0<
1&
#1030000
1!
1;
1<
0&
10!
01!
02!
1U
0T
1S
1R
0Q
1D
1V
0U
1T
0R
0V
#1040000
0!
0;
0<
1&
#1050000
1!
1;
1<
0&
12!
0E
1Q
0D
1R
#1060000
0!
0;
0<
1&
#1070000
1!
1;
1<
0&
11!
02!
0S
0R
1E
0Q
1D
1U
0T
1S
1R
1V
0U
1T
0V
#1080000
0!
0;
0<
1&
#1090000
1!
1;
1<
0&
12!
1Q
0D
0S
0R
1U
0T
1V
#1100000
0!
0;
0<
1&
#1110000
1!
1;
1<
0&
1/!
00!
01!
02!
0W
0V
0U
1T
1S
1R
0Q
1D
1X
0]
1W
1V
0T
0R
0Z
0Y
0X
1]
1[
1Z
1Y
0[
#1120000
0!
0;
0<
1&
#1130000
1!
1;
1<
0&
12!
1Q
0D
1R
#1140000
0!
0;
0<
1&
#1150000
1!
1;
1<
0&
11!
02!
0S
0R
0Q
1D
1T
1S
1R
0T
#1160000
0!
0;
0<
1&
#1170000
1!
1;
1<
0&
12!
1Q
0D
0S
0R
1T
#1180000
0!
0;
0<
1&
#1190000
1!
1;
1<
0&
10!
01!
02!
1U
0T
1S
1R
0Q
1D
0W
0V
0U
1T
0R
1X
0]
1W
1V
0Z
0Y
0X
1]
1[
1Z
1Y
0[
#1200000
0!
0;
0<
1&
#1210000
1!
1;
1<
0&
12!
1Q
0D
1R
#1220000
0!
0;
0<
1&
#1230000
1!
1;
1<
0&
11!
02!
0S
0R
0Q
1D
1U
0T
1S
1R
0W
0V
0U
1T
1X
0]
1W
1V
0Z
0Y
0X
1]
1[
1Z
1Y
0[
#1240000
0!
0;
0<
1&
#1250000
1!
1;
1<
0&
12!
1Q
0D
0S
0R
1U
0T
0W
0V
1X
0]
0Z
0Y
1[
#1260000
0!
0;
0<
1&
#1270000
1!
1;
1<
0&
0.!
1,!
0-!
0/!
00!
01!
02!
0X
1]
1G
0[
1Z
1Y
1W
1V
0U
1T
1S
1R
0Q
1D
0Y
1\
0G
1[
0]
0V
0T
0R
0\
#1280000
0!
0;
0<
1&
#1290000
1!
1;
1<
0&
12!
1Q
0D
1R
#1300000
0!
0;
0<
1&
#1310000
1!
1;
1<
0&
11!
02!
0S
0R
0Q
1D
1T
1S
1R
0T
#1320000
0!
0;
0<
1&
#1330000
1!
1;
1<
0&
12!
1Q
0D
0S
0R
1T
#1340000
0!
0;
0<
1&
#1350000
1!
1;
1<
0&
10!
01!
02!
1U
0T
1S
1R
0Q
1D
1V
0U
1T
0R
0V
#1360000
0!
0;
0<
1&
#1370000
1!
1;
1<
0&
12!
0E
1Q
0D
1R
#1380000
0!
0;
0<
1&
#1390000
1!
1;
1<
0&
11!
02!
0S
0R
1E
0Q
1D
1U
0T
1S
1R
1V
0U
1T
0V
#1400000
0!
0;
0<
1&
#1410000
1!
1;
1<
0&
12!
1Q
0D
0S
0R
1U
0T
1V
#1420000
0!
0;
0<
1&
#1430000
1!
1;
1<
0&
1/!
00!
01!
02!
0W
0V
0U
1T
1S
1R
0Q
1D
1]
1W
1V
0T
0R
0]
#1440000
0!
0;
0<
1&
#1450000
1!
1;
1<
0&
12!
1Q
0D
1R
#1460000
0!
0;
0<
1&
#1470000
1!
1;
1<
0&
11!
02!
0S
0R
0Q
1D
1T
1S
1R
0T
#1480000
0!
0;
0<
1&
#1490000
1!
1;
1<
0&
12!
1Q
0D
0S
0R
1T
#1500000
0!
0;
0<
1&
#1510000
1!
1;
1<
0&
10!
01!
02!
1U
0T
1S
1R
0Q
1D
0W
0V
0U
1T
0R
1]
1W
1V
0]
#1520000
0!
0;
0<
1&
#1530000
1!
1;
1<
0&
12!
1Q
0D
1R
#1540000
0!
0;
0<
1&
#1550000
1!
1;
1<
0&
11!
02!
0S
0R
0Q
1D
1U
0T
1S
1R
0W
0V
0U
1T
1]
1W
1V
0]
#1560000
0!
0;
0<
1&
#1570000
1!
1;
1<
0&
12!
1Q
0D
0S
0R
1U
0T
0W
0V
1]
#1580000
0!
0;
0<
1&
#1590000
1!
1;
1<
0&
1.!
0/!
00!
01!
02!
1X
0]
1W
1V
0U
1T
1S
1R
0Q
1D
1Y
0X
1]
0V
0T
0R
0Y
#1600000
0!
0;
0<
1&
#1610000
1!
1;
1<
0&
12!
1Q
0D
1R
#1620000
0!
0;
0<
1&
#1630000
1!
1;
1<
0&
11!
02!
0S
0R
0Q
1D
1T
1S
1R
0T
#1640000
0!
0;
0<
1&
#1650000
1!
1;
1<
0&
12!
1Q
0D
0S
0R
1T
#1660000
0!
0;
0<
1&
#1670000
1!
1;
1<
0&
10!
01!
02!
1U
0T
1S
1R
0Q
1D
1V
0U
1T
0R
0V
#1680000
0!
0;
0<
1&
#1690000
1!
1;
1<
0&
12!
0E
1Q
0D
1R
#1700000
0!
0;
0<
1&
#1710000
1!
1;
1<
0&
11!
02!
0S
0R
1E
0Q
1D
1U
0T
1S
1R
1V
0U
1T
0V
#1720000
0!
0;
0<
1&
#1730000
1!
1;
1<
0&
12!
1Q
0D
0S
0R
1U
0T
1V
#1740000
0!
0;
0<
1&
#1750000
1!
1;
1<
0&
1/!
00!
01!
02!
0W
0V
0U
1T
1S
1R
0Q
1D
1X
0]
1W
1V
0T
0R
1Y
0X
1]
0Y
#1760000
0!
0;
0<
1&
#1770000
1!
1;
1<
0&
12!
1Q
0D
1R
#1780000
0!
0;
0<
1&
#1790000
1!
1;
1<
0&
11!
02!
0S
0R
0Q
1D
1T
1S
1R
0T
#1800000
0!
0;
0<
1&
#1810000
1!
1;
1<
0&
12!
1Q
0D
0S
0R
1T
#1820000
0!
0;
0<
1&
#1830000
1!
1;
1<
0&
10!
01!
02!
1U
0T
1S
1R
0Q
1D
0W
0V
0U
1T
0R
1X
0]
1W
1V
1Y
0X
1]
0Y
#1840000
0!
0;
0<
1&
#1850000
1!
1;
1<
0&
12!
1Q
0D
1R
#1860000
0!
0;
0<
1&
#1870000
1!
1;
1<
0&
11!
02!
0S
0R
0Q
1D
1U
0T
1S
1R
0W
0V
0U
1T
1X
0]
1W
1V
1Y
0X
1]
0Y
#1880000
0!
0;
0<
1&
#1890000
1!
1;
1<
0&
12!
1Q
0D
0S
0R
1U
0T
0W
0V
1X
0]
1Y
#1900000
0!
0;
0<
1&
#1910000
1!
1;
1<
0&
0.!
1-!
0/!
00!
01!
02!
0X
1]
0Z
0Y
1W
1V
0U
1T
1S
1R
0Q
1D
1Z
1Y
1G
0[
0]
0V
0T
0R
0G
1[
1\
0\
#1920000
0!
0;
0<
1&
#1930000
1!
1;
1<
0&
12!
1Q
0D
1R
#1940000
0!
0;
0<
1&
#1950000
1!
1;
1<
0&
11!
02!
0S
0R
0Q
1D
1T
1S
1R
0T
#1960000
0!
0;
0<
1&
#1970000
1!
1;
1<
0&
12!
1Q
0D
0S
0R
1T
#1980000
0!
0;
0<
1&
#1990000
1!
1;
1<
0&
10!
01!
02!
1U
0T
1S
1R
0Q
1D
1V
0U
1T
0R
0V
#2000000
0!
0;
0<
1&
#2010000
1!
1;
1<
0&
12!
0E
1Q
0D
1R
#2020000
0!
0;
0<
1&
#2030000
1!
1;
1<
0&
11!
02!
0S
0R
1E
0Q
1D
1U
0T
1S
1R
1V
0U
1T
0V
#2040000
0!
0;
0<
1&
#2050000
1!
1;
1<
0&
12!
1Q
0D
0S
0R
1U
0T
1V
#2060000
0!
0;
0<
1&
#2070000
1!
1;
1<
0&
1/!
00!
01!
02!
0W
0V
0U
1T
1S
1R
0Q
1D
1]
1W
1V
0T
0R
0]
#2080000
0!
0;
0<
1&
#2090000
1!
1;
1<
0&
12!
1Q
0D
1R
#2100000
0!
0;
0<
1&
#2110000
1!
1;
1<
0&
11!
02!
0S
0R
0Q
1D
1T
1S
1R
0T
#2120000
0!
0;
0<
1&
#2130000
1!
1;
1<
0&
12!
1Q
0D
0S
0R
1T
#2140000
0!
0;
0<
1&
#2150000
1!
1;
1<
0&
10!
01!
02!
1U
0T
1S
1R
0Q
1D
0W
0V
0U
1T
0R
1]
1W
1V
0]
#2160000
0!
0;
0<
1&
#2170000
1!
1;
1<
0&
12!
1Q
0D
1R
#2180000
0!
0;
0<
1&
#2190000
1!
1;
1<
0&
11!
02!
0S
0R
0Q
1D
1U
0T
1S
1R
0W
0V
0U
1T
1]
1W
1V
0]
#2200000
0!
0;
0<
1&
#2210000
1!
1;
1<
0&
12!
1Q
0D
0S
0R
1U
0T
0W
0V
1]
#2220000
0!
0;
0<
1&
#2230000
1!
1;
1<
0&
1.!
0/!
00!
01!
02!
1X
0]
1W
1V
0U
1T
1S
1R
0Q
1D
0Z
0Y
0X
1]
0V
0T
0R
1G
0[
1Z
1Y
1\
0G
1[
0\
#2240000
0!
0;
0<
1&
#2250000
1!
1;
1<
0&
12!
1Q
0D
1R
#2260000
0!
0;
0<
1&
#2270000
1!
1;
1<
0&
11!
02!
0S
0R
0Q
1D
1T
1S
1R
0T
#2280000
0!
0;
0<
1&
#2290000
1!
1;
1<
0&
12!
1Q
0D
0S
0R
1T
#2300000
0!
0;
0<
1&
#2310000
1!
1;
1<
0&
10!
01!
02!
1U
0T
1S
1R
0Q
1D
1V
0U
1T
0R
0V
#2320000
0!
0;
0<
1&
#2330000
1!
1;
1<
0&
12!
0E
1Q
0D
1R
#2340000
0!
0;
0<
1&
#2350000
1!
1;
1<
0&
11!
02!
0S
0R
1E
0Q
1D
1U
0T
1S
1R
1V
0U
1T
0V
#2360000
0!
0;
0<
1&
#2370000
1!
1;
1<
0&
12!
1Q
0D
0S
0R
1U
0T
1V
#2380000
0!
0;
0<
1&
#2390000
1!
1;
1<
0&
1/!
00!
01!
02!
0W
0V
0U
1T
1S
1R
0Q
1D
1X
0]
1W
1V
0T
0R
0Z
0Y
0X
1]
1G
0[
1Z
1Y
1\
0G
1[
0\
#2400000
0!
0;
0<
1&
#2410000
1!
1;
1<
0&
12!
1Q
0D
1R
#2420000
0!
0;
0<
1&
#2430000
1!
1;
1<
0&
11!
02!
0S
0R
0Q
1D
1T
1S
1R
0T
#2440000
0!
0;
0<
1&
#2450000
1!
1;
1<
0&
12!
1Q
0D
0S
0R
1T
#2460000
0!
0;
0<
1&
#2470000
1!
1;
1<
0&
10!
01!
02!
1U
0T
1S
1R
0Q
1D
0W
0V
0U
1T
0R
1X
0]
1W
1V
0Z
0Y
0X
1]
1G
0[
1Z
1Y
1\
0G
1[
0\
#2480000
0!
0;
0<
1&
#2490000
1!
1;
1<
0&
12!
1Q
0D
1R
#2500000
0!
0;
0<
1&
#2510000
1!
1;
1<
0&
11!
02!
0S
0R
0Q
1D
1U
0T
1S
1R
0W
0V
0U
1T
1X
0]
1W
1V
0Z
0Y
0X
1]
1G
0[
1Z
1Y
1\
0G
1[
0\
#2520000
0!
0;
0<
1&
#2530000
1!
1;
1<
0&
12!
1Q
0D
0S
0R
1U
0T
0W
0V
1X
0]
0Z
0Y
1G
0[
1\
#2540000
0!
0;
0<
1&
#2550000
1!
1;
1<
0&
0.!
1+!
0,!
0-!
0/!
00!
01!
02!
0X
1]
0H
0\
0G
1[
1Z
1Y
1W
1V
0U
1T
1S
1R
0Q
1D
0Y
1N
1H
1\
0[
0]
0V
0T
0R
0N
#2560000
0#
0!
0?
0;
0<
1&
0n
#2570000
1!
1;
1<
0&
12!
1Q
0D
1R
#2580000
0!
0;
0<
1&
#2590000
1!
1;
1<
0&
11!
02!
0S
0R
0Q
1D
1T
1S
1R
0T
#2600000
0!
0;
0<
1&
#2610000
1!
1;
1<
0&
12!
1Q
0D
0S
0R
1T
#2620000
0!
0;
0<
1&
#2630000
1!
1;
1<
0&
10!
01!
02!
1U
0T
1S
1R
0Q
1D
1V
0U
1T
0R
0V
#2640000
0!
0;
0<
1&
#2650000
1!
1;
1<
0&
12!
0E
1Q
0D
1R
#2660000
0!
0;
0<
1&
#2670000
1!
1;
1<
0&
11!
02!
0S
0R
1E
0Q
1D
1U
0T
1S
1R
1V
0U
1T
0V
#2680000
0!
0;
0<
1&
#2690000
1!
1;
1<
0&
12!
1Q
0D
0S
0R
1U
0T
1V
#2700000
0!
0;
0<
1&
#2710000
1!
1;
1<
0&
1/!
00!
01!
02!
0W
0V
0U
1T
1S
1R
0Q
1D
1]
1W
1V
0T
0R
0]
#2720000
0!
0;
0<
1&
#2730000
1!
1;
1<
0&
12!
1Q
0D
1R
#2740000
0!
0;
0<
1&
#2750000
1!
1;
1<
0&
11!
02!
0S
0R
0Q
1D
1T
1S
1R
0T
#2760000
0!
0;
0<
1&
#2770000
1!
1;
1<
0&
12!
1Q
0D
0S
0R
1T
#2780000
0!
0;
0<
1&
#2790000
1!
1;
1<
0&
10!
01!
02!
1U
0T
1S
1R
0Q
1D
0W
0V
0U
1T
0R
1]
1W
1V
0]
#2800000
0!
0;
0<
1&
#2810000
1!
1;
1<
0&
12!
1Q
0D
1R
#2820000
0!
0;
0<
1&
#2830000
1!
1;
1<
0&
11!
02!
0S
0R
0Q
1D
1U
0T
1S
1R
0W
0V
0U
1T
1]
1W
1V
0]
#2840000
0!
0;
0<
1&
#2850000
1!
1;
1<
0&
12!
1Q
0D
0S
0R
1U
0T
0W
0V
1]
#2860000
0!
0;
0<
1&
#2870000
1!
1;
1<
0&
1.!
0/!
00!
01!
02!
1X
0]
1W
1V
0U
1T
1S
1R
0Q
1D
1Y
0X
1]
0V
0T
0R
0Y
#2880000
0!
0;
0<
1&
#2890000
1!
1;
1<
0&
12!
1Q
0D
1R
#2900000
0!
0;
0<
1&
#2910000
1!
1;
1<
0&
11!
02!
0S
0R
0Q
1D
1T
1S
1R
0T
#2920000
0!
0;
0<
1&
#2930000
1!
1;
1<
0&
12!
1Q
0D
0S
0R
1T
#2940000
0!
0;
0<
1&
#2950000
1!
1;
1<
0&
10!
01!
02!
1U
0T
1S
1R
0Q
1D
1V
0U
1T
0R
0V
#2960000
0!
0;
0<
1&
#2970000
1!
1;
1<
0&
12!
0E
1Q
0D
1R
#2980000
0!
0;
0<
1&
#2990000
1!
1;
1<
0&
11!
02!
0S
0R
1E
0Q
1D
1U
0T
1S
1R
1V
0U
1T
0V
#3000000
0!
0;
0<
1&
#3010000
1!
1;
1<
0&
12!
1Q
0D
0S
0R
1U
0T
1V
#3020000
0!
0;
0<
1&
#3030000
1!
1;
1<
0&
1/!
00!
01!
02!
0W
0V
0U
1T
1S
1R
0Q
1D
1X
0]
1W
1V
0T
0R
1Y
0X
1]
0Y
#3040000
0!
0;
0<
1&
#3050000
1!
1;
1<
0&
12!
1Q
0D
1R
#3060000
0!
0;
0<
1&
#3070000
1!
1;
1<
0&
11!
02!
0S
0R
0Q
1D
1T
1S
1R
0T
#3080000
0!
0;
0<
1&
#3090000
1!
1;
1<
0&
12!
1Q
0D
0S
0R
1T
#3100000
0!
0;
0<
1&
#3110000
1!
1;
1<
0&
10!
01!
02!
1U
0T
1S
1R
0Q
1D
0W
0V
0U
1T
0R
1X
0]
1W
1V
1Y
0X
1]
0Y
#3120000
0!
0;
0<
1&
#3130000
1!
1;
1<
0&
12!
1Q
0D
1R
#3140000
0!
0;
0<
1&
#3150000
1!
1;
1<
0&
11!
02!
0S
0R
0Q
1D
1U
0T
1S
1R
0W
0V
0U
1T
1X
0]
1W
1V
1Y
0X
1]
0Y
#3160000
0!
0;
0<
1&
#3170000
1!
1;
1<
0&
12!
1Q
0D
0S
0R
1U
0T
0W
0V
1X
0]
1Y
#3180000
0!
0;
0<
1&
#3190000
1!
1;
1<
0&
0.!
1-!
0/!
00!
01!
02!
0X
1]
0Z
0Y
1W
1V
0U
1T
1S
1R
0Q
1D
1Z
1Y
1[
0]
0V
0T
0R
0[
#3200000
0!
0;
0<
1&
#3210000
1!
1;
1<
0&
12!
1Q
0D
1R
#3220000
0!
0;
0<
1&
#3230000
1!
1;
1<
0&
11!
02!
0S
0R
0Q
1D
1T
1S
1R
0T
#3240000
0!
0;
0<
1&
#3250000
1!
1;
1<
0&
12!
1Q
0D
0S
0R
1T
#3260000
0!
0;
0<
1&
#3270000
1!
1;
1<
0&
10!
01!
02!
1U
0T
1S
1R
0Q
1D
1V
0U
1T
0R
0V
#3280000
0!
0;
0<
1&
#3290000
1!
1;
1<
0&
12!
0E
1Q
0D
1R
#3300000
0!
0;
0<
1&
#3310000
1!
1;
1<
0&
11!
02!
0S
0R
1E
0Q
1D
1U
0T
1S
1R
1V
0U
1T
0V
#3320000
0!
0;
0<
1&
#3330000
1!
1;
1<
0&
12!
1Q
0D
0S
0R
1U
0T
1V
#3340000
0!
0;
0<
1&
