IRDA/IRtransceiver/simulation/qsim/IRtransceiver.msim.vcd
$comment
	File created using the following command:
		vcd file IRtransceiver.msim.vcd -direction
$end
$date
	Thu Dec 10 10:44:38 2015
$end
$version
	ModelSim Version 10.1d
$end
$timescale
	1ps
$end
$scope module IRtransceiver_vlg_vec_tst $end
$var reg 1 ! clk $end
$var reg 8 " Input [7:0] $end
$var reg 1 # IRDA_RXD $end
$var reg 1 $ reset $end
$var reg 1 % send $end
$var wire 1 & framing_error $end
$var wire 1 ' IRDA_TXD $end
$var wire 1 ( parity_error $end
$var wire 1 ) pin_name1 $end
$var wire 1 * segL [6] $end
$var wire 1 + segL [5] $end
$var wire 1 , segL [4] $end
$var wire 1 - segL [3] $end
$var wire 1 . segL [2] $end
$var wire 1 / segL [1] $end
$var wire 1 0 segL [0] $end
$var wire 1 1 segR [6] $end
$var wire 1 2 segR [5] $end
$var wire 1 3 segR [4] $end
$var wire 1 4 segR [3] $end
$var wire 1 5 segR [2] $end
$var wire 1 6 segR [1] $end
$var wire 1 7 segR [0] $end
$var wire 1 8 sampler $end
$scope module i1 $end
$var wire 1 9 gnd $end
$var wire 1 : vcc $end
$var wire 1 ; unknown $end
$var tri1 1 < devclrn $end
$var tri1 1 = devpor $end
$var tri1 1 > devoe $end
$var wire 1 ? inst16|p_state.R~regout $end
$var wire 1 @ inst16|p_state.Q~regout $end
$var wire 1 A inst11|p_cnt[3]~11_combout $end
$var wire 1 B inst12|p_cnt[3]~13_combout $end
$var wire 1 C inst16|Selector3~1_combout $end
$var wire 1 D inst16|Selector2~0_combout $end
$var wire 1 E inst16|Selector2~1_combout $end
$var wire 1 F inst2|nshift[5]~5_combout $end
$var wire 1 G inst2|nshift[6]~6_combout $end
$var wire 1 H inst2|nshift[7]~7_combout $end
$var wire 1 I inst2|nshift[8]~8_combout $end
$var wire 1 J inst2|nshift[9]~9_combout $end
$var wire 1 K inst1|WideXor0~0_combout $end
$var wire 1 L inst1|WideXor0~1_combout $end
$var wire 1 M inst2|nshift[10]~10_combout $end
$var wire 1 N inst2|nshift~11_combout $end
$var wire 1 O clk~combout $end
$var wire 1 P clk~clkctrl_outclk $end
$var wire 1 Q inst11|p_cnt[0]~5_combout $end
$var wire 1 R inst11|p_cnt[2]~10 $end
$var wire 1 S inst11|p_cnt[3]~12 $end
$var wire 1 T inst11|p_cnt[4]~13_combout $end
$var wire 1 U reset~combout $end
$var wire 1 V inst6|p_count[0]~12_combout $end
$var wire 1 W inst6|p_count[2]~16_combout $end
$var wire 1 X inst6|p_count[6]~25 $end
$var wire 1 Y inst6|p_count[7]~26_combout $end
$var wire 1 Z inst6|p_count[7]~27 $end
$var wire 1 [ inst6|p_count[8]~29 $end
$var wire 1 \ inst6|p_count[9]~30_combout $end
$var wire 1 ] inst6|p_count[9]~31 $end
$var wire 1 ^ inst6|p_count[10]~32_combout $end
$var wire 1 _ inst6|p_count[10]~33 $end
$var wire 1 ` inst6|p_count[11]~34_combout $end
$var wire 1 a inst6|Equal0~0_combout $end
$var wire 1 b inst6|p_count[3]~18_combout $end
$var wire 1 c inst6|Equal0~1_combout $end
$var wire 1 d inst6|p_count[8]~28_combout $end
$var wire 1 e inst6|Equal0~2_combout $end
$var wire 1 f inst16|Selector3~0_combout $end
$var wire 1 g inst6|Equal1~2_combout $end
$var wire 1 h inst6|Equal1~0_combout $end
$var wire 1 i inst6|Equal1~3_combout $end
$var wire 1 j inst6|p_count[11]~36_combout $end
$var wire 1 k inst6|p_count[0]~13 $end
$var wire 1 l inst6|p_count[1]~14_combout $end
$var wire 1 m inst6|p_count[1]~15 $end
$var wire 1 n inst6|p_count[2]~17 $end
$var wire 1 o inst6|p_count[3]~19 $end
$var wire 1 p inst6|p_count[4]~20_combout $end
$var wire 1 q inst6|p_count[4]~21 $end
$var wire 1 r inst6|p_count[5]~23 $end
$var wire 1 s inst6|p_count[6]~24_combout $end
$var wire 1 t inst6|p_count[5]~22_combout $end
$var wire 1 u inst6|Equal1~1_combout $end
$var wire 1 v inst16|rxd_shift~0_combout $end
$var wire 1 w inst11|Equal0~1_combout $end
$var wire 1 x inst16|Selector4~0_combout $end
$var wire 1 y inst16|p_state.S~regout $end
$var wire 1 z inst16|p_state~8_combout $end
$var wire 1 { inst16|p_state.P~regout $end
$var wire 1 | inst11|p_cnt[3]~16_combout $end
$var wire 1 } IRDA_RXD~combout $end
$var wire 1 ~ inst11|p_cnt[3]~15_combout $end
$var wire 1 !! inst11|p_cnt[0]~6 $end
$var wire 1 "! inst11|p_cnt[1]~8 $end
$var wire 1 #! inst11|p_cnt[2]~9_combout $end
$var wire 1 $! inst11|p_cnt[1]~7_combout $end
$var wire 1 %! inst11|Equal0~0_combout $end
$var wire 1 &! inst15|nshift[9]~29_combout $end
$var wire 1 '! inst15|pshift[4]~2_combout $end
$var wire 1 (! inst15|nshift[8]~24_combout $end
$var wire 1 )! inst15|nshift[4]~25_combout $end
$var wire 1 *! inst15|nshift[3]~23_combout $end
$var wire 1 +! inst15|nshift[2]~22_combout $end
$var wire 1 ,! inst15|nshift[1]~21_combout $end
$var wire 1 -! inst8|always0~0_combout $end
$var wire 1 .! inst15|nshift[7]~28_combout $end
$var wire 1 /! inst15|nshift[6]~27_combout $end
$var wire 1 0! inst8|always0~1_combout $end
$var wire 1 1! inst8|parity_error~0_combout $end
$var wire 1 2! inst8|framing_error~0_combout $end
$var wire 1 3! inst4|p_count[0]~12_combout $end
$var wire 1 4! inst4|Equal0~0_combout $end
$var wire 1 5! send~combout $end
$var wire 1 6! inst4|p_count[2]~16_combout $end
$var wire 1 7! inst4|IR~0_combout $end
$var wire 1 8! inst4|Equal0~2_combout $end
$var wire 1 9! inst12|p_cnt[0]~7_combout $end
$var wire 1 :! inst12|p_cnt[2]~11_combout $end
$var wire 1 ;! inst2|pshift[0]~3_combout $end
$var wire 1 <! inst12|Equal0~0_combout $end
$var wire 1 =! inst12|p_cnt[1]~17_combout $end
$var wire 1 >! inst12|p_cnt[0]~8 $end
$var wire 1 ?! inst12|p_cnt[1]~9_combout $end
$var wire 1 @! inst12|p_cnt[1]~10 $end
$var wire 1 A! inst12|p_cnt[2]~12 $end
$var wire 1 B! inst12|p_cnt[3]~14 $end
$var wire 1 C! inst12|p_cnt[4]~15_combout $end
$var wire 1 D! inst|Selector1~0_combout $end
$var wire 1 E! inst|Selector1~1_combout $end
$var wire 1 F! inst|p_state.Q~regout $end
$var wire 1 G! inst|p_state~5_combout $end
$var wire 1 H! inst|p_state.P~regout $end
$var wire 1 I! inst|load_shift~0_combout $end
$var wire 1 J! inst4|p_count[8]~30 $end
$var wire 1 K! inst4|p_count[9]~31_combout $end
$var wire 1 L! inst4|p_count[9]~32 $end
$var wire 1 M! inst4|p_count[10]~33_combout $end
$var wire 1 N! inst4|Equal0~1_combout $end
$var wire 1 O! inst4|p_count[3]~26_combout $end
$var wire 1 P! inst4|p_count[0]~13 $end
$var wire 1 Q! inst4|p_count[1]~14_combout $end
$var wire 1 R! inst4|p_count[1]~15 $end
$var wire 1 S! inst4|p_count[2]~17 $end
$var wire 1 T! inst4|p_count[3]~18_combout $end
$var wire 1 U! inst4|p_count[3]~19 $end
$var wire 1 V! inst4|p_count[4]~21 $end
$var wire 1 W! inst4|p_count[5]~22_combout $end
$var wire 1 X! inst4|p_count[5]~23 $end
$var wire 1 Y! inst4|p_count[6]~24_combout $end
$var wire 1 Z! inst4|p_count[6]~25 $end
$var wire 1 [! inst4|p_count[7]~27_combout $end
$var wire 1 \! inst4|p_count[7]~28 $end
$var wire 1 ]! inst4|p_count[8]~29_combout $end
$var wire 1 ^! inst2|nshift[4]~4_combout $end
$var wire 1 _! inst2|pshift[0]~2_combout $end
$var wire 1 `! inst2|nshift[3]~3_combout $end
$var wire 1 a! inst2|nshift[2]~2_combout $end
$var wire 1 b! inst2|nshift[1]~1_combout $end
$var wire 1 c! inst2|nshift[0]~0_combout $end
$var wire 1 d! inst3|txd~4_combout $end
$var wire 1 e! inst4|p_count[10]~34 $end
$var wire 1 f! inst4|p_count[11]~35_combout $end
$var wire 1 g! inst3|txd~0_combout $end
$var wire 1 h! inst4|p_count[4]~20_combout $end
$var wire 1 i! inst3|txd~1_combout $end
$var wire 1 j! inst3|txd~2_combout $end
$var wire 1 k! inst3|txd~3_combout $end
$var wire 1 l! inst3|txd~5_combout $end
$var wire 1 m! inst15|nshift[5]~26_combout $end
$var wire 1 n! inst19|WideOr0~0_combout $end
$var wire 1 o! inst19|WideOr1~0_combout $end
$var wire 1 p! inst19|WideOr2~0_combout $end
$var wire 1 q! inst19|WideOr3~0_combout $end
$var wire 1 r! inst19|WideOr4~0_combout $end
$var wire 1 s! inst19|WideOr5~0_combout $end
$var wire 1 t! inst19|WideOr6~0_combout $end
$var wire 1 u! inst15|nshift[0]~20_combout $end
$var wire 1 v! inst18|WideOr0~0_combout $end
$var wire 1 w! inst18|WideOr1~0_combout $end
$var wire 1 x! inst18|WideOr2~0_combout $end
$var wire 1 y! inst18|WideOr3~0_combout $end
$var wire 1 z! inst18|WideOr4~0_combout $end
$var wire 1 {! inst18|WideOr5~0_combout $end
$var wire 1 |! inst18|WideOr6~0_combout $end
$var wire 1 }! inst15|pshift [9] $end
$var wire 1 ~! inst15|pshift [8] $end
$var wire 1 !" inst15|pshift [7] $end
$var wire 1 "" inst15|pshift [6] $end
$var wire 1 #" inst15|pshift [5] $end
$var wire 1 $" inst15|pshift [4] $end
$var wire 1 %" inst15|pshift [3] $end
$var wire 1 &" inst15|pshift [2] $end
$var wire 1 '" inst15|pshift [1] $end
$var wire 1 (" inst15|pshift [0] $end
$var wire 1 )" inst4|p_count [11] $end
$var wire 1 *" inst4|p_count [10] $end
$var wire 1 +" inst4|p_count [9] $end
$var wire 1 ," inst4|p_count [8] $end
$var wire 1 -" inst4|p_count [7] $end
$var wire 1 ." inst4|p_count [6] $end
$var wire 1 /" inst4|p_count [5] $end
$var wire 1 0" inst4|p_count [4] $end
$var wire 1 1" inst4|p_count [3] $end
$var wire 1 2" inst4|p_count [2] $end
$var wire 1 3" inst4|p_count [1] $end
$var wire 1 4" inst4|p_count [0] $end
$var wire 1 5" inst11|p_cnt [4] $end
$var wire 1 6" inst11|p_cnt [3] $end
$var wire 1 7" inst11|p_cnt [2] $end
$var wire 1 8" inst11|p_cnt [1] $end
$var wire 1 9" inst11|p_cnt [0] $end
$var wire 1 :" inst6|p_count [11] $end
$var wire 1 ;" inst6|p_count [10] $end
$var wire 1 <" inst6|p_count [9] $end
$var wire 1 =" inst6|p_count [8] $end
$var wire 1 >" inst6|p_count [7] $end
$var wire 1 ?" inst6|p_count [6] $end
$var wire 1 @" inst6|p_count [5] $end
$var wire 1 A" inst6|p_count [4] $end
$var wire 1 B" inst6|p_count [3] $end
$var wire 1 C" inst6|p_count [2] $end
$var wire 1 D" inst6|p_count [1] $end
$var wire 1 E" inst6|p_count [0] $end
$var wire 1 F" inst2|pshift [11] $end
$var wire 1 G" inst2|pshift [10] $end
$var wire 1 H" inst2|pshift [9] $end
$var wire 1 I" inst2|pshift [8] $end
$var wire 1 J" inst2|pshift [7] $end
$var wire 1 K" inst2|pshift [6] $end
$var wire 1 L" inst2|pshift [5] $end
$var wire 1 M" inst2|pshift [4] $end
$var wire 1 N" inst2|pshift [3] $end
$var wire 1 O" inst2|pshift [2] $end
$var wire 1 P" inst2|pshift [1] $end
$var wire 1 Q" inst2|pshift [0] $end
$var wire 1 R" inst12|p_cnt [4] $end
$var wire 1 S" inst12|p_cnt [3] $end
$var wire 1 T" inst12|p_cnt [2] $end
$var wire 1 U" inst12|p_cnt [1] $end
$var wire 1 V" inst12|p_cnt [0] $end
$var wire 1 W" Input~combout [7] $end
$var wire 1 X" Input~combout [6] $end
$var wire 1 Y" Input~combout [5] $end
$var wire 1 Z" Input~combout [4] $end
$var wire 1 [" Input~combout [3] $end
$var wire 1 \" Input~combout [2] $end
$var wire 1 ]" Input~combout [1] $end
$var wire 1 ^" Input~combout [0] $end
$upscope $end
$upscope $end
$enddefinitions $end
#0
$dumpvars
0!
b101010 "
0#
1$
0%
0&
0'
0(
0)
00
0/
0.
0-
0,
0+
1*
07
06
05
04
03
02
11
x8
09
1:
x;
1<
1=
1>
0?
0@
0A
0B
0C
0D
1E
0F
0G
0H
0I
0J
1K
0L
0M
0N
0O
0P
1Q
0R
1S
0T
1U
1V
0W
0X
0Y
1Z
0[
0\
1]
0^
0_
0`
0a
0b
0c
0d
0e
0f
1g
1h
1i
1j
0k
0l
1m
0n
1o
0p
0q
1r
0s
0t
1u
0v
1w
0x
0y
0z
0{
1|
0}
1~
0!!
1"!
0#!
0$!
1%!
0&!
1'!
0(!
0)!
0*!
0+!
0,!
0-!
0.!
0/!
00!
01!
12!
13!
14!
05!
06!
07!
18!
19!
0:!
0;!
1<!
0=!
0>!
0?!
1@!
0A!
1B!
0C!
0D!
0E!
0F!
0G!
0H!
1I!
0J!
0K!
1L!
0M!
1N!
0O!
0P!
0Q!
1R!
0S!
0T!
1U!
0V!
0W!
1X!
0Y!
0Z!
0[!
1\!
0]!
0^!
1_!
0`!
0a!
0b!
1c!
1d!
0e!
0f!
1g!
0h!
1i!
0j!
1k!
1l!
0m!
0n!
0o!
0p!
0q!
0r!
0s!
0t!
0u!
0v!
0w!
0x!
0y!
0z!
0{!
0|!
0("
0'"
0&"
0%"
0$"
0#"
0""
0!"
0~!
0}!
04"
03"
02"
01"
00"
0/"
0."
0-"
0,"
0+"
0*"
0)"
09"
08"
07"
06"
05"
0E"
0D"
0C"
0B"
0A"
0@"
0?"
0>"
0="
0<"
0;"
0:"
0Q"
0P"
0O"
0N"
0M"
0L"
0K"
0J"
0I"
0H"
0G"
0F"
0V"
0U"
0T"
0S"
0R"
0^"
1]"
0\"
1["
0Z"
1Y"
0X"
0W"
$end
#5000
1!
1O
1P
08
1Q"
14"
1P!
03!
1)
1Q!
#10000
0!
0O
0P
18
#15000
1!
1O
1P
08
13"
04"
1j!
0R!
0Q!
0P!
13!
16!
1R!
1Q!
06!
#20000
0!
0O
0P
18
#25000
1!
1O
1P
08
14"
1P!
03!
0R!
0Q!
16!
#30000
0!
0O
0P
18
#35000
1!
1O
1P
08
03"
04"
12"
0j!
1R!
1Q!
0P!
13!
1S!
06!
0S!
16!
0Q!
1T!
0T!
#40000
0!
0O
0P
18
#45000
1!
1O
1P
08
14"
1P!
03!
1Q!
#50000
0!
0O
0P
18
#55000
1!
1O
1P
08
13"
04"
1j!
0R!
0Q!
0P!
13!
1S!
06!
1R!
1Q!
1T!
0S!
16!
0T!
#60000
0!
0O
0P
18
#65000
1!
1O
1P
08
14"
1P!
03!
0R!
0Q!
1S!
06!
1T!
#70000
0!
0O
0P
18
#75000
1!
1O
1P
08
11"
03"
04"
02"
0U!
0T!
0j!
1R!
1Q!
0P!
13!
0S!
16!
1h!
06!
0Q!
1U!
1T!
0h!
#80000
0!
0O
0P
18
#85000
1!
1O
1P
08
14"
1P!
03!
1Q!
#90000
0!
0O
0P
18
#95000
1!
1O
1P
08
13"
04"
1j!
0R!
0Q!
0P!
13!
16!
1R!
1Q!
06!
#100000
0!
0O
0P
18
#105000
1!
1O
1P
08
14"
1P!
03!
0R!
0Q!
16!
#110000
0!
0O
0P
18
#115000
1!
1O
1P
08
03"
04"
12"
0j!
1R!
1Q!
0P!
13!
0g!
1S!
06!
0k!
0S!
16!
0Q!
0U!
0T!
1U!
1T!
1h!
0h!
#120000
0!
0O
0P
18
#125000
1!
1O
1P
08
14"
1P!
03!
1Q!
#130000
0!
0O
0P
18
#135000
1!
1O
1P
08
13"
04"
1j!
0R!
0Q!
0P!
13!
1S!
06!
1R!
1Q!
0U!
0T!
0S!
16!
1h!
1U!
1T!
0h!
#140000
0!
0O
0P
18
#145000
1!
1O
1P
08
14"
1P!
03!
0R!
0Q!
1S!
06!
0U!
0T!
1h!
#150000
0!
0O
0P
18
#155000
1!
1O
1P
08
10"
01"
03"
04"
02"
0i!
1V!
0h!
1g!
1U!
1T!
0j!
1R!
1Q!
0P!
13!
0S!
16!
1W!
0V!
1h!
06!
0Q!
0T!
0W!
#160000
0!
0O
0P
18
#165000
1!
1O
1P
08
14"
1P!
03!
1Q!
#170000
0!
0O
0P
18
#175000
1!
1O
1P
08
13"
04"
1j!
0R!
0Q!
0P!
13!
16!
1R!
1Q!
06!
#180000
0!
0O
0P
18
#185000
1!
1O
1P
08
14"
1P!
03!
0R!
0Q!
16!
#190000
0!
0O
0P
18
#195000
1!
1O
1P
08
03"
04"
12"
0j!
1R!
1Q!
0P!
13!
1S!
06!
0S!
16!
0Q!
1T!
0T!
#200000
0!
0O
0P
18
#205000
1!
1O
1P
08
14"
1P!
03!
1Q!
#210000
0!
0O
0P
18
#215000
1!
1O
1P
08
13"
04"
1j!
0R!
0Q!
17!
0P!
13!
1S!
06!
1R!
1Q!
1T!
0S!
16!
0T!
#220000
0!
0O
0P
18
#225000
1!
1O
1P
08
14"
1P!
03!
0R!
0Q!
1S!
06!
1T!
#230000
0!
0O
0P
18
#235000
1!
1O
1P
08
11"
03"
04"
02"
0U!
0T!
0j!
1R!
1Q!
07!
0P!
13!
0S!
16!
1V!
0h!
06!
0Q!
1U!
1T!
1W!
0V!
1h!
0W!
#240000
0!
0O
0P
18
#245000
1!
1O
1P
08
14"
1P!
03!
1Q!
#250000
0!
0O
0P
18
#255000
1!
1O
1P
08
13"
04"
1j!
0R!
0Q!
0P!
13!
16!
1R!
1Q!
06!
#260000
0!
0O
0P
18
#265000
1!
1O
1P
08
14"
1P!
03!
0R!
0Q!
16!
#270000
0!
0O
0P
18
#275000
1!
1O
1P
08
03"
04"
12"
0j!
1R!
1Q!
0P!
13!
0g!
1S!
06!
0S!
16!
0Q!
0U!
0T!
1U!
1T!
1V!
0h!
0V!
1h!
1W!
0W!
#280000
0!
0O
0P
18
#285000
1!
1O
1P
08
14"
1P!
03!
1Q!
#290000
0!
0O
0P
18
#295000
1!
1O
1P
08
13"
04"
1j!
0R!
0Q!
17!
0P!
13!
1S!
06!
1R!
1Q!
0U!
0T!
0S!
16!
1V!
0h!
1U!
1T!
1W!
0V!
1h!
0W!
#300000
0!
0O
0P
18
#305000
1!
1O
1P
08
14"
1P!
03!
0R!
0Q!
1S!
06!
0U!
0T!
1V!
0h!
1W!
#310000
0!
0O
0P
18
#315000
1!
1O
1P
08
00"
1/"
01"
03"
04"
02"
1i!
0V!
1h!
07!
0X!
0W!
1U!
1T!
0j!
1R!
1Q!
0P!
13!
0S!
16!
1X!
1W!
1Y!
0h!
06!
0Q!
0T!
0Y!
#320000
0!
0O
0P
18
#325000
1!
1O
1P
08
14"
1P!
03!
1Q!
#330000
0!
0O
0P
18
#335000
1!
1O
1P
08
13"
04"
1j!
0R!
0Q!
0P!
13!
16!
1R!
1Q!
06!
#340000
0!
0O
0P
18
#345000
1!
1O
1P
08
14"
1P!
03!
0R!
0Q!
16!
#350000
0!
0O
0P
18
#355000
1!
1O
1P
08
03"
04"
12"
0j!
1R!
1Q!
0P!
13!
1S!
06!
0S!
16!
0Q!
1T!
0T!
#360000
0!
0O
0P
18
#365000
1!
1O
1P
08
14"
1P!
03!
1Q!
#370000
0!
0O
0P
18
#375000
1!
1O
1P
08
13"
04"
1j!
0R!
0Q!
0P!
13!
1S!
06!
1R!
1Q!
1T!
0S!
16!
0T!
#380000
0!
0O
0P
18
#385000
1!
1O
1P
08
14"
1P!
03!
0R!
0Q!
1S!
06!
1T!
#390000
0!
0O
0P
18
#395000
1!
1O
1P
08
11"
03"
04"
02"
0U!
0T!
0j!
1R!
1Q!
0P!
13!
0S!
16!
1h!
06!
0Q!
1U!
1T!
0h!
#400000
0!
0O
0P
18
#405000
1!
1O
1P
08
14"
1P!
03!
1Q!
#410000
0!
0O
0P
18
#415000
1!
1O
1P
08
13"
04"
1j!
0R!
0Q!
0P!
13!
16!
1R!
1Q!
06!
#420000
0!
0O
0P
18
#425000
1!
1O
1P
08
14"
1P!
03!
0R!
0Q!
16!
#430000
0!
0O
0P
18
#435000
1!
1O
1P
08
03"
04"
12"
0j!
1R!
1Q!
0P!
13!
1S!
06!
0S!
16!
0Q!
0U!
0T!
1U!
1T!
1h!
0h!
#440000
0!
0O
0P
18
#445000
1!
1O
1P
08
14"
1P!
03!
1Q!
#450000
0!
0O
0P
18
#455000
1!
1O
1P
08
13"
04"
1j!
0R!
0Q!
0P!
13!
1S!
06!
1R!
1Q!
0U!
0T!
0S!
16!
1h!
1U!
1T!
0h!
#460000
0!
0O
0P
18
#465000
1!
1O
1P
08
14"
1P!
03!
0R!
0Q!
1S!
06!
0U!
0T!
1h!
#470000
0!
0O
0P
18
#475000
1!
1O
1P
08
10"
01"
03"
04"
02"
0i!
1V!
0h!
1U!
1T!
0j!
1R!
1Q!
0P!
13!
0S!
16!
0X!
0W!
0V!
1h!
06!
0Q!
0T!
1Y!
1X!
1W!
0Y!
#480000
0!
0O
0P
18
#485000
1!
1O
1P
08
14"
1P!
03!
1Q!
#490000
0!
0O
0P
18
#495000
1!
1O
1P
08
13"
04"
1j!
0R!
0Q!
0P!
13!
16!
1R!
1Q!
06!
#500000
0!
0O
0P
18
#505000
1!
1O
1P
08
14"
1P!
03!
0R!
0Q!
16!
#510000
0!
0O
0P
18
#515000
1!
1O
1P
08
03"
04"
12"
0j!
1R!
1Q!
0P!
13!
1S!
06!
0S!
16!
0Q!
1T!
0T!
#520000
0!
0O
0P
18
#525000
1!
1O
1P
08
14"
1P!
03!
1Q!
#530000
0!
0O
0P
18
#535000
1!
1O
1P
08
13"
04"
1j!
0R!
0Q!
17!
0P!
13!
1S!
06!
1R!
1Q!
1T!
0S!
16!
0T!
#540000
0!
0O
0P
18
#545000
1!
1O
1P
08
14"
1P!
03!
0R!
0Q!
1S!
06!
1T!
#550000
0!
0O
0P
18
#555000
1!
1O
1P
08
11"
03"
04"
02"
0U!
0T!
0j!
1R!
1Q!
07!
0P!
13!
0S!
16!
1V!
0h!
06!
0Q!
1U!
1T!
0X!
0W!
0V!
1h!
1Y!
1X!
1W!
0Y!
#560000
0!
0O
0P
18
#565000
1!
1O
1P
08
14"
1P!
03!
1Q!
#570000
0!
0O
0P
18
#575000
1!
1O
1P
08
13"
04"
1j!
0R!
0Q!
0P!
13!
16!
1R!
1Q!
06!
#580000
0!
0O
0P
18
#585000
1!
1O
1P
08
14"
1P!
03!
0R!
0Q!
16!
#590000
0!
0O
0P
18
#595000
1!
1O
1P
08
03"
04"
12"
0j!
1R!
1Q!
0P!
13!
1S!
06!
0S!
16!
0Q!
0U!
0T!
1U!
1T!
1V!
0h!
0V!
1h!
0X!
0W!
1X!
1W!
1Y!
0Y!
#600000
0!
0O
0P
18
#605000
1!
1O
1P
08
14"
1P!
03!
1Q!
#610000
0!
0O
0P
18
#615000
1!
1O
1P
08
13"
04"
1j!
0R!
0Q!
17!
0P!
13!
1S!
06!
1R!
1Q!
0U!
0T!
0S!
16!
1V!
0h!
1U!
1T!
0X!
0W!
0V!
1h!
1Y!
1X!
1W!
0Y!
#620000
0!
0O
0P
18
#625000
1!
1O
1P
08
14"
1P!
03!
0R!
0Q!
1S!
06!
0U!
0T!
1V!
0h!
0X!
0W!
1Y!
#630000
0!
0O
0P
18
#635000
1!
1O
1P
08
00"
1."
0/"
01"
03"
04"
02"
0V!
1h!
07!
1Z!
0Y!
1X!
1W!
1U!
1T!
0j!
1R!
1Q!
0P!
13!
0S!
16!
0W!
1[!
0Z!
1Y!
0h!
06!
0Q!
0T!
0[!
#640000
0!
0O
0P
18
#645000
1!
1O
1P
08
14"
1P!
03!
1Q!
#650000
0!
0O
0P
18
#655000
1!
1O
1P
08
13"
04"
1j!
0R!
0Q!
0P!
13!
16!
1R!
1Q!
06!
#660000
0!
0O
0P
18
#665000
1!
1O
1P
08
14"
1P!
03!
0R!
0Q!
16!
#670000
0!
0O
0P
18
#675000
1!
1O
1P
08
03"
04"
12"
0j!
1R!
1Q!
0P!
13!
1S!
06!
0S!
16!
0Q!
1T!
0T!
#680000
0!
0O
0P
18
#685000
1!
1O
1P
08
14"
1P!
03!
1Q!
#690000
0!
0O
0P
18
#695000
1!
1O
1P
08
13"
04"
1j!
0R!
0Q!
0P!
13!
1S!
06!
1R!
1Q!
1T!
0S!
16!
0T!
#700000
0!
0O
0P
18
#705000
1!
1O
1P
08
14"
1P!
03!
0R!
0Q!
1S!
06!
1T!
#710000
0!
0O
0P
18
#715000
1!
1O
1P
08
11"
03"
04"
02"
0U!
0T!
0j!
1R!
1Q!
0P!
13!
0S!
16!
1h!
06!
0Q!
1U!
1T!
0h!
#720000
0!
0O
0P
18
#725000
1!
1O
1P
08
14"
1P!
03!
1Q!
#730000
0!
0O
0P
18
#735000
1!
1O
1P
08
13"
04"
1j!
0R!
0Q!
0P!
13!
16!
1R!
1Q!
06!
#740000
0!
0O
0P
18
#745000
1!
1O
1P
08
14"
1P!
03!
0R!
0Q!
16!
#750000
0!
0O
0P
18
#755000
1!
1O
1P
08
03"
04"
12"
0j!
1R!
1Q!
0P!
13!
1S!
06!
0S!
16!
0Q!
0U!
0T!
1U!
1T!
1h!
0h!
#760000
0!
0O
0P
18
#765000
1!
1O
1P
08
14"
1P!
03!
1Q!
#770000
0!
0O
0P
18
#775000
1!
1O
1P
08
13"
04"
1j!
0R!
0Q!
0P!
13!
1S!
06!
1R!
1Q!
0U!
0T!
0S!
16!
1h!
1U!
1T!
0h!
#780000
0!
0O
0P
18
#785000
1!
1O
1P
08
14"
1P!
03!
0R!
0Q!
1S!
06!
0U!
0T!
1h!
#790000
0!
0O
0P
18
#795000
1!
1O
1P
08
10"
01"
03"
04"
02"
1V!
0h!
1U!
1T!
0j!
1R!
1Q!
0P!
13!
0S!
16!
1W!
0V!
1h!
06!
0Q!
0T!
0W!
#800000
0!
0O
0P
18
#805000
1!
1O
1P
08
14"
1i!
1P!
03!
1Q!
#810000
0!
0O
0P
18
#815000
1!
1O
1P
08
13"
04"
1j!
0R!
0Q!
0i!
0P!
13!
16!
1R!
1Q!
06!
#820000
0!
0O
0P
18
#825000
1!
1O
1P
08
14"
1i!
1P!
03!
0R!
0Q!
16!
#830000
0!
0O
0P
18
#835000
1!
1O
1P
08
03"
04"
12"
0j!
1R!
1Q!
0i!
0P!
13!
1S!
06!
0S!
16!
0Q!
1T!
0T!
#840000
0!
0O
0P
18
#845000
1!
1O
1P
08
14"
1i!
1P!
03!
1Q!
#850000
0!
0O
0P
18
#855000
1!
1O
1P
08
13"
04"
1j!
0R!
0Q!
17!
0i!
0P!
13!
1S!
06!
1R!
1Q!
1T!
0S!
16!
0T!
#860000
0!
0O
0P
18
#865000
1!
1O
1P
08
14"
1i!
1P!
03!
0R!
0Q!
1S!
06!
1T!
#870000
0!
0O
0P
18
#875000
1!
1O
1P
08
11"
03"
04"
02"
0U!
0T!
0j!
1R!
1Q!
07!
0i!
0P!
13!
0S!
16!
1V!
0h!
06!
0Q!
1U!
1T!
1W!
0V!
1h!
0W!
#880000
0!
0O
0P
18
#885000
1!
1O
1P
08
14"
1i!
1P!
03!
1Q!
#890000
0!
0O
0P
18
#895000
1!
1O
1P
08
13"
04"
1j!
0R!
0Q!
0i!
0P!
13!
16!
1R!
1Q!
06!
#900000
0!
0O
0P
18
#905000
1!
1O
1P
08
14"
1i!
1P!
03!
0R!
0Q!
16!
#910000
0!
0O
0P
18
#915000
1!
1O
1P
08
03"
04"
12"
0j!
1R!
1Q!
0i!
0P!
13!
1S!
06!
0S!
16!
0Q!
0U!
0T!
1U!
1T!
1V!
0h!
0V!
1h!
1W!
0W!
#920000
0!
0O
0P
18
#925000
1!
1O
1P
08
14"
1i!
1P!
03!
1Q!
#930000
0!
0O
0P
18
#935000
1!
1O
1P
08
13"
04"
1j!
0R!
0Q!
17!
0i!
0P!
13!
1S!
06!
1R!
1Q!
0U!
0T!
0S!
16!
1V!
0h!
1U!
1T!
1W!
0V!
1h!
0W!
#940000
0!
0O
0P
18
#945000
1!
1O
1P
08
14"
1i!
1P!
03!
0R!
0Q!
1S!
06!
0U!
0T!
1V!
0h!
1W!
#950000
0!
0O
0P
18
#955000
1!
1O
1P
08
00"
1/"
01"
03"
04"
02"
0i!
0V!
1h!
07!
0X!
0W!
1U!
1T!
0j!
1R!
1Q!
0P!
13!
0S!
16!
1X!
1W!
1Z!
0Y!
0h!
06!
0Q!
0T!
0Z!
1Y!
1[!
0[!
#960000
0!
0O
0P
18
#965000
1!
1O
1P
08
14"
1P!
03!
1Q!
#970000
0!
0O
0P
18
#975000
1!
1O
1P
08
13"
04"
1j!
0R!
0Q!
0P!
13!
16!
1R!
1Q!
06!
#980000
0!
0O
0P
18
#985000
1!
1O
1P
08
14"
1P!
03!
0R!
0Q!
16!
#990000
0!
0O
0P
18
#995000
1!
1O
1P
08
03"
04"
12"
0j!
1R!
1Q!
0P!
13!
1S!
06!
0S!
16!
0Q!
1T!
0T!
#1000000
0!
0O
0P
18
#1005000
1!
1O
1P
08
14"
1P!
03!
1Q!
#1010000
0!
0O
0P
18
#1015000
1!
1O
1P
08
13"
04"
1j!
0R!
0Q!
0P!
13!
1S!
06!
1R!
1Q!
1T!
0S!
16!
0T!
#1020000
0!
0O
0P
18
#1025000
1!
1O
1P
08
14"
1P!
03!
0R!
0Q!
1S!
06!
1T!
#1030000
0!
0O
0P
18
#1035000
1!
1O
1P
08
11"
03"
04"
02"
0U!
0T!
0j!
1R!
1Q!
0P!
13!
0S!
16!
1h!
06!
0Q!
1U!
1T!
0h!
#1040000
0!
0O
0P
18
#1045000
1!
1O
1P
08
14"
1P!
03!
1Q!
#1050000
0!
0O
0P
18
