IRDA/RXD _V2/baud_done/simulation/qsim/baud_done.msim.vcd
$comment
	File created using the following command:
		vcd file baud_done.msim.vcd -direction
$end
$date
	Wed Nov 11 08:48:50 2015
$end
$version
	ModelSim Version 10.1d
$end
$timescale
	1ps
$end
$scope module baud_done_vlg_vec_tst $end
$var reg 1 ! clk $end
$var reg 1 " reset $end
$var wire 1 # done_pulse $end
$var wire 1 $ half_pulse $end
$var wire 1 % sampler $end
$scope module i1 $end
$var wire 1 & gnd $end
$var wire 1 ' vcc $end
$var wire 1 ( unknown $end
$var tri1 1 ) devclrn $end
$var tri1 1 * devpor $end
$var tri1 1 + devoe $end
$var wire 1 , p_count[3]~18_combout $end
$var wire 1 - p_count[8]~29_combout $end
$var wire 1 . clk~combout $end
$var wire 1 / reset~combout $end
$var wire 1 0 clk~clkctrl_outclk $end
$var wire 1 1 p_count[0]~12_combout $end
$var wire 1 2 Equal0~0_combout $end
$var wire 1 3 p_count[6]~25_combout $end
$var wire 1 4 p_count[4]~20_combout $end
$var wire 1 5 Equal1~0_combout $end
$var wire 1 6 p_count[11]~24_combout $end
$var wire 1 7 p_count[0]~13 $end
$var wire 1 8 p_count[1]~15 $end
$var wire 1 9 p_count[2]~16_combout $end
$var wire 1 : p_count[2]~17 $end
$var wire 1 ; p_count[3]~19 $end
$var wire 1 < p_count[4]~21 $end
$var wire 1 = p_count[5]~22_combout $end
$var wire 1 > p_count[5]~23 $end
$var wire 1 ? p_count[6]~26 $end
$var wire 1 @ p_count[7]~27_combout $end
$var wire 1 A p_count[7]~28 $end
$var wire 1 B p_count[8]~30 $end
$var wire 1 C p_count[9]~31_combout $end
$var wire 1 D p_count[9]~32 $end
$var wire 1 E p_count[10]~33_combout $end
$var wire 1 F p_count[10]~34 $end
$var wire 1 G p_count[11]~35_combout $end
$var wire 1 H Equal0~1_combout $end
$var wire 1 I p_count[1]~14_combout $end
$var wire 1 J Equal0~2_combout $end
$var wire 1 K Equal0~3_combout $end
$var wire 1 L Equal1~1_combout $end
$var wire 1 M p_count [11] $end
$var wire 1 N p_count [10] $end
$var wire 1 O p_count [9] $end
$var wire 1 P p_count [8] $end
$var wire 1 Q p_count [7] $end
$var wire 1 R p_count [6] $end
$var wire 1 S p_count [5] $end
$var wire 1 T p_count [4] $end
$var wire 1 U p_count [3] $end
$var wire 1 V p_count [2] $end
$var wire 1 W p_count [1] $end
$var wire 1 X p_count [0] $end
$upscope $end
$upscope $end
$enddefinitions $end
#0
$dumpvars
0!
1"
0#
0$
x%
0&
1'
x(
1)
1*
1+
0,
0-
0.
1/
00
11
02
03
04
15
16
07
18
09
0:
1;
0<
0=
1>
0?
0@
1A
0B
0C
1D
0E
0F
0G
1H
0I
0J
0K
1L
0X
0W
0V
0U
0T
0S
0R
0Q
0P
0O
0N
0M
$end
#1000
1!
1.
10
0%
#2000
0!
0.
00
1%
#3000
1!
1.
10
0%
#4000
0!
0.
00
1%
#5000
1!
1.
10
0%
#6000
0!
0.
00
1%
#7000
1!
1.
10
0%
#8000
0!
0.
00
1%
#9000
1!
1.
10
0%
#10000
0!
0.
00
1%
#11000
1!
1.
10
0%
#12000
0!
0.
00
1%
#13000
1!
1.
10
0%
#14000
0!
0.
00
1%
#15000
1!
1.
10
0%
#16000
0!
0.
00
1%
#17000
1!
1.
10
0%
#18000
0!
0.
00
1%
#19000
1!
1.
10
0%
#20000
0!
0.
00
1%
#21000
1!
1.
10
0%
#22000
0!
0.
00
1%
#23000
1!
1.
10
0%
#24000
0!
0.
00
1%
#25000
1!
1.
10
0%
#26000
0!
0.
00
1%
#27000
1!
1.
10
0%
#28000
0!
0.
00
1%
#29000
1!
1.
10
0%
#30000
0!
0.
00
1%
#31000
1!
1.
10
0%
#32000
0!
0.
00
1%
#33000
1!
1.
10
0%
#34000
0!
0.
00
1%
#35000
1!
1.
10
0%
#36000
0!
0.
00
1%
#37000
1!
1.
10
0%
#38000
0!
0.
00
1%
#39000
1!
1.
10
0%
#40000
0!
0.
00
1%
#41000
1!
1.
10
0%
#42000
0!
0.
00
1%
#43000
1!
1.
10
0%
#44000
0!
0.
00
1%
#45000
1!
1.
10
0%
#46000
0!
0.
00
1%
#47000
1!
1.
10
0%
#48000
0!
0.
00
1%
#49000
1!
1.
10
0%
#50000
0!
0.
00
1%
#51000
1!
1.
10
0%
#52000
0!
0.
00
1%
#53000
1!
1.
10
0%
#54000
0!
0.
00
1%
#55000
1!
1.
10
0%
#56000
0!
0.
00
1%
#57000
1!
1.
10
0%
#58000
0!
0.
00
1%
#59000
1!
1.
10
0%
#60000
0!
0.
00
1%
#61000
1!
1.
10
0%
#62000
0!
0.
00
1%
#63000
1!
1.
10
0%
#64000
0!
0.
00
1%
#65000
1!
1.
10
0%
#66000
0!
0.
00
1%
#67000
1!
1.
10
0%
#68000
0!
0.
00
1%
#69000
1!
1.
10
0%
#70000
0!
0.
00
1%
#71000
1!
1.
10
0%
#72000
0!
0.
00
1%
#73000
1!
1.
10
0%
#74000
0!
0.
00
1%
#75000
1!
1.
10
0%
#76000
0!
0.
00
1%
#77000
1!
1.
10
0%
#78000
0!
0.
00
1%
#79000
1!
1.
10
0%
#80000
0!
0.
00
1%
#81000
1!
1.
10
0%
#82000
0!
0.
00
1%
#83000
1!
1.
10
0%
#84000
0!
0.
00
1%
#85000
1!
1.
10
0%
#86000
0!
0.
00
1%
#87000
1!
1.
10
0%
#88000
0!
0.
00
1%
#89000
1!
1.
10
0%
#90000
0!
0.
00
1%
#91000
1!
1.
10
0%
#92000
0!
0.
00
1%
#93000
1!
1.
10
0%
#94000
0!
0.
00
1%
#95000
1!
1.
10
0%
#96000
0!
0.
00
1%
#97000
1!
1.
10
0%
#98000
0!
0.
00
1%
#99000
1!
1.
10
0%
#100000
0!
0.
00
1%
#101000
1!
1.
10
0%
#102000
0!
0.
00
1%
#103000
1!
1.
10
0%
#104000
0!
0.
00
1%
#105000
1!
1.
10
0%
#106000
0!
0.
00
1%
#107000
1!
1.
10
0%
#108000
0!
0.
00
1%
#109000
1!
1.
10
0%
#110000
0!
0.
00
1%
#111000
1!
1.
10
0%
#112000
0!
0.
00
1%
#113000
1!
1.
10
0%
#114000
0!
0.
00
1%
#115000
1!
1.
10
0%
#116000
0!
0.
00
1%
#117000
1!
1.
10
0%
#118000
0!
0.
00
1%
#119000
1!
1.
10
0%
#120000
0!
0.
00
1%
#121000
1!
1.
10
0%
#122000
0!
0.
00
1%
#123000
1!
1.
10
0%
#124000
0!
0.
00
1%
#125000
1!
1.
10
0%
#126000
0!
0.
00
1%
#127000
1!
1.
10
0%
#128000
0!
0.
00
1%
#129000
1!
1.
10
0%
#130000
0!
0.
00
1%
#131000
1!
1.
10
0%
#132000
0!
0.
00
1%
#133000
1!
1.
10
0%
#134000
0!
0.
00
1%
#135000
1!
1.
10
0%
#136000
0!
0.
00
1%
#137000
1!
1.
10
0%
#138000
0!
0.
00
1%
#139000
1!
1.
10
0%
#140000
0!
0.
00
1%
#141000
1!
1.
10
0%
#142000
0!
0.
00
1%
#143000
1!
1.
10
0%
#144000
0!
0.
00
1%
#145000
1!
1.
10
0%
#146000
0!
0.
00
1%
#147000
1!
1.
10
0%
#148000
0!
0.
00
1%
#149000
1!
1.
10
0%
#150000
0!
0.
00
1%
#151000
1!
1.
10
0%
#152000
0!
0.
00
1%
#153000
1!
1.
10
0%
#154000
0!
0.
00
1%
#155000
1!
1.
10
0%
#156000
0!
0.
00
1%
#157000
1!
1.
10
0%
#158000
0!
0.
00
1%
#159000
1!
1.
10
0%
#160000
0!
0.
00
1%
#161000
1!
1.
10
0%
#162000
0!
0.
00
1%
#163000
1!
1.
10
0%
#164000
0!
0.
00
1%
#165000
1!
1.
10
0%
#166000
0!
0.
00
1%
#167000
1!
1.
10
0%
#168000
0!
0.
00
1%
#169000
1!
1.
10
0%
#170000
0!
0.
00
1%
#171000
1!
1.
10
0%
#172000
0!
0.
00
1%
#173000
1!
1.
10
0%
#174000
0!
0.
00
1%
#175000
1!
1.
10
0%
#176000
0!
0.
00
1%
#177000
1!
1.
10
0%
#178000
0!
0.
00
1%
#179000
1!
1.
10
0%
#180000
0!
0.
00
1%
#181000
1!
1.
10
0%
#182000
0!
0.
00
1%
#183000
1!
1.
10
0%
#184000
0!
0.
00
1%
#185000
1!
1.
10
0%
#186000
0!
0.
00
1%
#187000
1!
1.
10
0%
#188000
0!
0.
00
1%
#189000
1!
1.
10
0%
#190000
0!
0.
00
1%
#191000
1!
1.
10
0%
#192000
0!
0.
00
1%
#193000
1!
1.
10
0%
#194000
0!
0.
00
1%
#195000
1!
1.
10
0%
#196000
0!
0.
00
1%
#197000
1!
1.
10
0%
#198000
0!
0.
00
1%
#199000
1!
1.
10
0%
#200000
0!
0.
00
1%
#201000
1!
1.
10
0%
#202000
0!
0.
00
1%
#203000
1!
1.
10
0%
#204000
0!
0.
00
1%
#205000
1!
1.
10
0%
#206000
0!
0.
00
1%
#207000
1!
1.
10
0%
#208000
0!
0.
00
1%
#209000
1!
1.
10
0%
#210000
0!
0.
00
1%
#211000
1!
1.
10
0%
#212000
0!
0.
00
1%
#213000
1!
1.
10
0%
#214000
0!
0.
00
1%
#215000
1!
1.
10
0%
#216000
0!
0.
00
1%
#217000
1!
1.
10
0%
#218000
0!
0.
00
1%
#219000
1!
1.
10
0%
#220000
0!
0.
00
1%
#221000
1!
1.
10
0%
#222000
0!
0.
00
1%
#223000
1!
1.
10
0%
#224000
0!
0.
00
1%
#225000
1!
1.
10
0%
#226000
0!
0.
00
1%
#227000
1!
1.
10
0%
#228000
0!
0.
00
1%
#229000
1!
1.
10
0%
#230000
0!
0.
00
1%
#231000
1!
1.
10
0%
#232000
0!
0.
00
1%
#233000
1!
1.
10
0%
#234000
0!
0.
00
1%
#235000
1!
1.
10
0%
#236000
0!
0.
00
1%
#237000
1!
1.
10
0%
#238000
0!
0.
00
1%
#239000
1!
1.
10
0%
#240000
0"
0!
0/
0.
00
1%
06
#241000
1!
1.
10
0%
1X
17
01
1I
#242000
0!
0.
00
1%
#243000
1!
1.
10
0%
1W
0X
08
0I
07
11
19
18
1I
09
#244000
0!
0.
00
1%
#245000
1!
1.
10
0%
1X
17
01
08
0I
19
#246000
0!
0.
00
1%
#247000
1!
1.
10
0%
0W
1V
0X
18
1I
1:
09
07
11
0:
19
1,
0I
0,
#248000
0!
0.
00
1%
#249000
1!
1.
10
0%
1X
17
01
1I
#250000
0!
0.
00
1%
#251000
1!
1.
10
0%
1W
0X
08
0I
07
11
1:
09
18
1I
1,
0:
19
0,
#252000
0!
0.
00
1%
#253000
1!
1.
10
0%
1X
17
01
08
0I
1:
09
1,
#254000
0!
0.
00
1%
#255000
1!
1.
10
0%
0W
0V
0X
1U
18
1I
0:
19
07
11
0;
0,
09
1;
1,
0I
14
04
#256000
0!
0.
00
1%
#257000
1!
1.
10
0%
1X
17
01
1I
#258000
0!
0.
00
1%
#259000
1!
1.
10
0%
1W
0X
08
0I
07
11
19
18
1I
09
#260000
0!
0.
00
1%
#261000
1!
1.
10
0%
1X
17
01
08
0I
19
#262000
0!
0.
00
1%
#263000
1!
1.
10
0%
0W
1V
0X
18
1I
1:
09
07
11
0:
19
0;
0,
0I
1;
1,
14
04
#264000
0!
0.
00
1%
#265000
1!
1.
10
0%
1X
17
01
1I
#266000
0!
0.
00
1%
#267000
1!
1.
10
0%
1W
0X
08
0I
07
11
1:
09
18
1I
0;
0,
0:
19
14
1;
1,
04
#268000
0!
0.
00
1%
#269000
1!
1.
10
0%
1X
17
01
08
0I
1:
09
0;
0,
14
#270000
0!
0.
00
1%
#271000
1!
1.
10
0%
0W
0V
0X
1T
0U
18
1I
0:
19
07
11
1<
04
1;
1,
09
0,
0I
1=
0<
14
0=
#272000
0!
0.
00
1%
#273000
1!
1.
10
0%
1X
17
01
1I
#274000
0!
0.
00
1%
#275000
1!
1.
10
0%
1W
0X
1J
08
0I
07
11
19
18
1I
09
#276000
0!
0.
00
1%
#277000
1!
1.
10
0%
1X
17
01
08
0I
19
#278000
0!
0.
00
1%
#279000
1!
1.
10
0%
0W
1V
0X
0J
18
1I
1:
09
07
11
0:
19
1,
0I
0,
#280000
0!
0.
00
1%
#281000
1!
1.
10
0%
1X
17
01
1I
#282000
0!
0.
00
1%
#283000
1!
1.
10
0%
1W
0X
08
0I
07
11
1:
09
18
1I
1,
0:
19
0,
#284000
0!
0.
00
1%
#285000
1!
1.
10
0%
1X
17
01
08
0I
1:
09
1,
#286000
0!
0.
00
1%
#287000
1!
1.
10
0%
0W
0V
0X
1U
18
1I
0:
19
07
11
0;
0,
09
1;
1,
0I
1<
04
0<
14
1=
0=
#288000
0!
0.
00
1%
#289000
1!
1.
10
0%
1X
17
01
1I
#290000
0!
0.
00
1%
#291000
1!
1.
10
0%
1W
0X
1J
08
0I
07
11
19
18
1I
09
#292000
0!
0.
00
1%
#293000
1!
1.
10
0%
1X
17
01
08
0I
19
#294000
0!
0.
00
1%
#295000
1!
1.
10
0%
0W
1V
0X
0J
18
1I
1:
09
07
11
0:
19
0;
0,
0I
1;
1,
1<
04
0<
14
1=
0=
#296000
0!
0.
00
1%
#297000
1!
1.
10
0%
1X
17
01
1I
#298000
0!
0.
00
1%
#299000
1!
1.
10
0%
1W
0X
08
0I
07
11
1:
09
18
1I
0;
0,
0:
19
1<
04
1;
1,
1=
0<
14
0=
#300000
0!
0.
00
1%
#301000
1!
1.
10
0%
1X
17
01
08
0I
1:
09
0;
0,
1<
04
1=
#302000
0!
0.
00
1%
#303000
1!
1.
10
0%
0W
1S
0V
0X
0T
0U
18
1I
0>
0=
12
0:
19
07
11
0<
14
1;
1,
09
13
0,
0I
1>
1=
04
03
#304000
0!
0.
00
1%
#305000
1!
1.
10
0%
1X
02
17
01
1I
#306000
0!
0.
00
1%
#307000
1!
1.
10
0%
1W
0X
08
0I
12
07
11
19
18
1I
09
#308000
0!
0.
00
1%
#309000
1!
1.
10
0%
1X
02
17
01
08
0I
19
#310000
0!
0.
00
1%
#311000
1!
1.
10
0%
0W
1V
0X
18
1I
1:
09
12
07
11
0:
19
1,
0I
0,
#312000
0!
0.
00
1%
#313000
1!
1.
10
0%
1X
02
17
01
1I
#314000
0!
0.
00
1%
#315000
1!
1.
10
0%
1W
0X
08
0I
12
07
11
1:
09
18
1I
1,
0:
19
0,
#316000
0!
0.
00
1%
#317000
1!
1.
10
0%
1X
02
17
01
08
0I
1:
09
1,
#318000
0!
0.
00
1%
#319000
1!
1.
10
0%
0W
0V
0X
1U
18
1I
0:
19
07
11
0;
0,
09
1;
1,
0I
14
04
#320000
0!
0.
00
1%
#321000
1!
1.
10
0%
1X
17
01
1I
#322000
0!
0.
00
1%
#323000
1!
1.
10
0%
1W
0X
08
0I
07
11
19
18
1I
09
#324000
0!
0.
00
1%
#325000
1!
1.
10
0%
1X
17
01
08
0I
19
#326000
0!
0.
00
1%
#327000
1!
1.
10
0%
0W
1V
0X
18
1I
1:
09
07
11
0:
19
0;
0,
0I
1;
1,
14
04
#328000
0!
0.
00
1%
#329000
1!
1.
10
0%
1X
17
01
1I
#330000
0!
0.
00
1%
#331000
1!
1.
10
0%
1W
0X
08
0I
07
11
1:
09
18
1I
0;
0,
0:
19
14
1;
1,
04
#332000
0!
0.
00
1%
#333000
1!
1.
10
0%
1X
17
01
08
0I
1:
09
0;
0,
14
#334000
0!
0.
00
1%
#335000
1!
1.
10
0%
0W
0V
0X
1T
0U
18
1I
0:
19
12
07
11
1<
04
1;
1,
09
0,
0I
0>
0=
0<
14
13
1>
1=
03
#336000
0!
0.
00
1%
#337000
1!
1.
10
0%
1X
02
17
01
1I
#338000
0!
0.
00
1%
#339000
1!
1.
10
0%
1W
0X
1J
08
0I
12
07
11
1K
19
18
1I
09
1$
#340000
0!
0.
00
1%
#341000
1!
1.
10
0%
1X
02
17
01
0K
08
0I
19
0$
#342000
0!
0.
00
1%
#343000
1!
1.
10
0%
0W
1V
0X
0J
18
1I
1:
09
12
07
11
0:
19
1,
0I
0,
#344000
0!
0.
00
1%
#345000
1!
1.
10
0%
1X
02
17
01
1I
#346000
0!
0.
00
1%
#347000
1!
1.
10
0%
1W
0X
08
0I
12
07
11
1:
09
18
1I
1,
0:
19
0,
#348000
0!
0.
00
1%
#349000
1!
1.
10
0%
1X
02
17
01
08
0I
1:
09
1,
#350000
0!
0.
00
1%
#351000
1!
1.
10
0%
0W
0V
0X
1U
18
1I
0:
19
07
11
0;
0,
09
1;
1,
0I
1<
04
0<
14
0>
0=
1>
1=
13
03
#352000
0!
0.
00
1%
#353000
1!
1.
10
0%
1X
17
01
1I
#354000
0!
0.
00
1%
#355000
1!
1.
10
0%
1W
0X
1J
08
0I
07
11
19
18
1I
09
#356000
0!
0.
00
1%
#357000
1!
1.
10
0%
1X
17
01
08
0I
19
#358000
0!
0.
00
1%
#359000
1!
1.
10
0%
0W
1V
0X
0J
18
1I
1:
09
07
11
0:
19
0;
0,
0I
1;
1,
1<
04
0<
14
0>
0=
1>
1=
13
03
#360000
0!
0.
00
1%
#361000
1!
1.
10
0%
1X
17
01
1I
#362000
0!
0.
00
1%
#363000
1!
1.
10
0%
1W
0X
08
0I
07
11
1:
09
18
1I
0;
0,
0:
19
1<
04
1;
1,
0>
0=
0<
14
13
1>
1=
03
#364000
0!
0.
00
1%
#365000
1!
1.
10
0%
1X
17
01
08
0I
1:
09
0;
0,
1<
04
0>
0=
13
#366000
0!
0.
00
1%
#367000
1!
1.
10
0%
0W
0S
0V
0X
0T
1R
0U
18
1I
1>
1=
0:
19
07
11
0<
14
1?
03
1;
1,
09
0?
13
0,
0I
0=
1@
04
0@
#368000
0!
0.
00
1%
#369000
1!
1.
10
0%
1X
17
01
1I
#370000
0!
0.
00
1%
#371000
1!
1.
10
0%
1W
0X
08
0I
07
11
19
18
1I
09
#372000
0!
0.
00
1%
#373000
1!
1.
10
0%
1X
17
01
08
0I
19
#374000
0!
0.
00
1%
#375000
1!
1.
10
0%
0W
1V
0X
18
1I
05
1:
09
07
11
0:
19
1,
0I
0,
#376000
0!
0.
00
1%
#377000
1!
1.
10
0%
1X
17
01
1I
#378000
0!
0.
00
1%
#379000
1!
1.
10
0%
1W
0X
08
0I
15
07
11
1:
09
18
1I
1,
0:
19
0,
#380000
0!
0.
00
1%
#381000
1!
1.
10
0%
1X
17
01
08
0I
1:
09
1,
#382000
0!
0.
00
1%
#383000
1!
1.
10
0%
0W
0V
0X
1U
18
1I
0:
19
07
11
0;
0,
09
1;
1,
0I
14
04
#384000
0!
0.
00
1%
#385000
1!
1.
10
0%
1X
17
01
1I
#386000
0!
0.
00
1%
#387000
1!
1.
10
0%
1W
0X
08
0I
07
11
19
18
1I
09
#388000
0!
0.
00
1%
#389000
1!
1.
10
0%
1X
17
01
08
0I
19
#390000
0!
0.
00
1%
#391000
1!
1.
10
0%
0W
1V
0X
18
1I
05
1:
09
07
11
0:
19
0;
0,
0I
1;
1,
14
04
#392000
0!
0.
00
1%
#393000
1!
1.
10
0%
1X
17
01
1I
#394000
0!
0.
00
1%
#395000
1!
1.
10
0%
1W
0X
08
0I
15
07
11
1:
09
18
1I
0;
0,
0:
19
14
1;
1,
04
#396000
0!
0.
00
1%
#397000
1!
1.
10
0%
1X
17
01
08
0I
1:
09
0;
0,
14
#398000
0!
0.
00
1%
#399000
1!
1.
10
0%
0W
0V
0X
1T
0U
18
1I
0:
19
07
11
1<
04
1;
1,
09
0,
0I
1=
0<
14
0=
#400000
0!
0.
00
1%
#401000
1!
1.
10
0%
1X
17
01
1I
#402000
0!
0.
00
1%
#403000
1!
1.
10
0%
1W
0X
08
0I
07
11
19
18
1I
09
#404000
0!
0.
00
1%
#405000
1!
1.
10
0%
1X
17
01
08
0I
19
#406000
0!
0.
00
1%
#407000
1!
1.
10
0%
0W
1V
0X
18
1I
1:
09
07
11
0:
19
1,
0I
0,
#408000
0!
0.
00
1%
#409000
1!
1.
10
0%
1X
17
01
1I
#410000
0!
0.
00
1%
#411000
1!
1.
10
0%
1W
0X
08
0I
07
11
1:
09
18
1I
1,
0:
19
0,
#412000
0!
0.
00
1%
#413000
1!
1.
10
0%
1X
17
01
08
0I
1:
09
1,
#414000
0!
0.
00
1%
#415000
1!
1.
10
0%
0W
0V
0X
1U
18
1I
0:
19
07
11
0;
0,
09
1;
1,
0I
1<
04
0<
14
1=
0=
#416000
0!
0.
00
1%
#417000
1!
1.
10
0%
1X
17
01
1I
#418000
0!
0.
00
1%
#419000
1!
1.
10
0%
1W
0X
08
0I
07
11
19
18
1I
09
#420000
0!
0.
00
1%
#421000
1!
1.
10
0%
1X
17
01
08
0I
19
#422000
0!
0.
00
1%
#423000
1!
1.
10
0%
0W
1V
0X
18
1I
1:
09
07
11
0:
19
0;
0,
0I
1;
1,
1<
04
0<
14
1=
0=
#424000
0!
0.
00
1%
#425000
1!
1.
10
0%
1X
17
01
1I
#426000
0!
0.
00
1%
#427000
1!
1.
10
0%
1W
0X
08
0I
07
11
1:
09
18
1I
0;
0,
0:
19
1<
04
1;
1,
1=
0<
14
0=
#428000
0!
0.
00
1%
#429000
1!
1.
10
0%
1X
17
01
08
0I
1:
09
0;
0,
1<
04
1=
#430000
0!
0.
00
1%
#431000
1!
1.
10
0%
0W
1S
0V
0X
0T
0U
18
1I
0>
0=
12
0:
19
07
11
0<
14
1;
1,
09
1?
03
0,
0I
1>
1=
04
1@
0?
13
0@
#432000
0!
0.
00
1%
#433000
1!
1.
10
0%
1X
02
17
01
1I
#434000
0!
0.
00
1%
#435000
1!
1.
10
0%
1W
0X
08
0I
12
07
11
19
18
1I
09
#436000
0!
0.
00
1%
#437000
1!
1.
10
0%
1X
02
17
01
08
0I
19
#438000
0!
0.
00
1%
#439000
1!
1.
10
0%
0W
1V
0X
18
1I
05
1:
09
12
07
11
0:
19
0L
16
1,
0I
0,
1#
#440000
0!
0.
00
1%
#441000
1!
1.
10
0%
0S
0V
0R
0=
02
09
15
03
1L
06
0#
#442000
0!
0.
00
1%
#443000
1!
1.
10
0%
1X
17
01
1I
#444000
0!
0.
00
1%
#445000
1!
1.
10
0%
1W
0X
08
0I
07
11
19
18
1I
09
#446000
0!
0.
00
1%
#447000
1!
1.
10
0%
1X
17
01
08
0I
19
#448000
0!
0.
00
1%
#449000
1!
1.
10
0%
0W
1V
0X
18
1I
1:
09
07
11
0:
19
1,
0I
0,
#450000
0!
0.
00
1%
#451000
1!
1.
10
0%
1X
17
01
1I
#452000
0!
0.
00
1%
#453000
1!
1.
10
0%
1W
0X
08
0I
07
11
1:
09
18
1I
1,
0:
19
0,
#454000
0!
0.
00
1%
#455000
1!
1.
10
0%
1X
17
01
08
0I
1:
09
1,
#456000
0!
0.
00
1%
#457000
1!
1.
10
0%
0W
0V
0X
1U
18
1I
0:
19
07
11
0;
0,
09
1;
1,
0I
14
04
#458000
0!
0.
00
1%
#459000
1!
1.
10
0%
1X
17
01
1I
#460000
0!
0.
00
1%
#461000
1!
1.
10
0%
1W
0X
08
0I
07
11
19
18
1I
09
#462000
0!
0.
00
1%
#463000
1!
1.
10
0%
1X
17
01
08
0I
19
#464000
0!
0.
00
1%
#465000
1!
1.
10
0%
0W
1V
0X
18
1I
1:
09
07
11
0:
19
0;
0,
0I
1;
1,
14
04
#466000
0!
0.
00
1%
#467000
1!
1.
10
0%
1X
17
01
1I
#468000
0!
0.
00
1%
#469000
1!
1.
10
0%
1W
0X
08
0I
07
11
1:
09
18
1I
0;
0,
0:
19
14
1;
1,
04
#470000
0!
0.
00
1%
#471000
1!
1.
10
0%
1X
17
01
08
0I
1:
09
0;
0,
14
#472000
0!
0.
00
1%
#473000
1!
1.
10
0%
0W
0V
0X
1T
0U
18
1I
0:
19
07
11
1<
04
1;
1,
09
0,
0I
1=
0<
14
0=
#474000
0!
0.
00
1%
#475000
1!
1.
10
0%
1X
17
01
1I
#476000
0!
0.
00
1%
#477000
1!
1.
10
0%
1W
0X
1J
08
0I
07
11
19
18
1I
09
#478000
0!
0.
00
1%
#479000
1!
1.
10
0%
1X
17
01
08
0I
19
#480000
0!
0.
00
1%
#481000
1!
1.
10
0%
0W
1V
0X
0J
18
1I
1:
09
07
11
0:
19
1,
0I
0,
#482000
0!
0.
00
1%
#483000
1!
1.
10
0%
1X
17
01
1I
#484000
0!
0.
00
1%
#485000
1!
1.
10
0%
1W
0X
08
0I
07
11
1:
09
18
1I
1,
0:
19
0,
#486000
0!
0.
00
1%
#487000
1!
1.
10
0%
1X
17
01
08
0I
1:
09
1,
#488000
0!
0.
00
1%
#489000
1!
1.
10
0%
0W
0V
0X
1U
18
1I
0:
19
07
11
0;
0,
09
1;
1,
0I
1<
04
0<
14
1=
0=
#490000
0!
0.
00
1%
#491000
1!
1.
10
0%
1X
17
01
1I
#492000
0!
0.
00
1%
#493000
1!
1.
10
0%
1W
0X
1J
08
0I
07
11
19
18
1I
09
#494000
0!
0.
00
1%
#495000
1!
1.
10
0%
1X
17
01
08
0I
19
#496000
0!
0.
00
1%
#497000
1!
1.
10
0%
0W
1V
0X
0J
18
1I
1:
09
07
11
0:
19
0;
0,
0I
1;
1,
1<
04
0<
14
1=
0=
#498000
0!
0.
00
1%
#499000
1!
1.
10
0%
1X
17
01
1I
#500000
0!
0.
00
1%
#501000
1!
1.
10
0%
1W
0X
08
0I
07
11
1:
09
18
1I
0;
0,
0:
19
1<
04
1;
1,
1=
0<
14
0=
#502000
0!
0.
00
1%
#503000
1!
1.
10
0%
1X
17
01
08
0I
1:
09
0;
0,
1<
04
1=
#504000
0!
0.
00
1%
#505000
1!
1.
10
0%
0W
1S
0V
0X
0T
0U
18
1I
0>
0=
12
0:
19
07
11
0<
14
1;
1,
09
13
0,
0I
1>
1=
04
03
#506000
0!
0.
00
1%
#507000
1!
1.
10
0%
1X
02
17
01
1I
#508000
0!
0.
00
1%
#509000
1!
1.
10
0%
1W
0X
08
0I
12
07
11
19
18
1I
09
#510000
0!
0.
00
1%
#511000
1!
1.
10
0%
1X
02
17
01
08
0I
19
#512000
0!
0.
00
1%
#513000
1!
1.
10
0%
0W
1V
0X
18
1I
1:
09
12
07
11
0:
19
1,
0I
0,
#514000
0!
0.
00
1%
#515000
1!
1.
10
0%
1X
02
17
01
1I
#516000
0!
0.
00
1%
#517000
1!
1.
10
0%
1W
0X
08
0I
12
07
11
1:
09
18
1I
1,
0:
19
0,
#518000
0!
0.
00
1%
#519000
1!
1.
10
0%
1X
02
17
01
08
0I
1:
09
1,
#520000
0!
0.
00
1%
#521000
1!
1.
10
0%
0W
0V
0X
1U
18
1I
0:
19
07
11
0;
0,
09
1;
1,
0I
14
04
#522000
0!
0.
00
1%
#523000
1!
1.
10
0%
1X
17
01
1I
#524000
0!
0.
00
1%
#525000
1!
1.
10
0%
1W
0X
08
0I
07
11
19
18
1I
09
#526000
0!
0.
00
1%
#527000
1!
1.
10
0%
1X
17
01
08
0I
19
#528000
0!
0.
00
1%
#529000
1!
1.
10
0%
0W
1V
0X
18
1I
1:
09
07
11
0:
19
0;
0,
0I
1;
1,
14
04
#530000
0!
0.
00
1%
#531000
1!
1.
10
0%
1X
17
01
1I
#532000
0!
0.
00
1%
#533000
1!
1.
10
0%
1W
0X
08
0I
07
11
1:
09
18
1I
0;
0,
0:
19
14
1;
1,
04
#534000
0!
0.
00
1%
#535000
1!
1.
10
0%
1X
17
01
08
0I
1:
09
0;
0,
14
#536000
0!
0.
00
1%
#537000
1!
1.
10
0%
0W
0V
0X
1T
0U
18
1I
0:
19
12
07
11
1<
04
1;
1,
09
0,
0I
0>
0=
0<
14
13
1>
1=
03
#538000
0!
0.
00
1%
#539000
1!
1.
10
0%
1X
02
17
01
1I
#540000
0!
0.
00
1%
#541000
1!
1.
10
0%
1W
0X
1J
08
0I
12
07
11
1K
19
18
1I
09
1$
#542000
0!
0.
00
1%
#543000
1!
1.
10
0%
1X
02
17
01
0K
08
0I
19
0$
#544000
0!
0.
00
1%
#545000
1!
1.
10
0%
0W
1V
0X
0J
18
1I
1:
09
12
07
11
0:
19
1,
0I
0,
#546000
0!
0.
00
1%
#547000
1!
1.
10
0%
1X
02
17
01
1I
#548000
0!
0.
00
1%
#549000
1!
1.
10
0%
1W
0X
08
0I
12
07
11
1:
09
18
1I
1,
0:
19
0,
#550000
0!
0.
00
1%
#551000
1!
1.
10
0%
1X
02
17
01
08
0I
1:
09
1,
#552000
0!
0.
00
1%
#553000
1!
1.
10
0%
0W
0V
0X
1U
18
1I
0:
19
07
11
0;
0,
09
1;
1,
0I
1<
04
0<
14
0>
0=
1>
1=
13
03
#554000
0!
0.
00
1%
#555000
1!
1.
10
0%
1X
17
01
1I
#556000
0!
0.
00
1%
#557000
1!
1.
10
0%
1W
0X
1J
08
0I
07
11
19
18
1I
09
#558000
0!
0.
00
1%
#559000
1!
1.
10
0%
1X
17
01
08
0I
19
#560000
0!
0.
00
1%
#561000
1!
1.
10
0%
0W
1V
0X
0J
18
1I
1:
09
07
11
0:
19
0;
0,
0I
1;
1,
1<
04
0<
14
0>
0=
1>
1=
13
03
#562000
0!
0.
00
1%
#563000
1!
1.
10
0%
1X
17
01
1I
#564000
0!
0.
00
1%
#565000
1!
1.
10
0%
1W
0X
08
0I
07
11
1:
09
18
1I
0;
0,
0:
19
1<
04
1;
1,
0>
0=
0<
14
13
1>
1=
03
#566000
0!
0.
00
1%
#567000
1!
1.
10
0%
1X
17
01
08
0I
1:
09
0;
0,
1<
04
0>
0=
13
#568000
0!
0.
00
1%
#569000
1!
1.
10
0%
0W
0S
0V
0X
0T
1R
0U
18
1I
1>
1=
0:
19
07
11
0<
14
1?
03
1;
1,
09
0?
13
0,
0I
0=
1@
04
0@
#570000
0!
0.
00
1%
#571000
1!
1.
10
0%
1X
17
01
1I
