IRDA/RXD _V2/receiver/simulation/qsim/receiver.msim.vcd
$comment
	File created using the following command:
		vcd file receiver.msim.vcd -direction
$end
$date
	Thu Nov 12 18:00:21 2015
$end
$version
	ModelSim Version 10.1d
$end
$timescale
	1ps
$end
$scope module receiver_vlg_vec_tst $end
$var reg 1 ! clk $end
$var reg 1 " data_in $end
$var reg 1 # reset $end
$var wire 1 $ framing_error $end
$var wire 1 % output1 [6] $end
$var wire 1 & output1 [5] $end
$var wire 1 ' output1 [4] $end
$var wire 1 ( output1 [3] $end
$var wire 1 ) output1 [2] $end
$var wire 1 * output1 [1] $end
$var wire 1 + output1 [0] $end
$var wire 1 , output2 [6] $end
$var wire 1 - output2 [5] $end
$var wire 1 . output2 [4] $end
$var wire 1 / output2 [3] $end
$var wire 1 0 output2 [2] $end
$var wire 1 1 output2 [1] $end
$var wire 1 2 output2 [0] $end
$var wire 1 3 parity_error $end
$var wire 1 4 sampler $end
$scope module i1 $end
$var wire 1 5 gnd $end
$var wire 1 6 vcc $end
$var wire 1 7 unknown $end
$var tri1 1 8 devclrn $end
$var tri1 1 9 devpor $end
$var tri1 1 : devoe $end
$var wire 1 ; inst9|p_cnt[3]~13_combout $end
$var wire 1 < inst6|p_count[5]~23_combout $end
$var wire 1 = inst8|nshift[4]~5_combout $end
$var wire 1 > inst|p_state.Q~regout $end
$var wire 1 ? inst|p_state~13_combout $end
$var wire 1 @ clk~combout $end
$var wire 1 A clk~clkctrl_outclk $end
$var wire 1 B inst6|p_count[0]~12_combout $end
$var wire 1 C reset~combout $end
$var wire 1 D data_in~combout $end
$var wire 1 E inst|p_state~14_combout $end
$var wire 1 F inst|p_state.P~regout $end
$var wire 1 G inst|clear_bit~0_combout $end
$var wire 1 H inst6|p_count[9]~32 $end
$var wire 1 I inst6|p_count[10]~33_combout $end
$var wire 1 J inst6|p_count[10]~34 $end
$var wire 1 K inst6|p_count[11]~35_combout $end
$var wire 1 L inst6|p_count[6]~25_combout $end
$var wire 1 M inst6|Equal0~0_combout $end
$var wire 1 N inst6|Equal0~2_combout $end
$var wire 1 O inst6|p_count[4]~21_combout $end
$var wire 1 P inst6|Equal0~1_combout $end
$var wire 1 Q inst6|Equal0~3_combout $end
$var wire 1 R inst6|p_count[8]~16_combout $end
$var wire 1 S inst6|p_count[0]~13 $end
$var wire 1 T inst6|p_count[1]~14_combout $end
$var wire 1 U inst6|p_count[1]~15 $end
$var wire 1 V inst6|p_count[2]~17_combout $end
$var wire 1 W inst6|p_count[2]~18 $end
$var wire 1 X inst6|p_count[3]~19_combout $end
$var wire 1 Y inst6|p_count[3]~20 $end
$var wire 1 Z inst6|p_count[4]~22 $end
$var wire 1 [ inst6|p_count[5]~24 $end
$var wire 1 \ inst6|p_count[6]~26 $end
$var wire 1 ] inst6|p_count[7]~27_combout $end
$var wire 1 ^ inst6|p_count[7]~28 $end
$var wire 1 _ inst6|p_count[8]~29_combout $end
$var wire 1 ` inst6|p_count[8]~30 $end
$var wire 1 a inst6|p_count[9]~31_combout $end
$var wire 1 b inst6|Equal1~1_combout $end
$var wire 1 c inst6|Equal1~0_combout $end
$var wire 1 d inst6|Equal1~2_combout $end
$var wire 1 e inst9|p_cnt[0]~7_combout $end
$var wire 1 f inst9|p_cnt[2]~11_combout $end
$var wire 1 g inst9|p_cnt[2]~17_combout $end
$var wire 1 h inst9|Equal0~0_combout $end
$var wire 1 i inst9|p_cnt[2]~18_combout $end
$var wire 1 j inst9|p_cnt[0]~8 $end
$var wire 1 k inst9|p_cnt[1]~9_combout $end
$var wire 1 l inst9|p_cnt[1]~10 $end
$var wire 1 m inst9|p_cnt[2]~12 $end
$var wire 1 n inst9|p_cnt[3]~14 $end
$var wire 1 o inst9|p_cnt[4]~15_combout $end
$var wire 1 p inst9|Equal0~1_combout $end
$var wire 1 q inst|p_state~11_combout $end
$var wire 1 r inst|p_state~12_combout $end
$var wire 1 s inst|p_state.R~regout $end
$var wire 1 t inst8|nshift[8]~4_combout $end
$var wire 1 u inst8|pshift[0]~0_combout $end
$var wire 1 v inst8|nshift[3]~3_combout $end
$var wire 1 w inst8|nshift[2]~2_combout $end
$var wire 1 x inst8|nshift[0]~0_combout $end
$var wire 1 y inst2|always0~0_combout $end
$var wire 1 z inst|p_state~10_combout $end
$var wire 1 { inst|p_state~15_combout $end
$var wire 1 | inst|p_state.S~regout $end
$var wire 1 } inst|parity_check~0_combout $end
$var wire 1 ~ inst8|nshift[6]~7_combout $end
$var wire 1 !! inst8|nshift[5]~6_combout $end
$var wire 1 "! inst8|nshift[7]~8_combout $end
$var wire 1 #! inst2|always0~1_combout $end
$var wire 1 $! inst2|parity_error~0_combout $end
$var wire 1 %! inst8|nshift[9]~9_combout $end
$var wire 1 &! inst2|framing_error~0_combout $end
$var wire 1 '! inst|parity_check~0clkctrl_outclk $end
$var wire 1 (! inst8|nshift[1]~1_combout $end
$var wire 1 )! inst3|WideOr0~0_combout $end
$var wire 1 *! inst3|WideOr1~0_combout $end
$var wire 1 +! inst3|WideOr2~0_combout $end
$var wire 1 ,! inst3|WideOr3~0_combout $end
$var wire 1 -! inst3|WideOr4~0_combout $end
$var wire 1 .! inst3|WideOr5~0_combout $end
$var wire 1 /! inst3|WideOr6~0_combout $end
$var wire 1 0! inst9|p_cnt [4] $end
$var wire 1 1! inst9|p_cnt [3] $end
$var wire 1 2! inst9|p_cnt [2] $end
$var wire 1 3! inst9|p_cnt [1] $end
$var wire 1 4! inst9|p_cnt [0] $end
$var wire 1 5! inst8|pshift [9] $end
$var wire 1 6! inst8|pshift [8] $end
$var wire 1 7! inst8|pshift [7] $end
$var wire 1 8! inst8|pshift [6] $end
$var wire 1 9! inst8|pshift [5] $end
$var wire 1 :! inst8|pshift [4] $end
$var wire 1 ;! inst8|pshift [3] $end
$var wire 1 <! inst8|pshift [2] $end
$var wire 1 =! inst8|pshift [1] $end
$var wire 1 >! inst8|pshift [0] $end
$var wire 1 ?! inst8|data_out2 [3] $end
$var wire 1 @! inst8|data_out2 [2] $end
$var wire 1 A! inst8|data_out2 [1] $end
$var wire 1 B! inst8|data_out2 [0] $end
$var wire 1 C! inst6|p_count [11] $end
$var wire 1 D! inst6|p_count [10] $end
$var wire 1 E! inst6|p_count [9] $end
$var wire 1 F! inst6|p_count [8] $end
$var wire 1 G! inst6|p_count [7] $end
$var wire 1 H! inst6|p_count [6] $end
$var wire 1 I! inst6|p_count [5] $end
$var wire 1 J! inst6|p_count [4] $end
$var wire 1 K! inst6|p_count [3] $end
$var wire 1 L! inst6|p_count [2] $end
$var wire 1 M! inst6|p_count [1] $end
$var wire 1 N! inst6|p_count [0] $end
$upscope $end
$upscope $end
$enddefinitions $end
#0
$dumpvars
0!
0"
0#
0$
0+
0*
0)
0(
0'
0&
0%
x2
x1
x0
x/
x.
x-
x,
03
x4
05
16
x7
18
19
1:
0;
0<
0=
0>
1?
0@
0A
1B
0C
0D
1E
0F
0G
1H
0I
0J
0K
0L
1M
0N
0O
0P
0Q
1R
0S
0T
1U
0V
0W
0X
1Y
0Z
1[
0\
0]
1^
0_
0`
0a
1b
1c
1d
1e
0f
1g
1h
1i
0j
0k
1l
0m
1n
0o
1p
0q
0r
0s
0t
0u
0v
0w
0x
0y
0z
0{
0|
1}
0~
0!!
0"!
0#!
0$!
0%!
1&!
1'!
0(!
x)!
x*!
x+!
x,!
x-!
x.!
x/!
04!
03!
02!
01!
00!
0>!
0=!
0<!
0;!
0:!
09!
08!
07!
06!
05!
xB!
xA!
x@!
x?!
0N!
0M!
0L!
0K!
0J!
0I!
0H!
0G!
0F!
0E!
0D!
0C!
$end
#5000
1!
1@
1A
04
1F
1>
0i
1G
0g
0R
#10000
0!
0@
0A
14
#15000
1!
1@
1A
04
1N!
1S
0B
1T
#20000
0!
0@
0A
14
#25000
1!
1@
1A
04
1M!
0N!
0U
0T
0S
1B
1V
1U
1T
0V
#30000
0!
0@
0A
14
#35000
1!
1@
1A
04
1N!
1S
0B
0U
0T
1V
#40000
0!
0@
0A
14
#45000
1!
1@
1A
04
1L!
0M!
0N!
1W
0V
1U
1T
0S
1B
1X
0W
1V
0T
0X
#50000
0!
0@
0A
14
#55000
1!
1@
1A
04
1N!
1S
0B
1T
#60000
0!
0@
0A
14
#65000
1!
1@
1A
04
1M!
0N!
0U
0T
0S
1B
1W
0V
1U
1T
1X
0W
1V
0X
#70000
0!
0@
0A
14
#75000
1!
1@
1A
04
1N!
1S
0B
0U
0T
1W
0V
1X
#80000
0!
0@
0A
14
#85000
1!
1@
1A
04
1K!
0L!
0M!
0N!
0Y
0X
0W
1V
1U
1T
0S
1B
1O
1Y
1X
0V
0T
0O
#90000
0!
0@
0A
14
#95000
1!
1@
1A
04
1N!
1S
0B
1T
#100000
0!
0@
0A
14
#105000
1!
1@
1A
04
1M!
0N!
0U
0T
1P
0S
1B
1V
1U
1T
0V
#110000
0!
0@
0A
14
#115000
1!
1@
1A
04
1N!
1S
0B
0U
0T
1V
#120000
0!
0@
0A
14
#125000
1!
1@
1A
04
1L!
0M!
0N!
1W
0V
0P
1U
1T
0S
1B
0Y
0X
0W
1V
0T
1O
1Y
1X
0O
#130000
0!
0@
0A
14
#135000
1!
1@
1A
04
1N!
1S
0B
1T
#140000
0!
0@
0A
14
#145000
1!
1@
1A
04
1M!
0N!
0U
0T
0S
1B
1W
0V
1U
1T
0Y
0X
0W
1V
1O
1Y
1X
0O
#150000
0!
0@
0A
14
#155000
1!
1@
1A
04
1N!
1S
0B
0U
0T
1W
0V
0Y
0X
1O
#160000
0!
0@
0A
14
#165000
1!
1@
1A
04
0K!
0L!
0M!
0N!
1J!
1Y
1X
0W
1V
1U
1T
0S
1B
1Z
0O
0Z
1O
0X
0V
0T
1<
0<
#170000
0!
0@
0A
14
#175000
1!
1@
1A
04
1N!
1S
0B
1T
#180000
0!
0@
0A
14
#185000
1!
1@
1A
04
1M!
0N!
0U
0T
0S
1B
1V
1U
1T
0V
#190000
0!
0@
0A
14
#195000
1!
1@
1A
04
1N!
1S
0B
0U
0T
1V
#200000
0!
0@
0A
14
#205000
1!
1@
1A
04
1L!
0M!
0N!
0c
1W
0V
1U
1T
0S
1B
1X
0W
1V
0T
0X
#210000
0!
0@
0A
14
#215000
1!
1@
1A
04
1N!
1S
0B
1T
#220000
0!
0@
0A
14
#225000
1!
1@
1A
04
1M!
0N!
1c
0U
0T
0S
1B
1W
0V
1U
1T
1X
0W
1V
0X
#230000
0!
0@
0A
14
#235000
1!
1@
1A
04
1N!
1S
0B
0U
0T
1W
0V
1X
#240000
0!
0@
0A
14
#245000
1!
1@
1A
04
1K!
0L!
0M!
0N!
0Y
0X
0W
1V
1U
1T
0S
1B
1Z
0O
1Y
1X
0V
0T
1<
0Z
1O
0<
#250000
0!
0@
0A
14
#255000
1!
1@
1A
04
1N!
1S
0B
1T
#260000
0!
0@
0A
14
#265000
1!
1@
1A
04
1M!
0N!
0U
0T
0S
1B
1V
1U
1T
0V
#270000
0!
0@
0A
14
#275000
1!
1@
1A
04
1N!
1S
0B
0U
0T
1V
#280000
0!
0@
0A
14
#285000
1!
1@
1A
04
1L!
0M!
0N!
1W
0V
1U
1T
0S
1B
0Y
0X
0W
1V
0T
1Z
0O
1Y
1X
1<
0Z
1O
0<
#290000
0!
0@
0A
14
#295000
1!
1@
1A
04
1N!
1S
0B
1T
#300000
0!
0@
0A
14
#305000
1!
1@
1A
04
1M!
0N!
0U
0T
0S
1B
1W
0V
1U
1T
0Y
0X
0W
1V
1Z
0O
1Y
1X
1<
0Z
1O
0<
#310000
0!
0@
0A
14
#315000
1!
1@
1A
04
1N!
1S
0B
0U
0T
1W
0V
0Y
0X
1Z
0O
1<
#320000
0!
0@
0A
14
#325000
1!
1@
1A
04
0K!
0L!
0M!
0N!
0J!
1I!
1Y
1X
0W
1V
1U
1T
0S
1B
0Z
1O
0M
0[
0<
0O
0X
0V
0T
1[
1<
1L
0L
#330000
0!
0@
0A
14
#335000
1!
1@
1A
04
1N!
1S
0B
1T
#340000
0!
0@
0A
14
#345000
1!
1@
1A
04
1M!
0N!
0U
0T
0S
1B
1V
1U
1T
0V
#350000
0!
0@
0A
14
#355000
1!
1@
1A
04
1N!
1S
0B
0U
0T
1V
#360000
0!
0@
0A
14
#365000
1!
1@
1A
04
1L!
0M!
0N!
1W
0V
1U
1T
0S
1B
1X
0W
1V
0T
0X
#370000
0!
0@
0A
14
#375000
1!
1@
1A
04
1N!
1S
0B
1T
#380000
0!
0@
0A
14
#385000
1!
1@
1A
04
1M!
0N!
0U
0T
0S
1B
1W
0V
1U
1T
1X
0W
1V
0X
#390000
0!
0@
0A
14
#395000
1!
1@
1A
04
1N!
1S
0B
0U
0T
1W
0V
1X
#400000
0!
0@
0A
14
#405000
1!
1@
1A
04
1K!
0L!
0M!
0N!
0Y
0X
0W
1V
1U
1T
0S
1B
1O
1Y
1X
0V
0T
0O
#410000
0!
0@
0A
14
#415000
1!
1@
1A
04
1N!
1S
0B
1T
#420000
0!
0@
0A
14
#425000
1!
1@
1A
04
1M!
0N!
0U
0T
1P
0S
1B
1V
1U
1T
0V
#430000
0!
0@
0A
14
#435000
1!
1@
1A
04
1N!
1S
0B
0U
0T
1V
#440000
0!
0@
0A
14
#445000
1!
1@
1A
04
1L!
0M!
0N!
1W
0V
0P
1U
1T
0S
1B
0Y
0X
0W
1V
0T
1O
1Y
1X
0O
#450000
0!
0@
0A
14
#455000
1!
1@
1A
04
1N!
1S
0B
1T
#460000
0!
0@
0A
14
#465000
1!
1@
1A
04
1M!
0N!
0U
0T
0S
1B
1W
0V
1U
1T
0Y
0X
0W
1V
1O
1Y
1X
0O
#470000
0!
0@
0A
14
#475000
1!
1@
1A
04
1N!
1S
0B
0U
0T
1W
0V
0Y
0X
1O
#480000
0!
0@
0A
14
#485000
1!
1@
1A
04
0K!
0L!
0M!
0N!
1J!
1Y
1X
0W
1V
1U
1T
0S
1B
1Z
0O
0Z
1O
0X
0V
0T
0[
0<
1[
1<
1L
0L
#490000
0!
0@
0A
14
#495000
1!
1@
1A
04
1N!
1S
0B
1T
#500000
0!
0@
0A
14
#505000
1!
1@
1A
04
1M!
0N!
0U
0T
0S
1B
1V
1U
1T
0V
#510000
0!
0@
0A
14
#515000
1!
1@
1A
04
1N!
1S
0B
0U
0T
1V
#520000
0!
0@
0A
14
#525000
1!
1@
1A
04
1L!
0M!
0N!
0c
1W
0V
1U
1T
0S
1B
1X
0W
1V
0T
0X
#530000
0!
0@
0A
14
#535000
1!
1@
1A
04
1N!
1S
0B
1T
#540000
0!
0@
0A
14
#545000
1!
1@
1A
04
1M!
0N!
1c
0U
0T
0S
1B
1W
0V
1U
1T
1X
0W
1V
0X
#550000
0!
0@
0A
14
#555000
1!
1@
1A
04
1N!
1S
0B
0U
0T
1W
0V
1X
#560000
0!
0@
0A
14
#565000
1!
1@
1A
04
1K!
0L!
0M!
0N!
0Y
0X
0W
1V
1U
1T
0S
1B
1Z
0O
1Y
1X
0V
0T
0[
0<
0Z
1O
1L
1[
1<
0L
#570000
0!
0@
0A
14
#575000
1!
1@
1A
04
1N!
1S
0B
1T
#580000
0!
0@
0A
14
#585000
1!
1@
1A
04
1M!
0N!
0U
0T
0S
1B
1V
1U
1T
0V
#590000
0!
0@
0A
14
#595000
1!
1@
1A
04
1N!
1S
0B
0U
0T
1V
#600000
0!
0@
0A
14
#605000
1!
1@
1A
04
1L!
0M!
0N!
1W
0V
1U
1T
0S
1B
0Y
0X
0W
1V
0T
1Z
0O
1Y
1X
0[
0<
0Z
1O
1L
1[
1<
0L
#610000
0!
0@
0A
14
#615000
1!
1@
1A
04
1N!
1S
0B
1T
#620000
0!
0@
0A
14
#625000
1!
1@
1A
04
1M!
0N!
0U
0T
0S
1B
1W
0V
1U
1T
0Y
0X
0W
1V
1Z
0O
1Y
1X
0[
0<
0Z
1O
1L
1[
1<
0L
#630000
0!
0@
0A
14
#635000
1!
1@
1A
04
1N!
1S
0B
0U
0T
1W
0V
0Y
0X
1Z
0O
0[
0<
1L
#640000
0!
0@
0A
14
#645000
1!
1@
1A
04
0K!
0L!
0M!
0N!
0J!
1H!
0I!
1Y
1X
0W
1V
1U
1T
0S
1B
0Z
1O
1\
0L
1[
1<
0O
0X
0V
0T
0<
1]
0\
1L
0]
#650000
0!
0@
0A
14
#655000
1!
1@
1A
04
1N!
1S
0B
1T
#660000
0!
0@
0A
14
#665000
1!
1@
1A
04
1M!
0N!
0U
0T
0S
1B
1V
1U
1T
0V
#670000
0!
0@
0A
14
#675000
1!
1@
1A
04
1N!
1S
0B
0U
0T
1V
#680000
0!
0@
0A
14
#685000
1!
1@
1A
04
1L!
0M!
0N!
1W
0V
1U
1T
0S
1B
1X
0W
1V
0T
0X
#690000
0!
0@
0A
14
#695000
1!
1@
1A
04
1N!
1S
0B
1T
#700000
0!
0@
0A
14
#705000
1!
1@
1A
04
1M!
0N!
0U
0T
0S
1B
1W
0V
1U
1T
1X
0W
1V
0X
#710000
0!
0@
0A
14
#715000
1!
1@
1A
04
1N!
1S
0B
0U
0T
1W
0V
1X
#720000
0!
0@
0A
14
#725000
1!
1@
1A
04
1K!
0L!
0M!
0N!
0Y
0X
0W
1V
1U
1T
0S
1B
1O
1Y
1X
0V
0T
0O
#730000
0!
0@
0A
14
#735000
1!
1@
1A
04
1N!
1S
0B
1T
#740000
0!
0@
0A
14
#745000
1!
1@
1A
04
1M!
0N!
0U
0T
1P
0S
1B
1V
1U
1T
0V
#750000
0!
0@
0A
14
#755000
1!
1@
1A
04
1N!
1S
0B
0U
0T
1V
#760000
0!
0@
0A
14
#765000
1!
1@
1A
04
1L!
0M!
0N!
1W
0V
0P
1U
1T
0S
1B
0Y
0X
0W
1V
0T
1O
1Y
1X
0O
#770000
0!
0@
0A
14
#775000
1!
1@
1A
04
1N!
1S
0B
1T
#780000
0!
0@
0A
14
#785000
1!
1@
1A
04
1M!
0N!
0U
0T
0S
1B
1W
0V
1U
1T
0Y
0X
0W
1V
1O
1Y
1X
0O
#790000
0!
0@
0A
14
#795000
1!
1@
1A
04
1N!
1S
0B
0U
0T
1W
0V
0Y
0X
1O
#800000
0!
0@
0A
14
#805000
1!
1@
1A
04
0K!
0L!
0M!
0N!
1J!
1Y
1X
0W
1V
1U
1T
0S
1B
1Z
0O
0Z
1O
0X
0V
0T
1<
0<
#810000
0!
0@
0A
14
#815000
1!
1@
1A
04
1N!
1S
0B
1T
#820000
0!
0@
0A
14
#825000
1!
1@
1A
04
1M!
0N!
0U
0T
0S
1B
1V
1U
1T
0V
#830000
0!
0@
0A
14
#835000
1!
1@
1A
04
1N!
1S
0B
0U
0T
1V
#840000
0!
0@
0A
14
#845000
1!
1@
1A
04
1L!
0M!
0N!
0c
1W
0V
1U
1T
0S
1B
1X
0W
1V
0T
0X
#850000
0!
0@
0A
14
#855000
1!
1@
1A
04
1N!
1S
0B
1T
#860000
0!
0@
0A
14
#865000
1!
1@
1A
04
1M!
0N!
1c
0U
0T
0S
1B
1W
0V
1U
1T
1X
0W
1V
0X
#870000
0!
0@
0A
14
#875000
1!
1@
1A
04
1N!
1S
0B
0U
0T
1W
0V
1X
#880000
0!
0@
0A
14
#885000
1!
1@
1A
04
1K!
0L!
0M!
0N!
0Y
0X
0W
1V
1U
1T
0S
1B
1Z
0O
1Y
1X
0V
0T
1<
0Z
1O
0<
#890000
0!
0@
0A
14
#895000
1!
1@
1A
04
1N!
1S
0B
1T
#900000
0!
0@
0A
14
#905000
1!
1@
1A
04
1M!
0N!
0U
0T
0S
1B
1V
1U
1T
0V
#910000
0!
0@
0A
14
#915000
1!
1@
1A
04
1N!
1S
0B
0U
0T
1V
#920000
0!
0@
0A
14
#925000
1!
1@
1A
04
1L!
0M!
0N!
1W
0V
1U
1T
0S
1B
0Y
0X
0W
1V
0T
1Z
0O
1Y
1X
1<
0Z
1O
0<
#930000
0!
0@
0A
14
#935000
1!
1@
1A
04
1N!
1S
0B
1T
#940000
0!
0@
0A
14
#945000
1!
1@
1A
04
1M!
0N!
0U
0T
0S
1B
1W
0V
1U
1T
0Y
0X
0W
1V
1Z
0O
1Y
1X
1<
0Z
1O
0<
#950000
0!
0@
0A
14
#955000
1!
1@
1A
04
1N!
1S
0B
0U
0T
1W
0V
0Y
0X
1Z
0O
1<
#960000
0!
0@
0A
14
#965000
1!
1@
1A
04
0K!
0L!
0M!
0N!
0J!
1I!
1Y
1X
0W
1V
1U
1T
0S
1B
0Z
1O
0[
0<
0O
0X
0V
0T
1[
1<
1\
0L
0\
1L
1]
0]
#970000
0!
0@
0A
14
#975000
1!
1@
1A
04
1N!
1S
0B
1T
#980000
0!
0@
0A
14
#985000
1!
1@
1A
04
1M!
0N!
0U
0T
0S
1B
1V
1U
1T
0V
#990000
0!
0@
0A
14
#995000
1!
1@
1A
04
1N!
1S
0B
0U
0T
1V
#1000000
0!
0@
0A
14
#1005000
1!
1@
1A
04
1L!
0M!
0N!
1W
0V
1U
1T
0S
1B
1X
0W
1V
0T
0X
#1010000
0!
0@
0A
14
#1015000
1!
1@
1A
04
1N!
1S
0B
1T
#1020000
0!
0@
0A
14
#1025000
1!
1@
1A
04
1M!
0N!
0U
0T
0S
1B
1W
0V
1U
1T
1X
0W
1V
0X
#1030000
0!
0@
0A
14
#1035000
1!
1@
1A
04
1N!
1S
0B
0U
0T
1W
0V
1X
#1040000
0!
0@
0A
14
#1045000
1!
1@
1A
04
1K!
0L!
0M!
0N!
0Y
0X
0W
1V
1U
1T
0S
1B
1O
1Y
1X
0V
0T
0O
#1050000
0!
0@
0A
14
#1055000
1!
1@
1A
04
1N!
1S
0B
1T
#1060000
0!
0@
0A
14
#1065000
1!
1@
1A
04
1M!
0N!
0U
0T
1P
0S
1B
1V
1U
1T
0V
#1070000
0!
0@
0A
14
#1075000
1!
1@
1A
04
1N!
1S
0B
0U
0T
1V
#1080000
0!
0@
0A
14
#1085000
1!
1@
1A
04
1L!
0M!
0N!
1W
0V
0P
1U
1T
0S
1B
0Y
0X
0W
1V
0T
1O
1Y
1X
0O
#1090000
0!
0@
0A
14
#1095000
1!
1@
1A
04
1N!
1S
0B
1T
#1100000
0!
0@
0A
14
#1105000
1!
1@
1A
04
1M!
0N!
0U
0T
0S
1B
1W
0V
1U
1T
0Y
0X
0W
1V
1O
1Y
1X
0O
#1110000
0!
0@
0A
14
#1115000
1!
1@
1A
04
1N!
1S
0B
0U
0T
1W
0V
0Y
0X
1O
#1120000
0!
0@
0A
14
#1125000
1!
1@
1A
04
0K!
0L!
0M!
0N!
1J!
1Y
1X
0W
1V
1U
1T
0S
1B
1Z
0O
0Z
1O
0X
0V
0T
0[
0<
1[
1<
1\
0L
0\
1L
1]
0]
#1130000
0!
0@
0A
14
#1135000
1!
1@
1A
04
1N!
1S
0B
1T
#1140000
0!
0@
0A
14
#1145000
1!
1@
1A
04
1M!
0N!
0U
0T
0S
1B
1V
1U
1T
0V
#1150000
0!
0@
0A
14
#1155000
1!
1@
1A
04
1N!
1S
0B
0U
0T
1V
#1160000
0!
0@
0A
14
#1165000
1!
1@
1A
04
1L!
0M!
0N!
0c
1W
0V
1U
1T
0S
1B
1X
0W
1V
0T
0X
#1170000
0!
0@
0A
14
#1175000
1!
1@
1A
04
1N!
1S
0B
1T
#1180000
0!
0@
0A
14
#1185000
1!
1@
1A
04
1M!
0N!
1c
0U
0T
0S
1B
1W
0V
1U
1T
1X
0W
1V
0X
#1190000
0!
0@
0A
14
#1195000
1!
1@
1A
04
1N!
1S
0B
0U
0T
1W
0V
1X
#1200000
0!
0@
0A
14
#1205000
1!
1@
1A
04
1K!
0L!
0M!
0N!
0Y
0X
0W
1V
1U
1T
0S
1B
1Z
0O
1Y
1X
0V
0T
0[
0<
0Z
1O
1\
0L
1[
1<
1]
0\
1L
0]
#1210000
0!
0@
0A
14
#1215000
1!
1@
1A
04
1N!
1S
0B
1T
#1220000
0!
0@
0A
14
#1225000
1!
1@
1A
04
1M!
0N!
0U
0T
0S
1B
1V
1U
1T
0V
#1230000
0!
0@
0A
14
#1235000
1!
1@
1A
04
1N!
1S
0B
0U
0T
1V
#1240000
0!
0@
0A
14
#1245000
1!
1@
1A
04
1L!
0M!
0N!
1W
0V
1U
1T
0S
1B
0Y
0X
0W
1V
0T
1Z
0O
1Y
1X
0[
0<
0Z
1O
1\
0L
1[
1<
1]
0\
1L
0]
#1250000
0!
0@
0A
14
#1255000
1!
1@
1A
04
1N!
1S
0B
1T
#1260000
0!
0@
0A
14
#1265000
1!
1@
1A
04
1M!
0N!
0U
0T
0S
1B
1W
0V
1U
1T
0Y
0X
0W
1V
1Z
0O
1Y
1X
0[
0<
0Z
1O
1\
0L
1[
1<
1]
0\
1L
0]
#1270000
0!
0@
0A
14
#1275000
1!
1@
1A
04
1N!
1S
0B
0U
0T
1W
0V
0Y
0X
1Z
0O
0[
0<
1\
0L
1]
#1280000
1#
0!
1C
0@
0A
14
1u
0E
0?
#1285000
1!
1@
1A
04
1G!
0K!
0L!
0M!
0N!
0J!
0H!
0F
0>
0I!
0^
0]
1Y
1X
0W
1V
1U
1T
0S
1B
0Z
1O
1M
0\
1L
1i
0G
1[
1<
1_
0O
0X
0V
0T
0<
1^
1]
1g
1R
0L
0_
#1290000
0!
0@
0A
14
#1295000
1!
1@
1A
04
0G!
0]
#1300000
0!
0@
0A
14
#1305000
1!
1@
1A
04
#1310000
0!
0@
0A
14
#1315000
1!
1@
1A
04
#1320000
0!
0@
0A
14
#1325000
1!
1@
1A
04
#1330000
0!
0@
0A
14
#1335000
1!
1@
1A
04
#1340000
0!
0@
0A
14
#1345000
1!
1@
1A
04
#1350000
0!
0@
0A
14
#1355000
1!
1@
1A
04
#1360000
0!
0@
0A
14
#1365000
1!
1@
1A
04
#1370000
0!
0@
0A
14
#1375000
1!
1@
1A
04
#1380000
0!
0@
0A
14
#1385000
1!
1@
1A
04
#1390000
0!
0@
0A
14
#1395000
1!
1@
1A
04
#1400000
0!
0@
0A
14
#1405000
1!
1@
1A
04
#1410000
0!
0@
0A
14
#1415000
1!
1@
1A
04
#1420000
0!
0@
0A
14
#1425000
1!
1@
1A
04
#1430000
0!
0@
0A
14
#1435000
1!
1@
1A
04
#1440000
0!
0@
0A
14
#1445000
1!
1@
1A
04
#1450000
0!
0@
0A
14
#1455000
1!
1@
1A
04
#1460000
0!
0@
0A
14
#1465000
1!
1@
1A
04
#1470000
0!
0@
0A
14
#1475000
1!
1@
1A
04
#1480000
0!
0@
0A
14
#1485000
1!
1@
1A
04
#1490000
0!
0@
0A
14
#1495000
1!
1@
1A
04
#1500000
0!
0@
0A
14
#1505000
1!
1@
1A
04
#1510000
0!
0@
0A
14
#1515000
1!
1@
1A
04
#1520000
0!
0@
0A
14
#1525000
1!
1@
1A
04
#1530000
0!
0@
0A
14
#1535000
1!
1@
1A
04
#1540000
0!
0@
0A
14
#1545000
1!
1@
1A
04
#1550000
0!
0@
0A
14
#1555000
1!
1@
1A
04
#1560000
0!
0@
0A
14
#1565000
1!
1@
1A
04
#1570000
0!
0@
0A
14
#1575000
1!
1@
1A
04
#1580000
0!
0@
0A
14
#1585000
1!
1@
1A
04
#1590000
0!
0@
0A
14
#1595000
1!
1@
1A
04
#1600000
0!
0@
0A
14
#1605000
1!
1@
1A
04
#1610000
0!
0@
0A
14
#1615000
1!
1@
1A
04
#1620000
0!
0@
0A
14
#1625000
1!
1@
1A
04
#1630000
0!
0@
0A
14
#1635000
1!
1@
1A
04
#1640000
0!
0@
0A
14
#1645000
1!
1@
1A
04
#1650000
0!
0@
0A
14
#1655000
1!
1@
1A
04
#1660000
0!
0@
0A
14
#1665000
1!
1@
1A
04
#1670000
0!
0@
0A
14
#1675000
1!
1@
1A
04
#1680000
0!
0@
0A
14
#1685000
1!
1@
1A
04
#1690000
0!
0@
0A
14
#1695000
1!
1@
1A
04
#1700000
0!
0@
0A
14
#1705000
1!
1@
1A
04
#1710000
0!
0@
0A
14
#1715000
1!
1@
1A
04
#1720000
0!
0@
0A
14
#1725000
1!
1@
1A
04
#1730000
0!
0@
0A
14
#1735000
1!
1@
1A
04
#1740000
0!
0@
0A
14
#1745000
1!
1@
1A
04
#1750000
0!
0@
0A
14
#1755000
1!
1@
1A
04
#1760000
0!
0@
0A
14
#1765000
1!
1@
1A
04
#1770000
0!
0@
0A
14
#1775000
1!
1@
1A
04
#1780000
0!
0@
0A
14
#1785000
1!
1@
1A
04
#1790000
0!
0@
0A
14
#1795000
1!
1@
1A
04
#1800000
0!
0@
0A
14
#1805000
1!
1@
1A
04
#1810000
0!
0@
0A
14
#1815000
1!
1@
1A
04
#1820000
0!
0@
0A
14
#1825000
1!
1@
1A
04
#1830000
0!
0@
0A
14
#1835000
1!
1@
1A
04
#1840000
0!
0@
0A
14
#1845000
1!
1@
1A
04
#1850000
0!
0@
0A
14
#1855000
1!
1@
1A
04
#1860000
0!
0@
0A
14
#1865000
1!
1@
1A
04
#1870000
0!
0@
0A
14
#1875000
1!
1@
1A
04
#1880000
0!
0@
0A
14
#1885000
1!
1@
1A
04
#1890000
0!
0@
0A
14
#1895000
1!
1@
1A
04
#1900000
0!
0@
0A
14
#1905000
1!
1@
1A
04
#1910000
0!
0@
0A
14
#1915000
1!
1@
1A
04
#1920000
0!
0@
0A
14
#1925000
1!
1@
1A
04
#1930000
0!
0@
0A
14
#1935000
1!
1@
1A
04
#1940000
0!
0@
0A
14
#1945000
1!
1@
1A
04
#1950000
0!
0@
0A
14
#1955000
1!
1@
1A
04
#1960000
0!
0@
0A
14
#1965000
1!
1@
1A
04
#1970000
0!
0@
0A
14
#1975000
1!
1@
1A
04
#1980000
0!
0@
0A
14
#1985000
1!
1@
1A
04
#1990000
0!
0@
0A
14
