UART/TXD/simulation/qsim/transmitter.msim.vcd
$comment
	File created using the following command:
		vcd file transmitter.msim.vcd -direction
$end
$date
	Sun Nov 15 15:22:15 2015
$end
$version
	ModelSim Version 10.1d
$end
$timescale
	1ps
$end
$scope module transmitter_vlg_vec_tst $end
$var reg 1 ! Clk $end
$var reg 8 " Data [7:0] $end
$var reg 1 # Reset $end
$var reg 1 $ Send $end
$var wire 1 % TXD $end
$var wire 1 & sampler $end
$scope module i1 $end
$var wire 1 ' gnd $end
$var wire 1 ( vcc $end
$var wire 1 ) unknown $end
$var tri1 1 * devclrn $end
$var tri1 1 + devpor $end
$var tri1 1 , devoe $end
$var wire 1 - inst3|p_cnt[2]~11_combout $end
$var wire 1 . inst2|p_count[3]~19_combout $end
$var wire 1 / inst2|p_count[10]~34 $end
$var wire 1 0 inst2|p_count[11]~35_combout $end
$var wire 1 1 inst8|nshift[5]~5_combout $end
$var wire 1 2 inst8|nshift[6]~6_combout $end
$var wire 1 3 inst8|nshift[7]~7_combout $end
$var wire 1 4 inst8|nshift[8]~8_combout $end
$var wire 1 5 inst8|nshift[9]~9_combout $end
$var wire 1 6 inst5|WideXor0~0_combout $end
$var wire 1 7 inst5|WideXor0~1_combout $end
$var wire 1 8 inst8|nshift[10]~10_combout $end
$var wire 1 9 inst8|nshift[10]~11_combout $end
$var wire 1 : inst8|nshift[11]~12_combout $end
$var wire 1 ; inst8|nshift[11]~13_combout $end
$var wire 1 < Clk~combout $end
$var wire 1 = Clk~clkctrl_outclk $end
$var wire 1 > Reset~combout $end
$var wire 1 ? Send~combout $end
$var wire 1 @ inst|p_state~4_combout $end
$var wire 1 A inst|p_state.Q~regout $end
$var wire 1 B inst8|nshift[4]~4_combout $end
$var wire 1 C inst2|p_count[0]~13 $end
$var wire 1 D inst2|p_count[1]~15_combout $end
$var wire 1 E inst2|p_count[0]~12_combout $end
$var wire 1 F inst2|p_count[2]~17_combout $end
$var wire 1 G inst2|Equal0~0_combout $end
$var wire 1 H inst2|p_count[6]~26 $end
$var wire 1 I inst2|p_count[7]~27_combout $end
$var wire 1 J inst2|p_count[7]~28 $end
$var wire 1 K inst2|p_count[8]~29_combout $end
$var wire 1 L inst2|p_count[8]~30 $end
$var wire 1 M inst2|p_count[9]~31_combout $end
$var wire 1 N inst2|p_count[9]~32 $end
$var wire 1 O inst2|p_count[10]~33_combout $end
$var wire 1 P inst2|Equal0~2_combout $end
$var wire 1 Q inst|load_shift~0_combout $end
$var wire 1 R inst2|p_count[8]~14_combout $end
$var wire 1 S inst2|p_count[1]~16 $end
$var wire 1 T inst2|p_count[2]~18 $end
$var wire 1 U inst2|p_count[3]~20 $end
$var wire 1 V inst2|p_count[4]~21_combout $end
$var wire 1 W inst2|p_count[4]~22 $end
$var wire 1 X inst2|p_count[5]~23_combout $end
$var wire 1 Y inst2|p_count[5]~24 $end
$var wire 1 Z inst2|p_count[6]~25_combout $end
$var wire 1 [ inst2|Equal0~1_combout $end
$var wire 1 \ inst|shift~0_combout $end
$var wire 1 ] inst3|p_cnt[0]~8 $end
$var wire 1 ^ inst3|p_cnt[1]~10 $end
$var wire 1 _ inst3|p_cnt[2]~12 $end
$var wire 1 ` inst3|p_cnt[3]~14 $end
$var wire 1 a inst3|p_cnt[4]~15_combout $end
$var wire 1 b inst3|p_cnt[3]~13_combout $end
$var wire 1 c inst8|pshift[0]~5_combout $end
$var wire 1 d inst3|p_cnt[0]~7_combout $end
$var wire 1 e inst3|p_cnt[1]~9_combout $end
$var wire 1 f inst3|Equal0~0_combout $end
$var wire 1 g inst3|p_cnt[3]~17_combout $end
$var wire 1 h inst3|Equal0~1_combout $end
$var wire 1 i inst8|pshift[0]~4_combout $end
$var wire 1 j inst8|nshift[3]~3_combout $end
$var wire 1 k inst8|nshift[2]~2_combout $end
$var wire 1 l inst8|nshift[1]~1_combout $end
$var wire 1 m inst8|nshift[0]~0_combout $end
$var wire 1 n inst8|pshift [11] $end
$var wire 1 o inst8|pshift [10] $end
$var wire 1 p inst8|pshift [9] $end
$var wire 1 q inst8|pshift [8] $end
$var wire 1 r inst8|pshift [7] $end
$var wire 1 s inst8|pshift [6] $end
$var wire 1 t inst8|pshift [5] $end
$var wire 1 u inst8|pshift [4] $end
$var wire 1 v inst8|pshift [3] $end
$var wire 1 w inst8|pshift [2] $end
$var wire 1 x inst8|pshift [1] $end
$var wire 1 y inst8|pshift [0] $end
$var wire 1 z inst2|p_count [11] $end
$var wire 1 { inst2|p_count [10] $end
$var wire 1 | inst2|p_count [9] $end
$var wire 1 } inst2|p_count [8] $end
$var wire 1 ~ inst2|p_count [7] $end
$var wire 1 !! inst2|p_count [6] $end
$var wire 1 "! inst2|p_count [5] $end
$var wire 1 #! inst2|p_count [4] $end
$var wire 1 $! inst2|p_count [3] $end
$var wire 1 %! inst2|p_count [2] $end
$var wire 1 &! inst2|p_count [1] $end
$var wire 1 '! inst2|p_count [0] $end
$var wire 1 (! inst3|p_cnt [4] $end
$var wire 1 )! inst3|p_cnt [3] $end
$var wire 1 *! inst3|p_cnt [2] $end
$var wire 1 +! inst3|p_cnt [1] $end
$var wire 1 ,! inst3|p_cnt [0] $end
$var wire 1 -! Data~combout [7] $end
$var wire 1 .! Data~combout [6] $end
$var wire 1 /! Data~combout [5] $end
$var wire 1 0! Data~combout [4] $end
$var wire 1 1! Data~combout [3] $end
$var wire 1 2! Data~combout [2] $end
$var wire 1 3! Data~combout [1] $end
$var wire 1 4! Data~combout [0] $end
$upscope $end
$upscope $end
$enddefinitions $end
#0
$dumpvars
0!
b10111011 "
1#
1$
0%
x&
0'
1(
x)
1*
1+
1,
0-
0.
0/
00
01
02
03
04
05
16
17
08
09
0:
0;
0<
0=
1>
1?
0@
0A
0B
0C
0D
1E
0F
1G
0H
0I
1J
0K
0L
0M
1N
0O
1P
1Q
0R
1S
0T
1U
0V
0W
0X
1Y
0Z
1[
0\
0]
1^
0_
1`
0a
0b
0c
1d
0e
1f
0g
1h
1i
0j
0k
0l
0m
0y
0x
0w
0v
0u
0t
0s
0r
0q
0p
0o
0n
0'!
0&!
0%!
0$!
0#!
0"!
0!!
0~
0}
0|
0{
0z
0,!
0+!
0*!
0)!
0(!
14!
13!
02!
11!
10!
1/!
0.!
1-!
$end
#10000
1!
1<
1=
0&
1'!
1C
0E
1D
#20000
0!
0<
0=
1&
#30000
1!
1<
1=
0&
1&!
0'!
0S
0D
0C
1E
1F
1S
1D
0F
#40000
0!
0<
0=
1&
#50000
1!
1<
1=
0&
1'!
1C
0E
0S
0D
1F
#60000
0!
0<
0=
1&
#70000
1!
1<
1=
0&
0&!
1%!
0'!
1S
1D
1T
0F
0C
1E
0T
1F
1.
0D
0.
#80000
0!
0<
0=
1&
#90000
1!
1<
1=
0&
1'!
1C
0E
1D
#100000
0!
0<
0=
1&
#110000
1!
1<
1=
0&
1&!
0'!
0G
0S
0D
0C
1E
1T
0F
1S
1D
1.
0T
1F
0.
#120000
0!
0<
0=
1&
#130000
1!
1<
1=
0&
1'!
1G
1C
0E
0S
0D
1T
0F
1.
#140000
0!
0<
0=
1&
#150000
1!
1<
1=
0&
0&!
0%!
0'!
1$!
1S
1D
0T
1F
0C
1E
0U
0.
0F
1U
1.
0D
1V
0V
#160000
0!
0<
0=
1&
#170000
1!
1<
1=
0&
1'!
1C
0E
1D
#180000
0!
0<
0=
1&
#190000
1!
1<
1=
0&
1&!
0'!
0S
0D
0C
1E
1F
1S
1D
0F
#200000
0!
0<
0=
1&
#210000
1!
1<
1=
0&
1'!
1C
0E
0S
0D
1F
#220000
0!
0<
0=
1&
#230000
1!
1<
1=
0&
0&!
1%!
0'!
1S
1D
1T
0F
0C
1E
0T
1F
0U
0.
0D
1U
1.
1V
0V
#240000
0!
0<
0=
1&
#250000
1!
1<
1=
0&
1'!
1C
0E
1D
#260000
0!
0<
0=
1&
#270000
1!
1<
1=
0&
1&!
0'!
0S
0D
0C
1E
1T
0F
1S
1D
0U
0.
0T
1F
1V
1U
1.
0V
#280000
0!
0<
0=
1&
#290000
1!
1<
1=
0&
1'!
1C
0E
0S
0D
1T
0F
0U
0.
1V
#300000
0!
0<
0=
1&
#310000
1!
1<
1=
0&
1#!
0&!
0%!
0'!
0$!
0[
1W
0V
1S
1D
0T
1F
0C
1E
1U
1.
1X
0F
0.
0D
0W
1V
0X
#320000
0!
0<
0=
1&
#330000
1!
1<
1=
0&
1'!
1C
0E
1D
#340000
0!
0<
0=
1&
#350000
1!
1<
1=
0&
1&!
0'!
0S
0D
0C
1E
1F
1S
1D
0F
#360000
0!
0<
0=
1&
#370000
1!
1<
1=
0&
1'!
1C
0E
0S
0D
1F
#380000
0!
0<
0=
1&
#390000
1!
1<
1=
0&
0&!
1%!
0'!
1S
1D
1T
0F
0C
1E
0T
1F
1.
0D
0.
#400000
0!
0<
0=
1&
#410000
1!
1<
1=
0&
1'!
1C
0E
1D
#420000
0!
0<
0=
1&
#430000
1!
1<
1=
0&
1&!
0'!
0G
0S
0D
0C
1E
1T
0F
1S
1D
1.
0T
1F
0.
#440000
0!
0<
0=
1&
#450000
1!
1<
1=
0&
1'!
1G
1C
0E
0S
0D
1T
0F
1.
#460000
0!
0<
0=
1&
#470000
1!
1<
1=
0&
0&!
0%!
0'!
1$!
1S
1D
0T
1F
0C
1E
0U
0.
0F
1U
1.
0D
1W
0V
0W
1V
1X
0X
#480000
0!
0<
0=
1&
#490000
1!
1<
1=
0&
1'!
1C
0E
1D
#500000
0!
0<
0=
1&
#510000
1!
1<
1=
0&
1&!
0'!
0S
0D
0C
1E
1F
1S
1D
0F
#520000
0!
0<
0=
1&
#530000
1!
1<
1=
0&
1'!
1C
0E
0S
0D
1F
#540000
0!
0<
0=
1&
#550000
1!
1<
1=
0&
0&!
1%!
0'!
1S
1D
1T
0F
0C
1E
0T
1F
0U
0.
0D
1U
1.
1W
0V
0W
1V
1X
0X
#560000
0!
0<
0=
1&
#570000
1!
1<
1=
0&
1'!
1C
0E
1D
#580000
0!
0<
0=
1&
#590000
1!
1<
1=
0&
1&!
0'!
0S
0D
0C
1E
1T
0F
1S
1D
0U
0.
0T
1F
1W
0V
1U
1.
1X
0W
1V
0X
#600000
0!
0<
0=
1&
#610000
1!
1<
1=
0&
1'!
1C
0E
0S
0D
1T
0F
0U
0.
1W
0V
1X
#620000
0!
0<
0=
1&
#630000
1!
1<
1=
0&
1"!
0#!
0&!
0%!
0'!
0$!
1[
0Y
0X
0W
1V
1S
1D
0T
1F
0C
1E
1U
1.
1Z
1Y
1X
0F
0.
0D
0V
0Z
#640000
0!
0<
0=
1&
#650000
1!
1<
1=
0&
1'!
1C
0E
1D
#660000
0!
0<
0=
1&
#670000
1!
1<
1=
0&
1&!
0'!
0S
0D
0C
1E
1F
1S
1D
0F
#680000
0!
0<
0=
1&
#690000
1!
1<
1=
0&
1'!
1C
0E
0S
0D
1F
#700000
0!
0<
0=
1&
#710000
1!
1<
1=
0&
0&!
1%!
0'!
1S
1D
1T
0F
0C
1E
0T
1F
1.
0D
0.
#720000
0!
0<
0=
1&
#730000
1!
1<
1=
0&
1'!
1C
0E
1D
#740000
0!
0<
0=
1&
#750000
1!
1<
1=
0&
1&!
0'!
0G
0S
0D
0C
1E
1T
0F
1S
1D
1.
0T
1F
0.
#760000
0!
0<
0=
1&
#770000
1!
1<
1=
0&
1'!
1G
1C
0E
0S
0D
1T
0F
1.
#780000
0!
0<
0=
1&
#790000
1!
1<
1=
0&
0&!
0%!
0'!
1$!
1S
1D
0T
1F
0C
1E
0U
0.
0F
1U
1.
0D
1V
0V
#800000
0!
0<
0=
1&
#810000
1!
1<
1=
0&
1'!
1C
0E
1D
#820000
0!
0<
0=
1&
#830000
1!
1<
1=
0&
1&!
0'!
0S
0D
0C
1E
1F
1S
1D
0F
#840000
0!
0<
0=
1&
#850000
1!
1<
1=
0&
1'!
1C
0E
0S
0D
1F
#860000
0!
0<
0=
1&
#870000
1!
1<
1=
0&
0&!
1%!
0'!
1S
1D
1T
0F
0C
1E
0T
1F
0U
0.
0D
1U
1.
1V
0V
#880000
0!
0<
0=
1&
#890000
1!
1<
1=
0&
1'!
1C
0E
1D
#900000
0!
0<
0=
1&
#910000
1!
1<
1=
0&
1&!
0'!
0S
0D
0C
1E
1T
0F
1S
1D
0U
0.
0T
1F
1V
1U
1.
0V
#920000
0!
0<
0=
1&
#930000
1!
1<
1=
0&
1'!
1C
0E
0S
0D
1T
0F
0U
0.
1V
#940000
0!
0<
0=
1&
#950000
1!
1<
1=
0&
1#!
0&!
0%!
0'!
0$!
1W
0V
1S
1D
0T
1F
0C
1E
1U
1.
0Y
0X
0F
0.
0D
0W
1V
1Z
1Y
1X
0Z
#960000
0!
0<
0=
1&
#970000
1!
1<
1=
0&
1'!
1C
0E
1D
#980000
0!
0<
0=
1&
#990000
1!
1<
1=
0&
1&!
0'!
0S
0D
0C
1E
1F
1S
1D
0F
#1000000
0!
0<
0=
1&
#1010000
1!
1<
1=
0&
1'!
1C
0E
0S
0D
1F
#1020000
0!
0<
0=
1&
#1030000
1!
1<
1=
0&
0&!
1%!
0'!
1S
1D
1T
0F
0C
1E
0T
1F
1.
0D
0.
#1040000
0!
0<
0=
1&
#1050000
1!
1<
1=
0&
1'!
1C
0E
1D
#1060000
0!
0<
0=
1&
#1070000
1!
1<
1=
0&
1&!
0'!
0G
0S
0D
0C
1E
1T
0F
1S
1D
1.
0T
1F
0.
#1080000
0!
0<
0=
1&
#1090000
1!
1<
1=
0&
1'!
1G
1C
0E
0S
0D
1T
0F
1.
#1100000
0!
0<
0=
1&
#1110000
1!
1<
1=
0&
0&!
0%!
0'!
1$!
1S
1D
0T
1F
0C
1E
0U
0.
0F
1U
1.
0D
1W
0V
0W
1V
0Y
0X
1Y
1X
1Z
0Z
#1120000
0!
0<
0=
1&
#1130000
1!
1<
1=
0&
1'!
1C
0E
1D
#1140000
0!
0<
0=
1&
#1150000
1!
1<
1=
0&
1&!
0'!
0S
0D
0C
1E
1F
1S
1D
0F
#1160000
0!
0<
0=
1&
#1170000
1!
1<
1=
0&
1'!
1C
0E
0S
0D
1F
#1180000
0!
0<
0=
1&
#1190000
1!
1<
1=
0&
0&!
1%!
0'!
1S
1D
1T
0F
0C
1E
0T
1F
0U
0.
0D
1U
1.
1W
0V
0W
1V
0Y
0X
1Y
1X
1Z
0Z
#1200000
0!
0<
0=
1&
#1210000
1!
1<
1=
0&
1'!
1C
0E
1D
#1220000
0!
0<
0=
1&
#1230000
1!
1<
1=
0&
1&!
0'!
0S
0D
0C
1E
1T
0F
1S
1D
0U
0.
0T
1F
1W
0V
1U
1.
0Y
0X
0W
1V
1Z
1Y
1X
0Z
#1240000
0!
0<
0=
1&
#1250000
1!
1<
1=
0&
1'!
1C
0E
0S
0D
1T
0F
0U
0.
1W
0V
0Y
0X
1Z
#1260000
0!
0<
0=
1&
#1270000
1!
1<
1=
0&
1!!
0"!
0#!
0&!
0%!
0'!
0$!
1H
0Z
1Y
1X
0W
1V
1S
1D
0T
1F
0C
1E
1U
1.
1I
0H
1Z
0X
0F
0.
0D
0V
0I
#1280000
0!
0<
0=
1&
#1290000
1!
1<
1=
0&
1'!
1C
0E
1D
#1300000
0!
0<
0=
1&
#1310000
1!
1<
1=
0&
1&!
0'!
0S
0D
0C
1E
1F
1S
1D
0F
#1320000
0!
0<
0=
1&
#1330000
1!
1<
1=
0&
1'!
1C
0E
0S
0D
1F
#1340000
0!
0<
0=
1&
#1350000
1!
1<
1=
0&
0&!
1%!
0'!
1S
1D
1T
0F
0C
1E
0T
1F
1.
0D
0.
#1360000
0!
0<
0=
1&
#1370000
1!
1<
1=
0&
1'!
1C
0E
1D
#1380000
0!
0<
0=
1&
#1390000
1!
1<
1=
0&
1&!
0'!
0G
0S
0D
0C
1E
1T
0F
1S
1D
1.
0T
1F
0.
#1400000
0!
0<
0=
1&
#1410000
1!
1<
1=
0&
1'!
1G
1C
0E
0S
0D
1T
0F
1.
#1420000
0!
0<
0=
1&
#1430000
1!
1<
1=
0&
0&!
0%!
0'!
1$!
1S
1D
0T
1F
0C
1E
0U
0.
0F
1U
1.
0D
1V
0V
#1440000
0!
0<
0=
1&
#1450000
1!
1<
1=
0&
1'!
1C
0E
1D
#1460000
0!
0<
0=
1&
#1470000
1!
1<
1=
0&
1&!
0'!
0S
0D
0C
1E
1F
1S
1D
0F
#1480000
0!
0<
0=
1&
#1490000
1!
1<
1=
0&
1'!
1C
0E
0S
0D
1F
#1500000
0!
0<
0=
1&
#1510000
1!
1<
1=
0&
0&!
1%!
0'!
1S
1D
1T
0F
0C
1E
0T
1F
0U
0.
0D
1U
1.
1V
0V
#1520000
0!
0<
0=
1&
#1530000
1!
1<
1=
0&
1'!
1C
0E
1D
#1540000
0!
0<
0=
1&
#1550000
1!
1<
1=
0&
1&!
0'!
0S
0D
0C
1E
1T
0F
1S
1D
0U
0.
0T
1F
1V
1U
1.
0V
#1560000
0!
0<
0=
1&
#1570000
1!
1<
1=
0&
1'!
1C
0E
0S
0D
1T
0F
0U
0.
1V
#1580000
0!
0<
0=
1&
#1590000
1!
1<
1=
0&
1#!
0&!
0%!
0'!
0$!
1W
0V
1S
1D
0T
1F
0C
1E
1U
1.
1X
0F
0.
0D
0W
1V
0X
#1600000
0!
0<
0=
1&
#1610000
1!
1<
1=
0&
1'!
1C
0E
1D
#1620000
0!
0<
0=
1&
#1630000
1!
1<
1=
0&
1&!
0'!
0S
0D
0C
1E
1F
1S
1D
0F
#1640000
0!
0<
0=
1&
#1650000
1!
1<
1=
0&
1'!
1C
0E
0S
0D
1F
#1660000
0!
0<
0=
1&
#1670000
1!
1<
1=
0&
0&!
1%!
0'!
1S
1D
1T
0F
0C
1E
0T
1F
1.
0D
0.
#1680000
0!
0<
0=
1&
#1690000
1!
1<
1=
0&
1'!
1C
0E
1D
#1700000
0!
0<
0=
1&
#1710000
1!
1<
1=
0&
1&!
0'!
0G
0S
0D
0C
1E
1T
0F
1S
1D
1.
0T
1F
0.
#1720000
0!
0<
0=
1&
#1730000
1!
1<
1=
0&
1'!
1G
1C
0E
0S
0D
1T
0F
1.
#1740000
0!
0<
0=
1&
#1750000
1!
1<
1=
0&
0&!
0%!
0'!
1$!
1S
1D
0T
1F
0C
1E
0U
0.
0F
1U
1.
0D
1W
0V
0W
1V
1X
0X
#1760000
0!
0<
0=
1&
#1770000
1!
1<
1=
0&
1'!
1C
0E
1D
#1780000
0!
0<
0=
1&
#1790000
1!
1<
1=
0&
1&!
0'!
0S
0D
0C
1E
1F
1S
1D
0F
#1800000
0!
0<
0=
1&
#1810000
1!
1<
1=
0&
1'!
1C
0E
0S
0D
1F
#1820000
0!
0<
0=
1&
#1830000
1!
1<
1=
0&
0&!
1%!
0'!
1S
1D
1T
0F
0C
1E
0T
1F
0U
0.
0D
1U
1.
1W
0V
0W
1V
1X
0X
#1840000
0!
0<
0=
1&
#1850000
1!
1<
1=
0&
1'!
1C
0E
1D
#1860000
0!
0<
0=
1&
#1870000
1!
1<
1=
0&
1&!
0'!
0S
0D
0C
1E
1T
0F
1S
1D
0U
0.
0T
1F
1W
0V
1U
1.
1X
0W
1V
0X
#1880000
0!
0<
0=
1&
#1890000
1!
1<
1=
0&
1'!
1C
0E
0S
0D
1T
0F
0U
0.
1W
0V
1X
#1900000
0!
0<
0=
1&
#1910000
1!
1<
1=
0&
1"!
0#!
0&!
0%!
0'!
0$!
0Y
0X
0W
1V
1S
1D
0T
1F
0C
1E
1U
1.
1H
0Z
1Y
1X
0F
0.
0D
0V
1I
0H
1Z
0I
#1920000
0!
0<
0=
1&
#1930000
1!
1<
1=
0&
1'!
1C
0E
1D
#1940000
0!
0<
0=
1&
#1950000
1!
1<
1=
0&
1&!
0'!
0S
0D
0C
1E
1F
1S
1D
0F
#1960000
0!
0<
0=
1&
#1970000
1!
1<
1=
0&
1'!
1C
0E
0S
0D
1F
#1980000
0!
0<
0=
1&
#1990000
1!
1<
1=
0&
0&!
1%!
0'!
1S
1D
1T
0F
0C
1E
0T
1F
1.
0D
0.
#2000000
0!
0<
0=
1&
#2010000
1!
1<
1=
0&
1'!
1C
0E
1D
#2020000
0!
0<
0=
1&
#2030000
1!
1<
1=
0&
1&!
0'!
0G
0S
0D
0C
1E
1T
0F
1S
1D
1.
0T
1F
0.
#2040000
0!
0<
0=
1&
#2050000
1!
1<
1=
0&
1'!
1G
1C
0E
0S
0D
1T
0F
1.
#2060000
0!
0<
0=
1&
#2070000
1!
1<
1=
0&
0&!
0%!
0'!
1$!
1S
1D
0T
1F
0C
1E
0U
0.
0F
1U
1.
0D
1V
0V
#2080000
0!
0<
0=
1&
#2090000
1!
1<
1=
0&
1'!
1C
0E
1D
#2100000
0!
0<
0=
1&
#2110000
1!
1<
1=
0&
1&!
0'!
0S
0D
0C
1E
1F
1S
1D
0F
#2120000
0!
0<
0=
1&
#2130000
1!
1<
1=
0&
1'!
1C
0E
0S
0D
1F
#2140000
0!
0<
0=
1&
#2150000
1!
1<
1=
0&
0&!
1%!
0'!
1S
1D
1T
0F
0C
1E
0T
1F
0U
0.
0D
1U
1.
1V
0V
#2160000
0!
0<
0=
1&
#2170000
1!
1<
1=
0&
1'!
1C
0E
1D
#2180000
0!
0<
0=
1&
#2190000
1!
1<
1=
0&
1&!
0'!
0S
0D
0C
1E
1T
0F
1S
1D
0U
0.
0T
1F
1V
1U
1.
0V
#2200000
0!
0<
0=
1&
#2210000
1!
1<
1=
0&
1'!
1C
0E
0S
0D
1T
0F
0U
0.
1V
#2220000
0!
0<
0=
1&
#2230000
1!
1<
1=
0&
1#!
0&!
0%!
0'!
0$!
1W
0V
1S
1D
0T
1F
0C
1E
1U
1.
0Y
0X
0F
0.
0D
0W
1V
1H
0Z
1Y
1X
1I
0H
1Z
0I
#2240000
0!
0<
0=
1&
#2250000
1!
1<
1=
0&
1'!
1C
0E
1D
#2260000
0!
0<
0=
1&
#2270000
1!
1<
1=
0&
1&!
0'!
0S
0D
0C
1E
1F
1S
1D
0F
#2280000
0!
0<
0=
1&
#2290000
1!
1<
1=
0&
1'!
1C
0E
0S
0D
1F
#2300000
0!
0<
0=
1&
#2310000
1!
1<
1=
0&
0&!
1%!
0'!
1S
1D
1T
0F
0C
1E
0T
1F
1.
0D
0.
#2320000
0!
0<
0=
1&
#2330000
1!
1<
1=
0&
1'!
1C
0E
1D
#2340000
0!
0<
0=
1&
#2350000
1!
1<
1=
0&
1&!
0'!
0G
0S
0D
0C
1E
1T
0F
1S
1D
1.
0T
1F
0.
#2360000
0!
0<
0=
1&
#2370000
1!
1<
1=
0&
1'!
1G
1C
0E
0S
0D
1T
0F
1.
#2380000
0!
0<
0=
1&
#2390000
1!
1<
1=
0&
0&!
0%!
0'!
1$!
1S
1D
0T
1F
0C
1E
0U
0.
0F
1U
1.
0D
1W
0V
0W
1V
0Y
0X
1Y
1X
1H
0Z
0H
1Z
1I
0I
#2400000
0!
0<
0=
1&
#2410000
1!
1<
1=
0&
1'!
1C
0E
1D
#2420000
0!
0<
0=
1&
#2430000
1!
1<
1=
0&
1&!
0'!
0S
0D
0C
1E
1F
1S
1D
0F
#2440000
0!
0<
0=
1&
#2450000
1!
1<
1=
0&
1'!
1C
0E
0S
0D
1F
#2460000
0!
0<
0=
1&
#2470000
1!
1<
1=
0&
0&!
1%!
0'!
1S
1D
1T
0F
0C
1E
0T
1F
0U
0.
0D
1U
1.
1W
0V
0W
1V
0Y
0X
1Y
1X
1H
0Z
0H
1Z
1I
0I
#2480000
0!
0<
0=
1&
#2490000
1!
1<
1=
0&
1'!
1C
0E
1D
#2500000
0!
0<
0=
1&
#2510000
1!
1<
1=
0&
1&!
0'!
0S
0D
0C
1E
1T
0F
1S
1D
0U
0.
0T
1F
1W
0V
1U
1.
0Y
0X
0W
1V
1H
0Z
1Y
1X
1I
0H
1Z
0I
#2520000
0!
0<
0=
1&
#2530000
1!
1<
1=
0&
1'!
1C
0E
0S
0D
1T
0F
0U
0.
1W
0V
0Y
0X
1H
0Z
1I
#2540000
0!
0<
0=
1&
#2550000
1!
1<
1=
0&
0!!
0"!
0#!
0&!
1~
0%!
0'!
0$!
0H
1Z
1Y
1X
0W
1V
1S
1D
0J
0I
0T
1F
0C
1E
1U
1.
1J
1I
0Z
0X
0F
1K
0.
0D
0V
0K
#2560000
0#
0!
0>
0<
0=
1&
0i
#2570000
1!
1<
1=
0&
1'!
1C
0E
1D
#2580000
0!
0<
0=
1&
#2590000
1!
1<
1=
0&
1&!
0'!
0S
0D
0C
1E
1F
1S
1D
0F
#2600000
0!
0<
0=
1&
#2610000
1!
1<
1=
0&
1'!
1C
0E
0S
0D
1F
#2620000
0!
0<
0=
1&
#2630000
1!
1<
1=
0&
0&!
1%!
0'!
1S
1D
1T
0F
0C
1E
0T
1F
1.
0D
0.
#2640000
0!
0<
0=
1&
#2650000
1!
1<
1=
0&
1'!
1C
0E
1D
#2660000
0!
0<
0=
1&
#2670000
1!
1<
1=
0&
1&!
0'!
0G
0S
0D
0C
1E
1T
0F
1S
1D
1.
0T
1F
0.
#2680000
0!
0<
0=
1&
#2690000
1!
1<
1=
0&
1'!
1G
1C
0E
0S
0D
1T
0F
1.
#2700000
0!
0<
0=
1&
#2710000
1!
1<
1=
0&
0&!
0%!
0'!
1$!
1S
1D
0T
1F
0C
1E
0U
0.
0F
1U
1.
0D
1V
0V
#2720000
0!
0<
0=
1&
#2730000
1!
1<
1=
0&
1'!
1C
0E
1D
#2740000
0!
0<
0=
1&
#2750000
1!
1<
1=
0&
1&!
0'!
0S
0D
0C
1E
1F
1S
1D
0F
#2760000
0!
0<
0=
1&
#2770000
1!
1<
1=
0&
1'!
1C
0E
0S
0D
1F
#2780000
0!
0<
0=
1&
#2790000
1!
1<
1=
0&
0&!
1%!
0'!
1S
1D
1T
0F
0C
1E
0T
1F
0U
0.
0D
1U
1.
1V
0V
#2800000
0!
0<
0=
1&
#2810000
1!
1<
1=
0&
1'!
1C
0E
1D
#2820000
0!
0<
0=
1&
#2830000
1!
1<
1=
0&
1&!
0'!
0S
0D
0C
1E
1T
0F
1S
1D
0U
0.
0T
1F
1V
1U
1.
0V
#2840000
0!
0<
0=
1&
#2850000
1!
1<
1=
0&
1'!
1C
0E
0S
0D
1T
0F
0U
0.
1V
#2860000
0!
0<
0=
1&
#2870000
1!
1<
1=
0&
1#!
0&!
0%!
0'!
0$!
1W
0V
1S
1D
0T
1F
0C
1E
1U
1.
1X
0F
0.
0D
0W
1V
0X
#2880000
0!
0<
0=
1&
#2890000
1!
1<
1=
0&
1'!
1C
0E
1D
#2900000
0!
0<
0=
1&
#2910000
1!
1<
1=
0&
1&!
0'!
0S
0D
0C
1E
1F
1S
1D
0F
#2920000
0!
0<
0=
1&
#2930000
1!
1<
1=
0&
1'!
1C
0E
0S
0D
1F
#2940000
0!
0<
0=
1&
#2950000
1!
1<
1=
0&
0&!
1%!
0'!
1S
1D
1T
0F
0C
1E
0T
1F
1.
0D
0.
#2960000
0!
0<
0=
1&
#2970000
1!
1<
1=
0&
1'!
1C
0E
1D
#2980000
0!
0<
0=
1&
#2990000
1!
1<
1=
0&
1&!
0'!
0G
0S
0D
0C
1E
1T
0F
1S
1D
1.
0T
1F
0.
#3000000
0!
0<
0=
1&
#3010000
1!
1<
1=
0&
1'!
1G
1C
0E
0S
0D
1T
0F
1.
#3020000
0!
0<
0=
1&
#3030000
1!
1<
1=
0&
0&!
0%!
0'!
1$!
1S
1D
0T
1F
0C
1E
0U
0.
0F
1U
1.
0D
1W
0V
0W
1V
1X
0X
#3040000
0!
0<
0=
1&
#3050000
1!
1<
1=
0&
1'!
1C
0E
1D
#3060000
0!
0<
0=
1&
#3070000
1!
1<
1=
0&
1&!
0'!
0S
0D
0C
1E
1F
1S
1D
0F
#3080000
0!
0<
0=
1&
#3090000
1!
1<
1=
0&
1'!
1C
0E
0S
0D
1F
#3100000
0!
0<
0=
1&
#3110000
1!
1<
1=
0&
0&!
1%!
0'!
1S
1D
1T
0F
0C
1E
0T
1F
0U
0.
0D
1U
1.
1W
0V
0W
1V
1X
0X
#3120000
0!
0<
0=
1&
#3130000
1!
1<
1=
0&
1'!
1C
0E
1D
#3140000
0!
0<
0=
1&
#3150000
1!
1<
1=
0&
1&!
0'!
0S
0D
0C
1E
1T
0F
1S
1D
0U
0.
0T
1F
1W
0V
1U
1.
1X
0W
1V
0X
#3160000
0!
0<
0=
1&
#3170000
1!
1<
1=
0&
1'!
1C
0E
0S
0D
1T
0F
0U
0.
1W
0V
1X
#3180000
0!
0<
0=
1&
#3190000
1!
1<
1=
0&
1"!
0#!
0&!
0%!
0'!
0$!
0Y
0X
0W
1V
1S
1D
0T
1F
0C
1E
1U
1.
1Z
1Y
1X
0F
0.
0D
0V
0Z
#3200000
0!
0<
0=
1&
#3210000
1!
1<
1=
0&
1'!
1C
0E
1D
#3220000
0!
0<
0=
1&
#3230000
1!
1<
1=
0&
1&!
0'!
0S
0D
0C
1E
1F
1S
1D
0F
#3240000
0!
0<
0=
1&
#3250000
1!
1<
1=
0&
1'!
1C
0E
0S
0D
1F
#3260000
0!
0<
0=
1&
#3270000
1!
1<
1=
0&
0&!
1%!
0'!
1S
1D
1T
0F
0C
1E
0T
1F
1.
0D
0.
#3280000
0!
0<
0=
1&
#3290000
1!
1<
1=
0&
1'!
1C
0E
1D
#3300000
0!
0<
0=
1&
#3310000
1!
1<
1=
0&
1&!
0'!
0G
0S
0D
0C
1E
1T
0F
1S
1D
1.
0T
1F
0.
#3320000
0!
0<
0=
1&
#3330000
1!
1<
1=
0&
1'!
1G
1C
0E
0S
0D
1T
0F
1.
#3340000
0!
0<
0=
1&
