IRDA/RXD _V2/rxd_controller/simulation/qsim/rxd_controller.msim.vcd
$comment
	File created using the following command:
		vcd file rxd_controller.msim.vcd -direction
$end
$date
	Fri Nov 13 11:53:02 2015
$end
$version
	ModelSim Version 10.1d
$end
$timescale
	1ps
$end
$scope module rxd_controller_vlg_vec_tst $end
$var reg 1 ! bit_done $end
$var reg 1 " clk $end
$var reg 1 # data_in $end
$var reg 1 $ done_pulse $end
$var reg 1 % half_pulse $end
$var reg 1 & reset $end
$var wire 1 ' clear_bit $end
$var wire 1 ( load_shift $end
$var wire 1 ) parity_check $end
$var wire 1 * reset_baud $end
$var wire 1 + rxd_count $end
$var wire 1 , rxd_shift $end
$var wire 1 - sampler $end
$scope module i1 $end
$var wire 1 . gnd $end
$var wire 1 / vcc $end
$var wire 1 0 unknown $end
$var tri1 1 1 devclrn $end
$var tri1 1 2 devpor $end
$var tri1 1 3 devoe $end
$var wire 1 4 p_state~9_combout $end
$var wire 1 5 clk~combout $end
$var wire 1 6 clk~clkctrl_outclk $end
$var wire 1 7 bit_done~combout $end
$var wire 1 8 reset~combout $end
$var wire 1 9 data_in~combout $end
$var wire 1 : load_shift~0_combout $end
$var wire 1 ; p_state~13_combout $end
$var wire 1 < p_state.S~regout $end
$var wire 1 = p_state~12_combout $end
$var wire 1 > p_state.P~regout $end
$var wire 1 ? Selector0~1_combout $end
$var wire 1 @ p_state~11_combout $end
$var wire 1 A p_state.Q~regout $end
$var wire 1 B p_state~8_combout $end
$var wire 1 C p_state~10_combout $end
$var wire 1 D p_state.R~regout $end
$var wire 1 E done_pulse~combout $end
$var wire 1 F rxd_shift~0_combout $end
$var wire 1 G half_pulse~combout $end
$var wire 1 H Selector0~0_combout $end
$upscope $end
$upscope $end
$enddefinitions $end
#0
$dumpvars
0!
0"
0#
0$
0%
0&
1'
0(
0)
1*
0+
0,
x-
0.
1/
x0
11
12
13
04
05
06
07
08
09
1:
0;
0<
1=
0>
0?
1@
0A
0B
0C
0D
0E
1F
0G
1H
$end
#10000
1"
15
16
0-
1A
1>
0H
1?
0*
0'
#20000
1&
0"
18
05
06
1-
0@
0=
#30000
1"
15
16
0-
0A
0>
1H
0?
1*
1'
#40000
0"
05
06
1-
#50000
1"
15
16
0-
#60000
0&
0"
08
05
06
1-
1@
1=
#70000
1%
1"
1G
15
16
0-
1A
1>
1B
1?
1C
0@
0'
#80000
0%
0"
0G
05
06
1-
0H
0B
1@
0C
0*
#90000
1"
15
16
0-
#100000
1#
0"
19
05
06
1-
#110000
1$
1"
1E
15
16
0-
#120000
0$
0"
0E
05
06
1-
#130000
1"
15
16
0-
#140000
0#
0"
09
05
06
1-
#150000
1$
1"
1E
15
16
0-
#160000
0$
0"
0E
05
06
1-
#170000
1"
15
16
0-
#180000
0"
05
06
1-
#190000
1"
15
16
0-
#200000
1#
0"
19
05
06
1-
#210000
1$
1"
1E
15
16
0-
#220000
0$
0"
0E
05
06
1-
#230000
1"
15
16
0-
#240000
0"
05
06
1-
#250000
1"
15
16
0-
#260000
0#
0"
09
05
06
1-
#270000
1"
15
16
0-
#280000
1$
0"
1E
05
06
1-
#290000
0$
1"
0E
15
16
0-
#300000
0"
05
06
1-
#310000
1"
15
16
0-
#320000
1#
0"
19
05
06
1-
#330000
1"
15
16
0-
#340000
1!
1$
0"
17
1E
05
06
1-
14
#350000
0!
0$
1"
07
0E
15
16
0-
04
#360000
0"
05
06
1-
#370000
1"
15
16
0-
#380000
0"
05
06
1-
#390000
1$
1"
1E
15
16
0-
#400000
0$
0"
0E
05
06
1-
#410000
1"
15
16
0-
#420000
0"
05
06
1-
#430000
1"
15
16
0-
#440000
0"
05
06
1-
#450000
1"
15
16
0-
#460000
0#
0"
09
05
06
1-
#470000
1"
15
16
0-
#480000
0"
05
06
1-
#490000
1"
15
16
0-
#500000
0"
05
06
1-
#510000
1"
15
16
0-
#520000
0"
05
06
1-
#530000
1"
15
16
0-
#540000
0"
05
06
1-
#550000
1"
15
16
0-
#560000
0"
05
06
1-
#570000
1"
15
16
0-
#580000
1#
0"
19
05
06
1-
#590000
1"
15
16
0-
#600000
0"
05
06
1-
#610000
1"
15
16
0-
#620000
0#
0"
09
05
06
1-
#630000
1"
15
16
0-
#640000
0"
05
06
1-
#650000
1"
15
16
0-
#660000
0"
05
06
1-
#670000
1"
15
16
0-
#680000
0"
05
06
1-
#690000
1"
15
16
0-
#700000
0"
05
06
1-
#710000
1"
15
16
0-
#720000
0"
05
06
1-
#730000
1"
15
16
0-
#740000
0"
05
06
1-
#750000
1"
15
16
0-
#760000
0"
05
06
1-
#770000
1"
15
16
0-
#780000
0"
05
06
1-
#790000
1"
15
16
0-
#800000
0"
05
06
1-
#810000
1"
15
16
0-
#820000
0"
05
06
1-
#830000
1"
15
16
0-
#840000
0"
05
06
1-
#850000
1"
15
16
0-
#860000
0"
05
06
1-
#870000
1"
15
16
0-
#880000
0"
05
06
1-
#890000
1"
15
16
0-
#900000
0"
05
06
1-
#910000
1"
15
16
0-
#920000
0"
05
06
1-
#930000
1"
15
16
0-
#940000
0"
05
06
1-
#950000
1"
15
16
0-
#960000
0"
05
06
1-
#970000
1"
15
16
0-
#980000
0"
05
06
1-
#990000
1"
15
16
0-
