UART/RXD /baud_done/simulation/qsim/baud_done.msim.vcd
$comment
	File created using the following command:
		vcd file baud_done.msim.vcd -direction
$end
$date
	Sat Nov 21 11:00:39 2015
$end
$version
	ModelSim Version 10.1d
$end
$timescale
	1ps
$end
$scope module baud_done_vlg_vec_tst $end
$var reg 1 ! clk $end
$var reg 1 " reset $end
$var wire 1 # done_pulse $end
$var wire 1 $ half_pulse $end
$var wire 1 % sampler $end
$scope module i1 $end
$var wire 1 & gnd $end
$var wire 1 ' vcc $end
$var wire 1 ( unknown $end
$var tri1 1 ) devclrn $end
$var tri1 1 * devpor $end
$var tri1 1 + devoe $end
$var wire 1 , p_count[6]~25_combout $end
$var wire 1 - clk~combout $end
$var wire 1 . reset~combout $end
$var wire 1 / clk~clkctrl_outclk $end
$var wire 1 0 p_count[0]~12_combout $end
$var wire 1 1 p_count[5]~24 $end
$var wire 1 2 p_count[6]~26 $end
$var wire 1 3 p_count[7]~27_combout $end
$var wire 1 4 p_count[7]~28 $end
$var wire 1 5 p_count[8]~29_combout $end
$var wire 1 6 p_count[8]~30 $end
$var wire 1 7 p_count[9]~31_combout $end
$var wire 1 8 p_count[9]~32 $end
$var wire 1 9 p_count[10]~34 $end
$var wire 1 : p_count[11]~35_combout $end
$var wire 1 ; Equal1~0_combout $end
$var wire 1 < p_count[1]~15_combout $end
$var wire 1 = p_count[4]~21_combout $end
$var wire 1 > Equal1~1_combout $end
$var wire 1 ? p_count[10]~33_combout $end
$var wire 1 @ Equal1~2_combout $end
$var wire 1 A p_count[11]~14_combout $end
$var wire 1 B p_count[0]~13 $end
$var wire 1 C p_count[1]~16 $end
$var wire 1 D p_count[2]~17_combout $end
$var wire 1 E p_count[2]~18 $end
$var wire 1 F p_count[3]~20 $end
$var wire 1 G p_count[4]~22 $end
$var wire 1 H p_count[5]~23_combout $end
$var wire 1 I Equal0~0_combout $end
$var wire 1 J Equal0~2_combout $end
$var wire 1 K p_count[3]~19_combout $end
$var wire 1 L Equal0~1_combout $end
$var wire 1 M Equal0~3_combout $end
$var wire 1 N Equal1~3_combout $end
$var wire 1 O p_count [11] $end
$var wire 1 P p_count [10] $end
$var wire 1 Q p_count [9] $end
$var wire 1 R p_count [8] $end
$var wire 1 S p_count [7] $end
$var wire 1 T p_count [6] $end
$var wire 1 U p_count [5] $end
$var wire 1 V p_count [4] $end
$var wire 1 W p_count [3] $end
$var wire 1 X p_count [2] $end
$var wire 1 Y p_count [1] $end
$var wire 1 Z p_count [0] $end
$upscope $end
$upscope $end
$enddefinitions $end
#0
$dumpvars
0!
1"
0#
0$
x%
0&
1'
x(
1)
1*
1+
0,
0-
1.
0/
10
11
02
03
14
05
06
07
18
09
0:
1;
0<
0=
1>
0?
1@
1A
0B
1C
0D
0E
1F
0G
0H
1I
0J
0K
0L
0M
1N
0Z
0Y
0X
0W
0V
0U
0T
0S
0R
0Q
0P
0O
$end
#1000
1!
1-
1/
0%
#2000
0!
0-
0/
1%
#3000
1!
1-
1/
0%
#4000
0!
0-
0/
1%
#5000
1!
1-
1/
0%
#6000
0!
0-
0/
1%
#7000
1!
1-
1/
0%
#8000
0!
0-
0/
1%
#9000
1!
1-
1/
0%
#10000
0!
0-
0/
1%
#11000
1!
1-
1/
0%
#12000
0!
0-
0/
1%
#13000
1!
1-
1/
0%
#14000
0!
0-
0/
1%
#15000
1!
1-
1/
0%
#16000
0!
0-
0/
1%
#17000
1!
1-
1/
0%
#18000
0!
0-
0/
1%
#19000
1!
1-
1/
0%
#20000
0!
0-
0/
1%
#21000
1!
1-
1/
0%
#22000
0!
0-
0/
1%
#23000
1!
1-
1/
0%
#24000
0!
0-
0/
1%
#25000
1!
1-
1/
0%
#26000
0!
0-
0/
1%
#27000
1!
1-
1/
0%
#28000
0!
0-
0/
1%
#29000
1!
1-
1/
0%
#30000
0!
0-
0/
1%
#31000
1!
1-
1/
0%
#32000
0!
0-
0/
1%
#33000
1!
1-
1/
0%
#34000
0!
0-
0/
1%
#35000
1!
1-
1/
0%
#36000
0!
0-
0/
1%
#37000
1!
1-
1/
0%
#38000
0!
0-
0/
1%
#39000
1!
1-
1/
0%
#40000
0!
0-
0/
1%
#41000
1!
1-
1/
0%
#42000
0!
0-
0/
1%
#43000
1!
1-
1/
0%
#44000
0!
0-
0/
1%
#45000
1!
1-
1/
0%
#46000
0!
0-
0/
1%
#47000
1!
1-
1/
0%
#48000
0!
0-
0/
1%
#49000
1!
1-
1/
0%
#50000
0!
0-
0/
1%
#51000
1!
1-
1/
0%
#52000
0!
0-
0/
1%
#53000
1!
1-
1/
0%
#54000
0!
0-
0/
1%
#55000
1!
1-
1/
0%
#56000
0!
0-
0/
1%
#57000
1!
1-
1/
0%
#58000
0!
0-
0/
1%
#59000
1!
1-
1/
0%
#60000
0!
0-
0/
1%
#61000
1!
1-
1/
0%
#62000
0!
0-
0/
1%
#63000
1!
1-
1/
0%
#64000
0!
0-
0/
1%
#65000
1!
1-
1/
0%
#66000
0!
0-
0/
1%
#67000
1!
1-
1/
0%
#68000
0!
0-
0/
1%
#69000
1!
1-
1/
0%
#70000
0!
0-
0/
1%
#71000
1!
1-
1/
0%
#72000
0!
0-
0/
1%
#73000
1!
1-
1/
0%
#74000
0!
0-
0/
1%
#75000
1!
1-
1/
0%
#76000
0!
0-
0/
1%
#77000
1!
1-
1/
0%
#78000
0!
0-
0/
1%
#79000
1!
1-
1/
0%
#80000
0!
0-
0/
1%
#81000
1!
1-
1/
0%
#82000
0!
0-
0/
1%
#83000
1!
1-
1/
0%
#84000
0!
0-
0/
1%
#85000
1!
1-
1/
0%
#86000
0!
0-
0/
1%
#87000
1!
1-
1/
0%
#88000
0!
0-
0/
1%
#89000
1!
1-
1/
0%
#90000
0!
0-
0/
1%
#91000
1!
1-
1/
0%
#92000
0!
0-
0/
1%
#93000
1!
1-
1/
0%
#94000
0!
0-
0/
1%
#95000
1!
1-
1/
0%
#96000
0!
0-
0/
1%
#97000
1!
1-
1/
0%
#98000
0!
0-
0/
1%
#99000
1!
1-
1/
0%
#100000
0!
0-
0/
1%
#101000
1!
1-
1/
0%
#102000
0!
0-
0/
1%
#103000
1!
1-
1/
0%
#104000
0!
0-
0/
1%
#105000
1!
1-
1/
0%
#106000
0!
0-
0/
1%
#107000
1!
1-
1/
0%
#108000
0!
0-
0/
1%
#109000
1!
1-
1/
0%
#110000
0!
0-
0/
1%
#111000
1!
1-
1/
0%
#112000
0!
0-
0/
1%
#113000
1!
1-
1/
0%
#114000
0!
0-
0/
1%
#115000
1!
1-
1/
0%
#116000
0!
0-
0/
1%
#117000
1!
1-
1/
0%
#118000
0!
0-
0/
1%
#119000
1!
1-
1/
0%
#120000
0!
0-
0/
1%
#121000
1!
1-
1/
0%
#122000
0!
0-
0/
1%
#123000
1!
1-
1/
0%
#124000
0!
0-
0/
1%
#125000
1!
1-
1/
0%
#126000
0!
0-
0/
1%
#127000
1!
1-
1/
0%
#128000
0!
0-
0/
1%
#129000
1!
1-
1/
0%
#130000
0!
0-
0/
1%
#131000
1!
1-
1/
0%
#132000
0!
0-
0/
1%
#133000
1!
1-
1/
0%
#134000
0!
0-
0/
1%
#135000
1!
1-
1/
0%
#136000
0!
0-
0/
1%
#137000
1!
1-
1/
0%
#138000
0!
0-
0/
1%
#139000
1!
1-
1/
0%
#140000
0!
0-
0/
1%
#141000
1!
1-
1/
0%
#142000
0!
0-
0/
1%
#143000
1!
1-
1/
0%
#144000
0!
0-
0/
1%
#145000
1!
1-
1/
0%
#146000
0!
0-
0/
1%
#147000
1!
1-
1/
0%
#148000
0!
0-
0/
1%
#149000
1!
1-
1/
0%
#150000
0!
0-
0/
1%
#151000
1!
1-
1/
0%
#152000
0!
0-
0/
1%
#153000
1!
1-
1/
0%
#154000
0!
0-
0/
1%
#155000
1!
1-
1/
0%
#156000
0!
0-
0/
1%
#157000
1!
1-
1/
0%
#158000
0!
0-
0/
1%
#159000
1!
1-
1/
0%
#160000
0!
0-
0/
1%
#161000
1!
1-
1/
0%
#162000
0!
0-
0/
1%
#163000
1!
1-
1/
0%
#164000
0!
0-
0/
1%
#165000
1!
1-
1/
0%
#166000
0!
0-
0/
1%
#167000
1!
1-
1/
0%
#168000
0!
0-
0/
1%
#169000
1!
1-
1/
0%
#170000
0!
0-
0/
1%
#171000
1!
1-
1/
0%
#172000
0!
0-
0/
1%
#173000
1!
1-
1/
0%
#174000
0!
0-
0/
1%
#175000
1!
1-
1/
0%
#176000
0!
0-
0/
1%
#177000
1!
1-
1/
0%
#178000
0!
0-
0/
1%
#179000
1!
1-
1/
0%
#180000
0!
0-
0/
1%
#181000
1!
1-
1/
0%
#182000
0!
0-
0/
1%
#183000
1!
1-
1/
0%
#184000
0!
0-
0/
1%
#185000
1!
1-
1/
0%
#186000
0!
0-
0/
1%
#187000
1!
1-
1/
0%
#188000
0!
0-
0/
1%
#189000
1!
1-
1/
0%
#190000
0!
0-
0/
1%
#191000
1!
1-
1/
0%
#192000
0!
0-
0/
1%
#193000
1!
1-
1/
0%
#194000
0!
0-
0/
1%
#195000
1!
1-
1/
0%
#196000
0!
0-
0/
1%
#197000
1!
1-
1/
0%
#198000
0!
0-
0/
1%
#199000
1!
1-
1/
0%
#200000
0!
0-
0/
1%
#201000
1!
1-
1/
0%
#202000
0!
0-
0/
1%
#203000
1!
1-
1/
0%
#204000
0!
0-
0/
1%
#205000
1!
1-
1/
0%
#206000
0!
0-
0/
1%
#207000
1!
1-
1/
0%
#208000
0!
0-
0/
1%
#209000
1!
1-
1/
0%
#210000
0!
0-
0/
1%
#211000
1!
1-
1/
0%
#212000
0!
0-
0/
1%
#213000
1!
1-
1/
0%
#214000
0!
0-
0/
1%
#215000
1!
1-
1/
0%
#216000
0!
0-
0/
1%
#217000
1!
1-
1/
0%
#218000
0!
0-
0/
1%
#219000
1!
1-
1/
0%
#220000
0!
0-
0/
1%
#221000
1!
1-
1/
0%
#222000
0!
0-
0/
1%
#223000
1!
1-
1/
0%
#224000
0!
0-
0/
1%
#225000
1!
1-
1/
0%
#226000
0!
0-
0/
1%
#227000
1!
1-
1/
0%
#228000
0!
0-
0/
1%
#229000
1!
1-
1/
0%
#230000
0!
0-
0/
1%
#231000
1!
1-
1/
0%
#232000
0!
0-
0/
1%
#233000
1!
1-
1/
0%
#234000
0!
0-
0/
1%
#235000
1!
1-
1/
0%
#236000
0!
0-
0/
1%
#237000
1!
1-
1/
0%
#238000
0!
0-
0/
1%
#239000
1!
1-
1/
0%
#240000
0"
0!
0.
0-
0/
1%
0A
#241000
1!
1-
1/
0%
1Z
0I
0;
1B
00
1<
#242000
0!
0-
0/
1%
#243000
1!
1-
1/
0%
0Z
1Y
1I
1;
0B
10
0C
0<
1C
1<
1D
0D
#244000
0!
0-
0/
1%
#245000
1!
1-
1/
0%
1Z
0I
0;
1B
00
0C
0<
1D
#246000
0!
0-
0/
1%
#247000
1!
1-
1/
0%
1X
0Z
0Y
1E
0D
1I
1;
0B
10
1C
1<
1K
0<
0E
1D
0K
#248000
0!
0-
0/
1%
#249000
1!
1-
1/
0%
1Z
0I
0;
1B
00
1<
#250000
0!
0-
0/
1%
#251000
1!
1-
1/
0%
0Z
1Y
1I
1;
0B
10
0C
0<
1C
1<
1E
0D
0E
1D
1K
0K
#252000
0!
0-
0/
1%
#253000
1!
1-
1/
0%
1Z
0I
0;
1B
00
0C
0<
1E
0D
1K
#254000
0!
0-
0/
1%
#255000
1!
1-
1/
0%
1W
0X
0Z
0Y
0F
0K
0E
1D
1I
1;
0B
10
1C
1<
1=
1F
1K
0<
0D
0=
#256000
0!
0-
0/
1%
#257000
1!
1-
1/
0%
1Z
0I
0;
1B
00
1<
#258000
0!
0-
0/
1%
#259000
1!
1-
1/
0%
0Z
1Y
1I
1;
0B
10
1L
0C
0<
1C
1<
1D
0D
#260000
0!
0-
0/
1%
#261000
1!
1-
1/
0%
1Z
0I
0;
1B
00
0C
0<
1D
#262000
0!
0-
0/
1%
#263000
1!
1-
1/
0%
1X
0Z
0Y
0L
1E
0D
1I
1;
0B
10
1C
1<
0F
0K
0<
0E
1D
1=
1F
1K
0=
#264000
0!
0-
0/
1%
#265000
1!
1-
1/
0%
1Z
0I
0;
1B
00
1<
#266000
0!
0-
0/
1%
#267000
1!
1-
1/
0%
0Z
1Y
1I
1;
0B
10
0C
0<
1C
1<
1E
0D
0E
1D
0F
0K
1F
1K
1=
0=
#268000
0!
0-
0/
1%
#269000
1!
1-
1/
0%
1Z
0I
0;
1B
00
0C
0<
1E
0D
0F
0K
1=
#270000
0!
0-
0/
1%
#271000
1!
1-
1/
0%
0W
0X
0Z
1V
0Y
1F
1K
0E
1D
1I
1;
0B
10
1G
0=
1C
1<
0G
1=
0K
0<
1H
0D
0H
#272000
0!
0-
0/
1%
#273000
1!
1-
1/
0%
1Z
0I
0;
1B
00
1<
#274000
0!
0-
0/
1%
#275000
1!
1-
1/
0%
0Z
1Y
1I
1;
0B
10
0C
0<
1C
1<
1D
0D
#276000
0!
0-
0/
1%
#277000
1!
1-
1/
0%
1Z
0I
0;
1B
00
0C
0<
1D
#278000
0!
0-
0/
1%
#279000
1!
1-
1/
0%
1X
0Z
0Y
1E
0D
0>
1I
1;
0B
10
1C
1<
1K
0<
0E
1D
0K
#280000
0!
0-
0/
1%
#281000
1!
1-
1/
0%
1Z
0I
0;
1B
00
1<
#282000
0!
0-
0/
1%
#283000
1!
1-
1/
0%
0Z
1Y
1I
1;
0B
10
1>
0C
0<
1C
1<
1E
0D
0E
1D
1K
0K
#284000
0!
0-
0/
1%
#285000
1!
1-
1/
0%
1Z
0I
0;
1B
00
0C
0<
1E
0D
1K
#286000
0!
0-
0/
1%
#287000
1!
1-
1/
0%
1W
0X
0Z
0Y
0F
0K
0E
1D
1I
1;
0B
10
1C
1<
1G
0=
1F
1K
0<
0D
1H
0G
1=
0H
#288000
0!
0-
0/
1%
#289000
1!
1-
1/
0%
1Z
0I
0;
1B
00
1<
#290000
0!
0-
0/
1%
#291000
1!
1-
1/
0%
0Z
1Y
1I
1;
0B
10
0C
0<
1C
1<
1D
0D
#292000
0!
0-
0/
1%
#293000
1!
1-
1/
0%
1Z
0I
0;
1B
00
0C
0<
1D
#294000
0!
0-
0/
1%
#295000
1!
1-
1/
0%
1X
0Z
0Y
1E
0D
1I
1;
0B
10
1C
1<
0F
0K
0<
0E
1D
1G
0=
1F
1K
1H
0G
1=
0H
#296000
0!
0-
0/
1%
#297000
1!
1-
1/
0%
1Z
0I
0;
1B
00
1<
#298000
0!
0-
0/
1%
#299000
1!
1-
1/
0%
0Z
1Y
1I
1;
0B
10
0C
0<
1C
1<
1E
0D
0E
1D
0F
0K
1F
1K
1G
0=
0G
1=
1H
0H
#300000
0!
0-
0/
1%
#301000
1!
1-
1/
0%
1Z
0I
0;
1B
00
0C
0<
1E
0D
0F
0K
1G
0=
1H
#302000
0!
0-
0/
1%
#303000
1!
1-
1/
0%
0W
1U
0X
0Z
0V
0Y
1F
1K
1;
01
0H
0E
1D
0B
10
0G
1=
1C
1<
0=
1,
0K
0<
11
1H
0D
0,
#304000
0!
0-
0/
1%
#305000
1!
1-
1/
0%
1Z
1B
00
1<
#306000
0!
0-
0/
1%
#307000
1!
1-
1/
0%
0Z
1Y
0B
10
0C
0<
1C
1<
1D
0D
#308000
0!
0-
0/
1%
#309000
1!
1-
1/
0%
1Z
1B
00
0C
0<
1D
#310000
0!
0-
0/
1%
#311000
1!
1-
1/
0%
1X
0Z
0Y
1E
0D
0B
10
1C
1<
1K
0<
0E
1D
0K
#312000
0!
0-
0/
1%
#313000
1!
1-
1/
0%
1Z
1B
00
1<
#314000
0!
0-
0/
1%
#315000
1!
1-
1/
0%
0Z
1Y
0B
10
0C
0<
1C
1<
1E
0D
0E
1D
1K
0K
#316000
0!
0-
0/
1%
#317000
1!
1-
1/
0%
1Z
1B
00
0C
0<
1E
0D
1K
#318000
0!
0-
0/
1%
#319000
1!
1-
1/
0%
1W
0X
0Z
0Y
0F
0K
0E
1D
0B
10
1C
1<
1=
1F
1K
0<
0D
0=
#320000
0!
0-
0/
1%
#321000
1!
1-
1/
0%
1Z
1B
00
1<
#322000
0!
0-
0/
1%
#323000
1!
1-
1/
0%
0Z
1Y
0B
10
1L
0C
0<
1C
1<
1D
0D
#324000
0!
0-
0/
1%
#325000
1!
1-
1/
0%
1Z
1B
00
0C
0<
1D
#326000
0!
0-
0/
1%
#327000
1!
1-
1/
0%
1X
0Z
0Y
0L
1E
0D
0B
10
1C
1<
0F
0K
0<
0E
1D
1=
1F
1K
0=
#328000
0!
0-
0/
1%
#329000
1!
1-
1/
0%
1Z
1B
00
1<
#330000
0!
0-
0/
1%
#331000
1!
1-
1/
0%
0Z
1Y
0B
10
0C
0<
1C
1<
1E
0D
0E
1D
0F
0K
1F
1K
1=
0=
#332000
0!
0-
0/
1%
#333000
1!
1-
1/
0%
1Z
1B
00
0C
0<
1E
0D
0F
0K
1=
#334000
0!
0-
0/
1%
#335000
1!
1-
1/
0%
0W
0X
0Z
1V
0Y
1F
1K
0E
1D
0B
10
1G
0=
1C
1<
0G
1=
0K
0<
01
0H
0D
11
1H
1,
0,
#336000
0!
0-
0/
1%
#337000
1!
1-
1/
0%
1Z
1B
00
1<
#338000
0!
0-
0/
1%
#339000
1!
1-
1/
0%
0Z
1Y
0B
10
0C
0<
1C
1<
1D
0D
#340000
0!
0-
0/
1%
#341000
1!
1-
1/
0%
1Z
1B
00
0C
0<
1D
#342000
0!
0-
0/
1%
#343000
1!
1-
1/
0%
1X
0Z
0Y
1E
0D
0>
0B
10
1C
1<
1K
0<
0E
1D
0K
#344000
0!
0-
0/
1%
#345000
1!
1-
1/
0%
1Z
1B
00
1<
#346000
0!
0-
0/
1%
#347000
1!
1-
1/
0%
0Z
1Y
0B
10
1>
0C
0<
1C
1<
1E
0D
0E
1D
1K
0K
#348000
0!
0-
0/
1%
#349000
1!
1-
1/
0%
1Z
1B
00
0C
0<
1E
0D
1K
#350000
0!
0-
0/
1%
#351000
1!
1-
1/
0%
1W
0X
0Z
0Y
0F
0K
0E
1D
0B
10
1C
1<
1G
0=
1F
1K
0<
0D
01
0H
0G
1=
1,
11
1H
0,
#352000
0!
0-
0/
1%
#353000
1!
1-
1/
0%
1Z
1B
00
1<
#354000
0!
0-
0/
1%
#355000
1!
1-
1/
0%
0Z
1Y
0B
10
0C
0<
1C
1<
1D
0D
#356000
0!
0-
0/
1%
#357000
1!
1-
1/
0%
1Z
1B
00
0C
0<
1D
#358000
0!
0-
0/
1%
#359000
1!
1-
1/
0%
1X
0Z
0Y
1E
0D
0B
10
1C
1<
0F
0K
0<
0E
1D
1G
0=
1F
1K
01
0H
0G
1=
1,
11
1H
0,
#360000
0!
0-
0/
1%
#361000
1!
1-
1/
0%
1Z
1B
00
1<
#362000
0!
0-
0/
1%
#363000
1!
1-
1/
0%
0Z
1Y
0B
10
0C
0<
1C
1<
1E
0D
0E
1D
0F
0K
1F
1K
1G
0=
0G
1=
01
0H
11
1H
1,
0,
#364000
0!
0-
0/
1%
#365000
1!
1-
1/
0%
1Z
1B
00
0C
0<
1E
0D
0F
0K
1G
0=
01
0H
1,
#366000
0!
0-
0/
1%
#367000
1!
1-
1/
0%
0W
0U
0X
0Z
0V
0Y
1T
1F
1K
11
1H
0E
1D
0B
10
0G
1=
1C
1<
12
0,
0=
02
1,
0K
0<
0H
0D
13
03
#368000
0!
0-
0/
1%
#369000
1!
1-
1/
0%
1Z
1B
00
1<
#370000
0!
0-
0/
1%
#371000
1!
1-
1/
0%
0Z
1Y
0B
10
0C
0<
1C
1<
1D
0D
#372000
0!
0-
0/
1%
#373000
1!
1-
1/
0%
1Z
1B
00
0C
0<
1D
#374000
0!
0-
0/
1%
#375000
1!
1-
1/
0%
1X
0Z
0Y
1E
0D
0B
10
1C
1<
1K
0<
0E
1D
0K
#376000
0!
0-
0/
1%
#377000
1!
1-
1/
0%
1Z
1B
00
1<
#378000
0!
0-
0/
1%
#379000
1!
1-
1/
0%
0Z
1Y
0B
10
0C
0<
1C
1<
1E
0D
0E
1D
1K
0K
#380000
0!
0-
0/
1%
#381000
1!
1-
1/
0%
1Z
1B
00
0C
0<
1E
0D
1K
#382000
0!
0-
0/
1%
#383000
1!
1-
1/
0%
1W
0X
0Z
0Y
0F
0K
0E
1D
0B
10
1C
1<
1=
1F
1K
0<
0D
0=
#384000
0!
0-
0/
1%
#385000
1!
1-
1/
0%
1Z
1B
00
1<
#386000
0!
0-
0/
1%
#387000
1!
1-
1/
0%
0Z
1Y
0B
10
1L
0C
0<
1C
1<
1D
0D
#388000
0!
0-
0/
1%
#389000
1!
1-
1/
0%
1Z
1B
00
0C
0<
1D
#390000
0!
0-
0/
1%
#391000
1!
1-
1/
0%
1X
0Z
0Y
0L
1E
0D
0B
10
1C
1<
0F
0K
0<
0E
1D
1=
1F
1K
0=
#392000
0!
0-
0/
1%
#393000
1!
1-
1/
0%
1Z
1B
00
1<
#394000
0!
0-
0/
1%
#395000
1!
1-
1/
0%
0Z
1Y
0B
10
0C
0<
1C
1<
1E
0D
0E
1D
0F
0K
1F
1K
1=
0=
#396000
0!
0-
0/
1%
#397000
1!
1-
1/
0%
1Z
1B
00
0C
0<
1E
0D
0F
0K
1=
#398000
0!
0-
0/
1%
#399000
1!
1-
1/
0%
0W
0X
0Z
1V
0Y
1F
1K
0E
1D
0B
10
1G
0=
1C
1<
0G
1=
0K
0<
1H
0D
0H
#400000
0!
0-
0/
1%
#401000
1!
1-
1/
0%
1Z
1B
00
1<
#402000
0!
0-
0/
1%
#403000
1!
1-
1/
0%
0Z
1Y
0B
10
0C
0<
1C
1<
1D
0D
#404000
0!
0-
0/
1%
#405000
1!
1-
1/
0%
1Z
1B
00
0C
0<
1D
#406000
0!
0-
0/
1%
#407000
1!
1-
1/
0%
1X
0Z
0Y
1E
0D
0>
0B
10
1C
1<
1K
0<
0E
1D
0K
#408000
0!
0-
0/
1%
#409000
1!
1-
1/
0%
1Z
1B
00
1<
#410000
0!
0-
0/
1%
#411000
1!
1-
1/
0%
0Z
1Y
0B
10
1>
0C
0<
1C
1<
1E
0D
0E
1D
1K
0K
#412000
0!
0-
0/
1%
#413000
1!
1-
1/
0%
1Z
1B
00
0C
0<
1E
0D
1K
#414000
0!
0-
0/
1%
#415000
1!
1-
1/
0%
1W
0X
0Z
0Y
0F
0K
0E
1D
0B
10
1C
1<
1G
0=
1F
1K
0<
0D
1H
0G
1=
0H
#416000
0!
0-
0/
1%
#417000
1!
1-
1/
0%
1Z
1B
00
1<
#418000
0!
0-
0/
1%
#419000
1!
1-
1/
0%
0Z
1Y
0B
10
0C
0<
1C
1<
1D
0D
#420000
0!
0-
0/
1%
#421000
1!
1-
1/
0%
1Z
1B
00
0C
0<
1D
#422000
0!
0-
0/
1%
#423000
1!
1-
1/
0%
1X
0Z
0Y
1E
0D
0B
10
1C
1<
0F
0K
0<
0E
1D
1G
0=
1F
1K
1H
0G
1=
0H
#424000
0!
0-
0/
1%
#425000
1!
1-
1/
0%
1Z
1B
00
1<
#426000
0!
0-
0/
1%
#427000
1!
1-
1/
0%
0Z
1Y
0B
10
0C
0<
1C
1<
1E
0D
0E
1D
0F
0K
1F
1K
1G
0=
0G
1=
1H
0H
#428000
0!
0-
0/
1%
#429000
1!
1-
1/
0%
1Z
1B
00
0C
0<
1E
0D
0F
0K
1G
0=
1H
#430000
0!
0-
0/
1%
#431000
1!
1-
1/
0%
0W
1U
0X
0Z
0V
0Y
1F
1K
01
0H
0E
1D
0B
10
0G
1=
1C
1<
0=
12
0,
0K
0<
11
1H
0D
13
02
1,
03
#432000
0!
0-
0/
1%
#433000
1!
1-
1/
0%
1Z
1B
00
1<
#434000
0!
0-
0/
1%
#435000
1!
1-
1/
0%
0Z
1Y
0B
10
0C
0<
1C
1<
1D
0D
#436000
0!
0-
0/
1%
#437000
1!
1-
1/
0%
1Z
1B
00
0C
0<
1D
#438000
0!
0-
0/
1%
#439000
1!
1-
1/
0%
1X
0Z
0Y
1E
0D
0B
10
1C
1<
1K
0<
0E
1D
0K
#440000
0!
0-
0/
1%
#441000
1!
1-
1/
0%
1Z
1B
00
1<
#442000
0!
0-
0/
1%
#443000
1!
1-
1/
0%
0Z
1Y
0B
10
0C
0<
1C
1<
1E
0D
0E
1D
1K
0K
#444000
0!
0-
0/
1%
#445000
1!
1-
1/
0%
1Z
1B
00
0C
0<
1E
0D
1K
#446000
0!
0-
0/
1%
#447000
1!
1-
1/
0%
1W
0X
0Z
0Y
0F
0K
0E
1D
0B
10
1C
1<
1=
1F
1K
0<
0D
0=
#448000
0!
0-
0/
1%
#449000
1!
1-
1/
0%
1Z
1B
00
1<
#450000
0!
0-
0/
1%
#451000
1!
1-
1/
0%
0Z
1Y
0B
10
1L
0C
0<
1C
1<
1D
0D
#452000
0!
0-
0/
1%
#453000
1!
1-
1/
0%
1Z
1B
00
0C
0<
1D
#454000
0!
0-
0/
1%
#455000
1!
1-
1/
0%
1X
0Z
0Y
0L
1E
0D
0B
10
1C
1<
0F
0K
0<
0E
1D
1=
1F
1K
0=
#456000
0!
0-
0/
1%
#457000
1!
1-
1/
0%
1Z
1B
00
1<
#458000
0!
0-
0/
1%
#459000
1!
1-
1/
0%
0Z
1Y
0B
10
0C
0<
1C
1<
1E
0D
0E
1D
0F
0K
1F
1K
1=
0=
#460000
0!
0-
0/
1%
#461000
1!
1-
1/
0%
1Z
1B
00
0C
0<
1E
0D
0F
0K
1=
#462000
0!
0-
0/
1%
#463000
1!
1-
1/
0%
0W
0X
0Z
1V
0Y
1F
1K
0E
1D
0B
10
1G
0=
1C
1<
0G
1=
0K
0<
01
0H
0D
11
1H
12
0,
02
1,
13
03
#464000
0!
0-
0/
1%
#465000
1!
1-
1/
0%
1Z
1B
00
1<
#466000
0!
0-
0/
1%
#467000
1!
1-
1/
0%
0Z
1Y
0B
10
0C
0<
1C
1<
1D
0D
#468000
0!
0-
0/
1%
#469000
1!
1-
1/
0%
1Z
1B
00
0C
0<
1D
#470000
0!
0-
0/
1%
#471000
1!
1-
1/
0%
1X
0Z
0Y
1E
0D
0>
0B
10
1C
1<
1K
0<
0E
1D
0K
#472000
0!
0-
0/
1%
#473000
1!
1-
1/
0%
1Z
1B
00
1<
#474000
0!
0-
0/
1%
#475000
1!
1-
1/
0%
0Z
1Y
0B
10
1>
0C
0<
1C
1<
1E
0D
0E
1D
1K
0K
#476000
0!
0-
0/
1%
#477000
1!
1-
1/
0%
1Z
1B
00
0C
0<
1E
0D
1K
#478000
0!
0-
0/
1%
#479000
1!
1-
1/
0%
1W
0X
0Z
0Y
0F
0K
0E
1D
0B
10
1C
1<
1G
0=
1F
1K
0<
0D
01
0H
0G
1=
12
0,
11
1H
13
02
1,
03
#480000
0!
0-
0/
1%
#481000
1!
1-
1/
0%
1Z
1B
00
1<
#482000
0!
0-
0/
1%
#483000
1!
1-
1/
0%
0Z
1Y
0B
10
0C
0<
1C
1<
1D
0D
#484000
0!
0-
0/
1%
#485000
1!
1-
1/
0%
1Z
1B
00
0C
0<
1D
#486000
0!
0-
0/
1%
#487000
1!
1-
1/
0%
1X
0Z
0Y
1E
0D
0B
10
1C
1<
0F
0K
0<
0E
1D
1G
0=
1F
1K
01
0H
0G
1=
12
0,
11
1H
13
02
1,
03
#488000
0!
0-
0/
1%
#489000
1!
1-
1/
0%
1Z
1B
00
1<
#490000
0!
0-
0/
1%
#491000
1!
1-
1/
0%
0Z
1Y
0B
10
0C
0<
1C
1<
1E
0D
0E
1D
0F
0K
1F
1K
1G
0=
0G
1=
01
0H
11
1H
12
0,
02
1,
13
03
#492000
0!
0-
0/
1%
#493000
1!
1-
1/
0%
1Z
1B
00
0C
0<
1E
0D
0F
0K
1G
0=
01
0H
12
0,
13
#494000
0!
0-
0/
1%
#495000
1!
1-
1/
0%
0W
0U
0X
0Z
0V
0Y
1S
0T
1F
1K
1I
11
1H
0E
1D
0B
10
0G
1=
1C
1<
04
03
02
1,
0=
0,
0K
0<
0H
0D
15
14
13
05
#496000
0!
0-
0/
1%
#497000
1!
1-
1/
0%
1Z
0I
0;
1B
00
1<
#498000
0!
0-
0/
1%
#499000
1!
1-
1/
0%
0Z
1Y
1I
1;
0B
10
0C
0<
1C
1<
1D
0D
#500000
0!
0-
0/
1%
#501000
1!
1-
1/
0%
1Z
0I
0;
1B
00
0C
0<
1D
#502000
0!
0-
0/
1%
#503000
1!
1-
1/
0%
1X
0Z
0Y
1E
0D
1I
1;
0B
10
1C
1<
1K
0<
0E
1D
0K
#504000
0!
0-
0/
1%
#505000
1!
1-
1/
0%
1Z
0I
0;
1B
00
1<
#506000
0!
0-
0/
1%
#507000
1!
1-
1/
0%
0Z
1Y
1I
1;
0B
10
0C
0<
1C
1<
1E
0D
0E
1D
1K
0K
#508000
0!
0-
0/
1%
#509000
1!
1-
1/
0%
1Z
0I
0;
1B
00
0C
0<
1E
0D
1K
#510000
0!
0-
0/
1%
#511000
1!
1-
1/
0%
1W
0X
0Z
0Y
0F
0K
0E
1D
1I
1;
0B
10
1C
1<
1=
1F
1K
0<
0D
0=
#512000
0!
0-
0/
1%
#513000
1!
1-
1/
0%
1Z
0I
0;
1B
00
1<
#514000
0!
0-
0/
1%
#515000
1!
1-
1/
0%
0Z
1Y
1I
1;
0B
10
1L
0C
0<
1C
1<
1D
0D
#516000
0!
0-
0/
1%
#517000
1!
1-
1/
0%
1Z
0I
0;
1B
00
0C
0<
1D
#518000
0!
0-
0/
1%
#519000
1!
1-
1/
0%
1X
0Z
0Y
0L
1E
0D
1I
1;
0B
10
1C
1<
0F
0K
0<
0E
1D
1=
1F
1K
0=
#520000
0!
0-
0/
1%
