UART/RXD /counter/simulation/qsim/counter.msim.vcd
$comment
	File created using the following command:
		vcd file counter.msim.vcd -direction
$end
$date
	Tue Nov 10 09:29:48 2015
$end
$version
	ModelSim Version 10.1d
$end
$timescale
	1ps
$end
$scope module counter_vlg_vec_tst $end
$var reg 1 ! clear $end
$var reg 1 " clk $end
$var reg 1 # count $end
$var wire 1 $ bit_done $end
$var wire 1 % sampler $end
$scope module i1 $end
$var wire 1 & gnd $end
$var wire 1 ' vcc $end
$var wire 1 ( unknown $end
$var tri1 1 ) devclrn $end
$var tri1 1 * devpor $end
$var tri1 1 + devoe $end
$var wire 1 , p_cnt[0]~5_combout $end
$var wire 1 - clk~combout $end
$var wire 1 . clk~clkctrl_outclk $end
$var wire 1 / p_cnt[0]~6 $end
$var wire 1 0 p_cnt[1]~7_combout $end
$var wire 1 1 clear~combout $end
$var wire 1 2 p_cnt[3]~12 $end
$var wire 1 3 p_cnt[4]~13_combout $end
$var wire 1 4 count~combout $end
$var wire 1 5 p_cnt[4]~16_combout $end
$var wire 1 6 p_cnt[4]~15_combout $end
$var wire 1 7 p_cnt[1]~8 $end
$var wire 1 8 p_cnt[2]~10 $end
$var wire 1 9 p_cnt[3]~11_combout $end
$var wire 1 : p_cnt[2]~9_combout $end
$var wire 1 ; Equal0~0_combout $end
$var wire 1 < Equal0~1_combout $end
$var wire 1 = p_cnt [4] $end
$var wire 1 > p_cnt [3] $end
$var wire 1 ? p_cnt [2] $end
$var wire 1 @ p_cnt [1] $end
$var wire 1 A p_cnt [0] $end
$upscope $end
$upscope $end
$enddefinitions $end
#0
$dumpvars
1!
0"
1#
0$
x%
0&
1'
x(
1)
1*
1+
1,
0-
0.
0/
00
11
12
03
14
15
16
17
08
09
0:
1;
1<
0A
0@
0?
0>
0=
$end
#10000
1"
1-
1.
0%
#20000
0"
0-
0.
1%
#30000
1"
1-
1.
0%
#40000
0"
0-
0.
1%
#50000
1"
1-
1.
0%
#60000
0"
0-
0.
1%
#70000
1"
1-
1.
0%
#80000
0"
0-
0.
1%
#90000
1"
1-
1.
0%
#100000
0"
0-
0.
1%
#110000
1"
1-
1.
0%
#120000
0"
0-
0.
1%
#130000
1"
1-
1.
0%
#140000
0"
0-
0.
1%
#150000
1"
1-
1.
0%
#160000
0"
0-
0.
1%
#170000
1"
1-
1.
0%
#180000
0"
0-
0.
1%
#190000
0!
1"
01
1-
1.
0%
06
#200000
0"
0-
0.
1%
#210000
1"
1-
1.
0%
1A
1/
0,
10
#220000
0"
0-
0.
1%
#230000
1"
1-
1.
0%
1@
0A
07
00
0/
1,
1:
17
10
0:
#240000
0"
0-
0.
1%
#250000
1"
1-
1.
0%
1A
1/
0,
07
00
1:
#260000
0"
0-
0.
1%
#270000
1"
1-
1.
0%
1?
0@
0A
18
0:
17
10
0/
1,
19
08
1:
00
09
#280000
0"
0-
0.
1%
#290000
1"
1-
1.
0%
1A
1/
0,
10
#300000
0"
0-
0.
1%
#310000
1"
1-
1.
0%
1@
0A
07
00
0/
1,
18
0:
17
10
19
08
1:
09
#320000
0"
0-
0.
1%
#330000
1"
1-
1.
0%
1A
1/
0,
07
00
18
0:
19
#340000
0"
0-
0.
1%
#350000
1"
1-
1.
0%
0?
1>
0@
0A
08
1:
02
09
17
10
0/
1,
12
19
13
0:
00
03
#360000
0"
0-
0.
1%
#370000
1"
1-
1.
0%
1A
1/
0,
10
#380000
0"
0-
0.
1%
#390000
1"
1-
1.
0%
1@
0A
07
00
0/
1,
1:
17
10
0:
#400000
0"
0-
0.
1%
#410000
1"
1-
1.
0%
1A
0;
1/
0,
0<
16
07
00
1:
1$
#420000
0"
0-
0.
1%
#430000
1"
1-
1.
0%
0>
0@
0A
1;
09
17
10
0/
1,
1<
06
0:
00
0$
#440000
0"
0-
0.
1%
#450000
1"
1-
1.
0%
1A
1/
0,
10
#460000
0"
0-
0.
1%
#470000
1"
1-
1.
0%
1@
0A
07
00
0/
1,
1:
17
10
0:
#480000
0"
0-
0.
1%
#490000
1"
1-
1.
0%
1A
1/
0,
07
00
1:
#500000
0"
0-
0.
1%
#510000
1"
1-
1.
0%
1?
0@
0A
18
0:
17
10
0/
1,
19
08
1:
00
09
#520000
0"
0-
0.
1%
#530000
1"
1-
1.
0%
1A
1/
0,
10
#540000
0"
0-
0.
1%
#550000
1"
1-
1.
0%
1@
0A
07
00
0/
1,
18
0:
17
10
19
08
1:
09
#560000
0"
0-
0.
1%
#570000
1"
1-
1.
0%
1A
1/
0,
07
00
18
0:
19
#580000
0"
0-
0.
1%
#590000
1"
1-
1.
0%
0?
1>
0@
0A
08
1:
02
09
17
10
0/
1,
12
19
13
0:
00
03
#600000
0"
0-
0.
1%
#610000
1"
1-
1.
0%
1A
1/
0,
10
#620000
0"
0-
0.
1%
#630000
1"
1-
1.
0%
1@
0A
07
00
0/
1,
1:
17
10
0:
#640000
0"
0-
0.
1%
#650000
1"
1-
1.
0%
1A
0;
1/
0,
0<
16
07
00
1:
1$
#660000
0"
0-
0.
1%
#670000
1"
1-
1.
0%
0>
0@
0A
1;
09
17
10
0/
1,
1<
06
0:
00
0$
#680000
0"
0-
0.
1%
#690000
1"
1-
1.
0%
1A
1/
0,
10
#700000
0"
0-
0.
1%
#710000
1"
1-
1.
0%
1@
0A
07
00
0/
1,
1:
17
10
0:
#720000
0"
0-
0.
1%
#730000
1"
1-
1.
0%
1A
1/
0,
07
00
1:
#740000
0"
0-
0.
1%
#750000
1"
1-
1.
0%
1?
0@
0A
18
0:
17
10
0/
1,
19
08
1:
00
09
#760000
0"
0-
0.
1%
#770000
1"
1-
1.
0%
1A
1/
0,
10
#780000
0"
0-
0.
1%
#790000
1"
1-
1.
0%
1@
0A
07
00
0/
1,
18
0:
17
10
19
08
1:
09
#800000
0"
0-
0.
1%
#810000
1"
1-
1.
0%
1A
1/
0,
07
00
18
0:
19
#820000
0"
0-
0.
1%
#830000
1"
1-
1.
0%
0?
1>
0@
0A
08
1:
02
09
17
10
0/
1,
12
19
13
0:
00
03
#840000
0"
0-
0.
1%
#850000
1"
1-
1.
0%
1A
1/
0,
10
#860000
0"
0-
0.
1%
#870000
1"
1-
1.
0%
1@
0A
07
00
0/
1,
1:
17
10
0:
#880000
0"
0-
0.
1%
#890000
1"
1-
1.
0%
1A
0;
1/
0,
0<
16
07
00
1:
1$
#900000
0"
0-
0.
1%
#910000
1"
1-
1.
0%
0>
0@
0A
1;
09
17
10
0/
1,
1<
06
0:
00
0$
#920000
0"
0-
0.
1%
#930000
1"
1-
1.
0%
1A
1/
0,
10
#940000
0"
0-
0.
1%
#950000
1"
1-
1.
0%
1@
0A
07
00
0/
1,
1:
17
10
0:
#960000
0"
0-
0.
1%
#970000
1"
1-
1.
0%
1A
1/
0,
07
00
1:
#980000
0"
0-
0.
1%
#990000
1"
1-
1.
0%
1?
0@
0A
18
0:
17
10
0/
1,
19
08
1:
00
09
